bit-time-detector.vcd
$comment Generated by nMigen $end
$date 2020-12-24 05:28:03.729705 $end
$timescale 100 ps $end
$scope module top $end
$var wire 1 ! clk_in $end
$var wire 1 " rst $end
$var wire 32 # max_sync_counter $end
$var wire 32 $ last_max $end
$var wire 1 % got_sync_frame $end
$var wire 1 & last_got_sync_frame $end
$var wire 1 ' rst_in $end
$var wire 32 ( bit_length_out $end
$var wire 1 ) active_in $end
$var wire 1 * got_sync_frame_pulse $end
$var wire 1 + rst_in$1 $end
$var wire 1 , adat_in $end
$var wire 32 - counter_out $end
$var wire 32 . divided_counter_out $end
$scope module sync_counter $end
$var wire 1 ! clk_in $end
$var wire 1 " rst $end
$var wire 1 ' rst_in $end
$var wire 1 ) active_in $end
$var wire 32 - counter_out $end
$var wire 32 . divided_counter_out $end
$var wire 4 / dividing_cycle_counter $end
$var wire 1 0 dividable_out $end
$upscope $end
$upscope $end
$enddefinitions $end
#0
$dumpvars
0!
0"
b0 #
b0 $
0%
0&
0'
b0 (
1)
0*
0+
0,
b0 -
b0 .
b0 /
00
$end
#41
b1 /
b1 -
1!
#83
0!
#125
b10 /
b10 -
1!
b1 #
#166
0!
#208
b11 /
b11 -
1!
b10 #
#250
0!
#291
b100 /
b100 -
1!
b11 #
#333
0!
#375
b101 /
b101 -
1!
b100 #
#416
0!
#458
b110 /
b110 -
1!
b101 #
#499
0!
#541
b111 /
b111 -
1!
b110 #
#583
0!
#624
b1000 /
b1000 -
1!
b111 #
#666
0!
#708
b1001 /
b1001 -
1!
b1000 #
#750
0!
#791
b0 /
b1 .
10
b1010 -
1!
b1001 #
#833
0!
#875
b1 /
00
b1011 -
1!
b1010 #
#916
0!
#958
b10 /
b1100 -
1!
b1011 #
#1000
0!
#1041
b11 /
b1101 -
1!
b1100 #
#1083
0!
#1125
b100 /
b1110 -
1!
b1101 #
#1166
0!
#1208
b101 /
b1111 -
1!
b1110 #
#1220
0)
1,
#1250
0!
#1291
1'
b1110 $
1!
#1333
0!
#1375
b0 /
b0 -
1!
b0 .
#1416
0!
#1458
1!
#1500
0!
#1541
1!
#1583
0!
#1625
1!
#1666
0!
#1708
1!
#1750
0!
#1791
1!
#1833
0!
#1875
1!
#1916
0!
#1958
1!
#2000
0!
#2034
1)
0,
#2041
0'
1!
#2083
0!
#2125
b1 /
b1 -
1!
#2166
0!
#2208
b10 /
b10 -
1!
#2250
0!
#2291
b11 /
b11 -
1!
#2333
0!
#2375
b100 /
b100 -
1!
#2416
0!
#2458
b101 /
b101 -
1!
#2500
0!
#2541
b110 /
b110 -
1!
#2583
0!
#2625
b111 /
b111 -
1!
#2666
0!
#2708
b1000 /
b1000 -
1!
#2749
0!
#2791
b1001 /
b1001 -
1!
#2833
0!
#2874
b0 /
10
b1 .
b1010 -
1!
#2916
0!
#2958
b1 /
b1011 -
1!
00
#2999
0!
#3041
b10 /
b1100 -
1!
#3083
0!
#3124
b11 /
b1101 -
1!
#3166
0!
#3208
b100 /
b1110 -
1!
#3249
0!
#3291
b101 /
b1111 -
1!
#3333
0!
#3374
b110 /
b10000 -
1!
b1111 #
#3416
0!
#3458
b111 /
b10001 -
1!
b10000 #
#3499
0!
#3541
b1000 /
b10010 -
1!
b10001 #
#3583
0!
#3624
b1001 /
b10011 -
1!
b10010 #
#3666
0!
#3708
b0 /
b10 .
10
b10100 -
1!
b10011 #
#3749
0!
#3791
b1 /
00
b10101 -
1!
b10100 #
#3833
0!
#3874
b10 /
b10110 -
1!
b10101 #
#3916
0!
#3958
b11 /
b10111 -
1!
b10110 #
#3999
0!
#4041
b100 /
b11000 -
1!
b10111 #
#4083
0!
#4124
b101 /
b11001 -
1!
b11000 #
#4166
0!
#4208
b110 /
b11010 -
1!
b11001 #
#4249
0!
#4291
b111 /
b11011 -
1!
b11010 #
#4333
0!
#4374
b1000 /
b11100 -
1!
b11011 #
#4416
0!
#4458
b1001 /
b11101 -
1!
b11100 #
#4499
0!
#4541
b0 /
b11 .
10
b11110 -
1!
b11101 #
#4583
0!
#4624
b1 /
00
b11111 -
1!
b11110 #
#4666
0!
#4708
b10 /
b100000 -
1!
b11111 #
#4749
0!
#4791
b11 /
b100001 -
1!
b100000 #
#4833
0!
#4874
b100 /
b100010 -
1!
b100001 #
#4916
0!
#4958
b101 /
b100011 -
1!
b100010 #
#4999
0!
#5041
b110 /
b100100 -
1!
b100011 #
#5083
0!
#5124
b111 /
b100101 -
1!
b100100 #
#5166
0!
#5208
b1000 /
b100110 -
1!
b100101 #
#5249
0!
#5289
0)
1,
#5291
1'
b100101 $
1!
#5333
0!
#5374
b0 /
b0 -
1!
b0 .
#5416
0!
#5458
1!
#5499
0!
#5541
1!
#5583
0!
#5624
1!
#5666
0!
#5708
1!
#5749
0!
#5791
1!
#5833
0!
#5874
1!
#5916
0!
#5958
1!
#5999
0!
#6041
1!
#6083
0!
#6103
1)
0,
#6124
0'
1!
#6166
0!
#6208
b1 /
b1 -
1!
#6249
0!
#6291
b10 /
b10 -
1!
#6333
0!
#6375
b11 /
b11 -
1!
#6416
0!
#6458
b100 /
b100 -
1!
#6500
0!
#6541
b101 /
b101 -
1!
#6583
0!
#6625
b110 /
b110 -
1!
#6666
0!
#6708
b111 /
b111 -
1!
#6750
0!
#6791
b1000 /
b1000 -
1!
#6833
0!
#6875
b1001 /
b1001 -
1!
#6916
0!
#6958
b0 /
10
b1 .
b1010 -
1!
#7000
0!
#7041
b1 /
b1011 -
1!
00
#7083
0!
#7125
b10 /
b1100 -
1!
#7166
0!
#7208
b11 /
b1101 -
1!
#7250
0!
#7291
b100 /
b1110 -
1!
#7333
0!
#7375
b101 /
b1111 -
1!
#7416
0!
#7458
b110 /
b10000 -
1!
#7500
0!
#7541
b111 /
b10001 -
1!
#7583
0!
#7625
b1000 /
b10010 -
1!
#7666
0!
#7708
b1001 /
b10011 -
1!
#7750
0!
#7791
b0 /
10
b10 .
b10100 -
1!
#7833
0!
#7875
b1 /
b10101 -
1!
00
#7916
0!
#7958
b10 /
b10110 -
1!
#8000
0!
#8041
b11 /
b10111 -
1!
#8083
0!
#8125
b100 /
b11000 -
1!
#8166
0!
#8208
b101 /
b11001 -
1!
#8250
0!
#8291
b110 /
b11010 -
1!
#8333
0!
#8375
b111 /
b11011 -
1!
#8416
0!
#8458
b1000 /
b11100 -
1!
#8500
0!
#8541
b1001 /
b11101 -
1!
#8583
0!
#8625
b0 /
10
b11 .
b11110 -
1!
#8666
0!
#8708
b1 /
b11111 -
1!
00
#8750
0!
#8791
b10 /
b100000 -
1!
#8833
0!
#8875
b11 /
b100001 -
1!
#8916
0!
#8958
b100 /
b100010 -
1!
#9000
0!
#9041
b101 /
b100011 -
1!
#9083
0!
#9125
b110 /
b100100 -
1!
#9166
0!
#9208
b111 /
b100101 -
1!
#9250
0!
#9291
b1000 /
b100110 -
1!
#9333
0!
#9358
0)
1,
#9375
1'
1!
#9416
0!
#9458
b0 /
b0 -
1!
b0 .
#9500
0!
#9541
1!
#9583
0!
#9625
1!
#9666
0!
#9708
1!
#9750
0!
#9791
1!
#9833
0!
#9875
1!
#9916
0!
#9958
1!
#10000
0!
#10041
1!
#10083
0!
#10125
1!
#10166
0!
#10172
1)
0,
#10208
0'
1!
#10250
0!
#10291
b1 /
b1 -
1!
#10333
0!
#10375
b10 /
b10 -
1!
#10416
0!
#10458
b11 /
b11 -
1!
#10500
0!
#10541
b100 /
b100 -
1!
#10583
0!
#10625
b101 /
b101 -
1!
#10666
0!
#10708
b110 /
b110 -
1!
#10750
0!
#10791
b111 /
b111 -
1!
#10833
0!
#10875
b1000 /
b1000 -
1!
#10916
0!
#10958
b1001 /
b1001 -
1!
#11000
0!
#11041
b0 /
10
b1 .
b1010 -
1!
#11083
0!
#11125
b1 /
b1011 -
1!
00
#11166
0!
#11208
b10 /
b1100 -
1!
#11250
0!
#11291
b11 /
b1101 -
1!
#11333
0!
#11375
b100 /
b1110 -
1!
#11416
0!
#11458
b101 /
b1111 -
1!
#11500
0!
#11541
b110 /
b10000 -
1!
#11583
0!
#11625
b111 /
b10001 -
1!
#11666
0!
#11708
b1000 /
b10010 -
1!
#11750
0!
#11791
b1001 /
b10011 -
1!
#11833
0!
#11875
b0 /
10
b10 .
b10100 -
1!
#11916
0!
#11958
b1 /
b10101 -
1!
00
#12000
0!
#12041
b10 /
b10110 -
1!
#12083
0!
#12125
b11 /
b10111 -
1!
#12166
0!
#12208
b100 /
b11000 -
1!
#12250
0!
#12291
b101 /
b11001 -
1!
#12333
0!
#12375
b110 /
b11010 -
1!
#12416
0!
#12458
b111 /
b11011 -
1!
#12500
0!
#12541
b1000 /
b11100 -
1!
#12583
0!
#12625
b1001 /
b11101 -
1!
#12666
0!
#12708
b0 /
10
b11 .
b11110 -
1!
#12750
0!
#12791
b1 /
b11111 -
1!
00
#12833
0!
#12875
b10 /
b100000 -
1!
#12916
0!
#12958
b11 /
b100001 -
1!
#13000
0!
#13041
b100 /
b100010 -
1!
#13083
0!
#13125
b101 /
b100011 -
1!
#13166
0!
#13208
b110 /
b100100 -
1!
#13250
0!
#13291
b111 /
b100101 -
1!
#13333
0!
#13375
b1000 /
b100110 -
1!
#13416
0!
#13427
0)
1,
#13458
1'
1!
#13500
0!
#13541
b0 /
b0 -
1!
b0 .
#13583
0!
#13625
1!
#13666
0!
#13708
1!
#13750
0!
#13791
1!
#13833
0!
#13875
1!
#13916
0!
#13958
1!
#14000
0!
#14041
1!
#14083
0!
#14125
1!
#14166
0!
#14208
1!
#14241
1)
0,
#14250
0!
#14291
0'
1!
#14333
0!
#14375
b1 /
b1 -
1!
#14416
0!
#14458
b10 /
b10 -
1!
#14500
0!
#14541
b11 /
b11 -
1!
#14583
0!
#14625
b100 /
b100 -
1!
#14666
0!
#14708
b101 /
b101 -
1!
#14750
0!
#14791
b110 /
b110 -
1!
#14833
0!
#14875
b111 /
b111 -
1!
#14916
0!
#14958
b1000 /
b1000 -
1!
#15000
0!
#15041
b1001 /
b1001 -
1!
#15083
0!
#15125
b0 /
10
b1 .
b1010 -
1!
#15166
0!
#15208
b1 /
b1011 -
1!
00
#15250
0!
#15291
b10 /
b1100 -
1!
#15333
0!
#15375
b11 /
b1101 -
1!
#15416
0!
#15458
b100 /
b1110 -
1!
#15500
0!
#15541
b101 /
b1111 -
1!
#15583
0!
#15625
b110 /
b10000 -
1!
#15666
0!
#15708
b111 /
b10001 -
1!
#15750
0!
#15791
b1000 /
b10010 -
1!
#15833
0!
#15875
b1001 /
b10011 -
1!
#15916
0!
#15958
b0 /
10
b10 .
b10100 -
1!
#16000
0!
#16041
b1 /
b10101 -
1!
00
#16083
0!
#16125
b10 /
b10110 -
1!
#16166
0!
#16208
b11 /
b10111 -
1!
#16250
0!
#16291
b100 /
b11000 -
1!
#16333
0!
#16375
b101 /
b11001 -
1!
#16416
0!
#16458
b110 /
b11010 -
1!
#16500
0!
#16541
b111 /
b11011 -
1!
#16583
0!
#16625
b1000 /
b11100 -
1!
#16666
0!
#16708
b1001 /
b11101 -
1!
#16750
0!
#16791
b0 /
10
b11 .
b11110 -
1!
#16833
0!
#16875
b1 /
b11111 -
1!
00
#16916
0!
#16958
b10 /
b100000 -
1!
#17000
0!
#17041
b11 /
b100001 -
1!
#17083
0!
#17125
b100 /
b100010 -
1!
#17166
0!
#17208
b101 /
b100011 -
1!
#17250
0!
#17291
b110 /
b100100 -
1!
#17333
0!
#17375
b111 /
b100101 -
1!
#17416
0!
#17458
b1000 /
b100110 -
1!
#17500
0!
#17541
b1001 /
b100111 -
1!
b100110 #
#17583
0!
#17625
b0 /
b100 .
10
b101000 -
1!
b100111 #
#17666
0!
#17708
b1 /
00
b101001 -
1!
b101000 #
#17750
0!
#17791
b10 /
b101010 -
1!
b101001 #
#17833
0!
#17875
b11 /
b101011 -
1!
b101010 #
#17916
0!
#17958
b100 /
b101100 -
1!
b101011 #
#18000
0!
#18041
b101 /
b101101 -
1!
b101100 #
#18083
0!
#18125
b110 /
b101110 -
1!
b101101 #
#18166
0!
#18208
b111 /
b101111 -
1!
b101110 #
#18250
0!
#18291
b1000 /
b110000 -
1!
b101111 #
#18333
0!
#18375
b1001 /
b110001 -
1!
b110000 #
#18416
0!
#18458
b0 /
b101 .
10
b110010 -
1!
b110001 #
#18500
0!
#18541
b1 /
00
b110011 -
1!
b110010 #
#18583
0!
#18625
b10 /
b110100 -
1!
b110011 #
#18666
0!
#18708
b11 /
b110101 -
1!
b110100 #
#18750
0!
#18791
b100 /
b110110 -
1!
b110101 #
#18833
0!
#18875
b101 /
b110111 -
1!
b110110 #
#18916
0!
#18958
b110 /
b111000 -
1!
b110111 #
#19000
0!
#19041
b111 /
b111001 -
1!
b111000 #
#19083
0!
#19125
b1000 /
b111010 -
1!
b111001 #
#19166
0!
#19208
b1001 /
b111011 -
1!
b111010 #
#19250
0!
#19291
b0 /
b110 .
10
b111100 -
1!
b111011 #
#19333
0!
#19375
b1 /
00
b111101 -
1!
b111100 #
#19416
0!
#19458
b10 /
b111110 -
1!
b111101 #
#19500
0!
#19541
b11 /
b111111 -
1!
b111110 #
#19583
0!
#19625
b100 /
b1000000 -
1!
b111111 #
#19666
0!
#19708
b101 /
b1000001 -
1!
b1000000 #
#19750
0!
#19791
b110 /
b1000010 -
1!
b1000001 #
#19833
0!
#19875
b111 /
b1000011 -
1!
b1000010 #
#19916
0!
#19958
b1000 /
b1000100 -
1!
b1000011 #
#20000
0!
#20041
b1001 /
b1000101 -
1!
b1000100 #
#20083
0!
#20125
b0 /
b111 .
10
b1000110 -
1!
b1000101 #
#20166
0!
#20208
b1 /
00
b1000111 -
1!
b1000110 #
#20250
0!
#20291
b10 /
b1001000 -
1!
b1000111 #
#20333
0!
#20375
b11 /
b1001001 -
1!
b1001000 #
#20416
0!
#20458
b100 /
b1001010 -
1!
b1001001 #
#20500
0!
#20541
b101 /
b1001011 -
1!
b1001010 #
#20583
0!
#20625
b110 /
b1001100 -
1!
b1001011 #
#20666
0!
#20708
b111 /
b1001101 -
1!
b1001100 #
#20750
0!
#20791
b1000 /
b1001110 -
1!
b1001101 #
#20833
0!
#20875
b1001 /
b1001111 -
1!
b1001110 #
#20916
0!
#20958
b0 /
b1000 .
10
b1010000 -
1!
b1001111 #
#21000
0!
#21041
b1 /
00
b1010001 -
1!
b1010000 #
#21083
0!
#21125
b10 /
b1010010 -
1!
b1010001 #
#21166
0!
#21208
b11 /
b1010011 -
1!
b1010010 #
#21250
0!
#21291
b100 /
b1010100 -
1!
b1010011 #
#21333
0!
#21374
b101 /
b1010101 -
1!
b1010100 #
#21416
0!
#21458
b110 /
b1010110 -
1!
b1010101 #
#21499
0!
#21541
b111 /
b1010111 -
1!
b1010110 #
#21583
0!
#21624
b1000 /
b1011000 -
1!
b1010111 #
#21666
0!
#21708
b1001 /
b1011001 -
1!
b1011000 #
#21749
0!
#21791
b0 /
b1001 .
10
b1011010 -
1!
b1011001 #
#21833
0!
#21874
b1 /
00
b1011011 -
1!
b1011010 #
#21916
0!
#21958
b10 /
b1011100 -
1!
b1011011 #
#21999
0!
#22041
b11 /
b1011101 -
1!
b1011100 #
#22083
0!
#22124
b100 /
b1011110 -
1!
b1011101 #
#22166
0!
#22208
b101 /
b1011111 -
1!
b1011110 #
#22249
0!
#22291
b110 /
b1100000 -
1!
b1011111 #
#22333
0!
#22374
b111 /
b1100001 -
1!
b1100000 #
#22379
0)
1,
#22416
0!
#22458
1'
1%
b1100000 $
1*
1!
#22499
0!
#22541
b0 /
b0 .
1&
b1001 (
b0 -
1!
0*
#22583
0!
#22624
1!
#22666
0!
#22708
1!
#22749
0!
#22791
1!
#22833
0!
#22874
1!
#22916
0!
#22958
1!
#22999
0!
#23041
1!
#23083
0!
#23124
1!
#23166
0!
#23193
1)
0,
#23208
0'
1!
#23249
0!
#23291
b1 /
b1 -
1!
#23333
0!
#23374
b10 /
b10 -
1!
#23416
0!
#23458
b11 /
b11 -
1!
#23499
0!
#23541
b100 /
b100 -
1!
#23583
0!
#23624
b101 /
b101 -
1!
#23666
0!
#23708
b110 /
b110 -
1!
#23749
0!
#23791
b111 /
b111 -
1!
#23833
0!
#23874
b1000 /
b1000 -
1!
#23916
0!
#23958
b1001 /
b1001 -
1!
#23999
0!
#24041
b0 /
10
b1 .
b1010 -
1!
#24083
0!
#24124
b1 /
b1011 -
1!
00
#24166
0!
#24208
b10 /
b1100 -
1!
#24249
0!
#24291
b11 /
b1101 -
1!
#24333
0!
#24374
b100 /
b1110 -
1!
#24416
0!
#24458
b101 /
b1111 -
1!
#24499
0!
#24541
b110 /
b10000 -
1!
#24583
0!
#24624
b111 /
b10001 -
1!
#24666
0!
#24708
b1000 /
b10010 -
1!
#24749
0!
#24791
b1001 /
b10011 -
1!
#24833
0!
#24874
b0 /
10
b10 .
b10100 -
1!
#24916
0!
#24958
b1 /
b10101 -
1!
00
#24999
0!
#25041
b10 /
b10110 -
1!
#25083
0!
#25124
b11 /
b10111 -
1!
#25166
0!
#25208
b100 /
b11000 -
1!
#25249
0!
#25291
b101 /
b11001 -
1!
#25333
0!
#25374
b110 /
b11010 -
1!
#25416
0!
#25458
b111 /
b11011 -
1!
#25499
0!
#25541
b1000 /
b11100 -
1!
#25583
0!
#25624
b1001 /
b11101 -
1!
#25666
0!
#25708
b0 /
10
b11 .
b11110 -
1!
#25749
0!
#25791
b1 /
b11111 -
1!
00
#25833
0!
#25874
b10 /
b100000 -
1!
#25916
0!
#25958
b11 /
b100001 -
1!
#25999
0!
#26041
b100 /
b100010 -
1!
#26083
0!
#26124
b101 /
b100011 -
1!
#26166
0!
#26208
b110 /
b100100 -
1!
#26249
0!
#26291
b111 /
b100101 -
1!
#26333
0!
#26374
b1000 /
b100110 -
1!
#26416
0!
#26448
0)
1,
#26458
1'
1!
#26499
0!
#26541
b0 /
b0 -
1!
b0 .
#26583
0!
#26624
1!
#26666
0!
#26708
1!
#26749
0!
#26791
1!
#26833
0!
#26874
1!
#26916
0!
#26958
1!
#26999
0!
#27041
1!
#27083
0!
#27124
1!
#27166
0!
#27208
1!
#27249
0!
#27262
1)
0,
#27291
0'
1!
#27333
0!
#27374
b1 /
b1 -
1!
#27416
0!
#27458
b10 /
b10 -
1!
#27499
0!
#27541
b11 /
b11 -
1!
#27583
0!
#27624
b100 /
b100 -
1!
#27666
0!
#27708
b101 /
b101 -
1!
#27749
0!
#27791
b110 /
b110 -
1!
#27833
0!
#27874
b111 /
b111 -
1!
#27916
0!
#27958
b1000 /
b1000 -
1!
#27999
0!
#28041
b1001 /
b1001 -
1!
#28083
0!
#28124
b0 /
10
b1 .
b1010 -
1!
#28166
0!
#28208
b1 /
b1011 -
1!
00
#28249
0!
#28291
b10 /
b1100 -
1!
#28333
0!
#28374
b11 /
b1101 -
1!
#28416
0!
#28458
b100 /
b1110 -
1!
#28499
0!
#28541
b101 /
b1111 -
1!
#28583
0!
#28624
b110 /
b10000 -
1!
#28666
0!
#28708
b111 /
b10001 -
1!
#28749
0!
#28791
b1000 /
b10010 -
1!
#28833
0!
#28874
b1001 /
b10011 -
1!
#28916
0!
#28958
b0 /
10
b10 .
b10100 -
1!
#28999
0!
#29041
b1 /
b10101 -
1!
00
#29083
0!
#29124
b10 /
b10110 -
1!
#29166
0!
#29208
b11 /
b10111 -
1!
#29249
0!
#29291
b100 /
b11000 -
1!
#29333
0!
#29374
b101 /
b11001 -
1!
#29416
0!
#29458
b110 /
b11010 -
1!
#29499
0!
#29541
b111 /
b11011 -
1!
#29583
0!
#29624
b1000 /
b11100 -
1!
#29666
0!
#29708
b1001 /
b11101 -
1!
#29749
0!
#29791
b0 /
10
b11 .
b11110 -
1!
#29833
0!
#29874
b1 /
b11111 -
1!
00
#29916
0!
#29958
b10 /
b100000 -
1!
#29999
0!
#30041
b11 /
b100001 -
1!
#30083
0!
#30124
b100 /
b100010 -
1!
#30166
0!
#30208
b101 /
b100011 -
1!
#30249
0!
#30291
b110 /
b100100 -
1!
#30333
0!
#30374
b111 /
b100101 -
1!
#30416
0!
#30458
b1000 /
b100110 -
1!
#30499
0!
#30517
0)
1,
#30541
1'
1!
#30583
0!
#30624
b0 /
b0 -
1!
b0 .
#30666
0!
#30708
1!
#30749
0!
#30791
1!
#30833
0!
#30874
1!
#30916
0!
#30958
1!
#30999
0!
#31041
1!
#31083
0!
#31124
1!
#31166
0!
#31208
1!
#31249
0!
#31291
1!
#31331
1)
0,
#31333
0!
#31374
0'
1!
#31416
0!
#31458
b1 /
b1 -
1!
#31499
0!
#31541
b10 /
b10 -
1!
#31583
0!
#31624
b11 /
b11 -
1!
#31666
0!
#31708
b100 /
b100 -
1!
#31749
0!
#31791
b101 /
b101 -
1!
#31833
0!
#31874
b110 /
b110 -
1!
#31916
0!
#31958
b111 /
b111 -
1!
#31999
0!
#32041
b1000 /
b1000 -
1!
#32083
0!
#32124
b1001 /
b1001 -
1!
#32166
0!
#32208
b0 /
10
b1 .
b1010 -
1!
#32249
0!
#32291
b1 /
b1011 -
1!
00
#32333
0!
#32374
b10 /
b1100 -
1!
#32416
0!
#32458
b11 /
b1101 -
1!
#32499
0!
#32541
b100 /
b1110 -
1!
#32583
0!
#32624
b101 /
b1111 -
1!
#32666
0!
#32708
b110 /
b10000 -
1!
#32749
0!
#32791
b111 /
b10001 -
1!
#32833
0!
#32874
b1000 /
b10010 -
1!
#32916
0!
#32958
b1001 /
b10011 -
1!
#32999
0!
#33041
b0 /
10
b10 .
b10100 -
1!
#33083
0!
#33124
b1 /
b10101 -
1!
00
#33166
0!
#33208
b10 /
b10110 -
1!
#33249
0!
#33291
b11 /
b10111 -
1!
#33333
0!
#33374
b100 /
b11000 -
1!
#33416
0!
#33458
b101 /
b11001 -
1!
#33499
0!
#33541
b110 /
b11010 -
1!
#33583
0!
#33624
b111 /
b11011 -
1!
#33666
0!
#33708
b1000 /
b11100 -
1!
#33749
0!
#33791
b1001 /
b11101 -
1!
#33833
0!
#33874
b0 /
10
b11 .
b11110 -
1!
#33916
0!
#33958
b1 /
b11111 -
1!
00
#33999
0!
#34041
b10 /
b100000 -
1!
#34083
0!
#34124
b11 /
b100001 -
1!
#34166
0!
#34208
b100 /
b100010 -
1!
#34249
0!
#34291
b101 /
b100011 -
1!
#34333
0!
#34374
b110 /
b100100 -
1!
#34416
0!
#34458
b111 /
b100101 -
1!
#34499
0!
#34541
b1000 /
b100110 -
1!
#34583
0!
#34586
0)
1,
#34624
1'
1!
#34666
0!
#34708
b0 /
b0 -
1!
b0 .
#34749
0!
#34791
1!
#34833
0!
#34874
1!
#34916
0!
#34958
1!
#34999
0!
#35041
1!
#35083
0!
#35124
1!
#35166
0!
#35208
1!
#35249
0!
#35291
1!
#35333
0!
#35374
1!
#35400
1)
0,
#35416
0!
#35458
0'
1!
#35499
0!
#35541
b1 /
b1 -
1!
#35583
0!
#35624
b10 /
b10 -
1!
#35666
0!
#35708
b11 /
b11 -
1!
#35749
0!
#35791
b100 /
b100 -
1!
#35833
0!
#35874
b101 /
b101 -
1!
#35916
0!
#35958
b110 /
b110 -
1!
#35999
0!
#36041
b111 /
b111 -
1!
#36083
0!
#36124
b1000 /
b1000 -
1!
#36166
0!
#36208
b1001 /
b1001 -
1!
#36249
0!
#36291
b0 /
10
b1 .
b1010 -
1!
#36333
0!
#36374
b1 /
b1011 -
1!
00
#36416
0!
#36458
b10 /
b1100 -
1!
#36499
0!
#36541
b11 /
b1101 -
1!
#36583
0!
#36624
b100 /
b1110 -
1!
#36666
0!
#36708
b101 /
b1111 -
1!
#36749
0!
#36791
b110 /
b10000 -
1!
#36833
0!
#36874
b111 /
b10001 -
1!
#36916
0!
#36958
b1000 /
b10010 -
1!
#36999
0!
#37041
b1001 /
b10011 -
1!
#37083
0!
#37124
b0 /
10
b10 .
b10100 -
1!
#37166
0!
#37208
b1 /
b10101 -
1!
00
#37249
0!
#37291
b10 /
b10110 -
1!
#37333
0!
#37374
b11 /
b10111 -
1!
#37416
0!
#37458
b100 /
b11000 -
1!
#37499
0!
#37541
b101 /
b11001 -
1!
#37583
0!
#37624
b110 /
b11010 -
1!
#37666
0!
#37708
b111 /
b11011 -
1!
#37749
0!
#37791
b1000 /
b11100 -
1!
#37833
0!
#37874
b1001 /
b11101 -
1!
#37916
0!
#37958
b0 /
10
b11 .
b11110 -
1!
#37999
0!
#38041
b1 /
b11111 -
1!
00
#38083
0!
#38124
b10 /
b100000 -
1!
#38166
0!
#38208
b11 /
b100001 -
1!
#38249
0!
#38291
b100 /
b100010 -
1!
#38333
0!
#38374
b101 /
b100011 -
1!
#38416
0!
#38458
b110 /
b100100 -
1!
#38499
0!
#38541
b111 /
b100101 -
1!
#38583
0!
#38624
b1000 /
b100110 -
1!
#38655
0)
1,
#38666
0!
#38708
1'
1!
#38749
0!
#38791
b0 /
b0 -
1!
b0 .
#38833
0!
#38874
1!
#38916
0!
#38958
1!
#38999
0!
#39041
1!
#39083
0!
#39124
1!
#39166
0!
#39208
1!
#39249
0!
#39291
1!
#39333
0!
#39374
1!
#39416
0!
#39458
1!
#39469
1)
0,
#39499
0!
#39541
0'
1!
#39583
0!
#39624
b1 /
b1 -
1!
#39666
0!
#39708
b10 /
b10 -
1!
#39749
0!
#39791
b11 /
b11 -
1!
#39833
0!
#39874
b100 /
b100 -
1!
#39916
0!
#39958
b101 /
b101 -
1!
#39999
0!
#40041
b110 /
b110 -
1!
#40083
0!
#40124
b111 /
b111 -
1!
#40166
0!
#40208
b1000 /
b1000 -
1!
#40249
0!
#40291
b1001 /
b1001 -
1!
#40333
0!
#40374
b0 /
10
b1 .
b1010 -
1!
#40416
0!
#40458
b1 /
b1011 -
1!
00
#40499
0!
#40541
b10 /
b1100 -
1!
#40583
0!
#40624
b11 /
b1101 -
1!
#40666
0!
#40708
b100 /
b1110 -
1!
#40749
0!
#40791
b101 /
b1111 -
1!
#40833
0!
#40874
b110 /
b10000 -
1!
#40916
0!
#40958
b111 /
b10001 -
1!
#40999
0!
#41041
b1000 /
b10010 -
1!
#41083
0!
#41124
b1001 /
b10011 -
1!
#41166
0!
#41208
b0 /
10
b10 .
b10100 -
1!
#41249
0!
#41291
b1 /
b10101 -
1!
00
#41333
0!
#41374
b10 /
b10110 -
1!
#41416
0!
#41458
b11 /
b10111 -
1!
#41499
0!
#41541
b100 /
b11000 -
1!
#41583
0!
#41624
b101 /
b11001 -
1!
#41666
0!
#41708
b110 /
b11010 -
1!
#41749
0!
#41791
b111 /
b11011 -
1!
#41833
0!
#41874
b1000 /
b11100 -
1!
#41916
0!
#41958
b1001 /
b11101 -
1!
#41999
0!
#42041
b0 /
10
b11 .
b11110 -
1!
#42083
0!
#42124
b1 /
b11111 -
1!
00
#42166
0!
#42208
b10 /
b100000 -
1!
#42249
0!
#42291
b11 /
b100001 -
1!
#42333
0!
#42374
b100 /
b100010 -
1!
#42416
0!
#42458
b101 /
b100011 -
1!
#42499
0!
#42541
b110 /
b100100 -
1!
#42583
0!
#42624
b111 /
b100101 -
1!
#42666
0!
#42708
b1000 /
b100110 -
1!
#42724
0)
1,
#42749
0!
#42791
1'
1!
#42833
0!
#42874
b0 /
b0 -
1!
b0 .
#42916
0!
#42958
1!
#42999
0!
#43041
1!
#43083
0!
#43124
1!
#43166
0!
#43208
1!
#43249
0!
#43291
1!
#43333
0!
#43374
1!
#43416
0!
#43458
1!
#43499
0!
#43538
1)
0,
#43541
0'
1!
#43583
0!
#43624
b1 /
b1 -
1!
#43666
0!
#43708
b10 /
b10 -
1!
#43749
0!
#43791
b11 /
b11 -
1!
#43833
0!
#43874
b100 /
b100 -
1!
#43916
0!
#43958
b101 /
b101 -
1!
#43999
0!
#44041
b110 /
b110 -
1!
#44083
0!
#44124
b111 /
b111 -
1!
#44166
0!
#44208
b1000 /
b1000 -
1!
#44249
0!
#44291
b1001 /
b1001 -
1!
#44333
0!
#44374
b0 /
10
b1 .
b1010 -
1!
#44416
0!
#44458
b1 /
b1011 -
1!
00
#44499
0!
#44541
b10 /
b1100 -
1!
#44583
0!
#44624
b11 /
b1101 -
1!
#44666
0!
#44708
b100 /
b1110 -
1!
#44749
0!
#44791
b101 /
b1111 -
1!
#44833
0!
#44874
b110 /
b10000 -
1!
#44916
0!
#44958
b111 /
b10001 -
1!
#44999
0!
#45041
b1000 /
b10010 -
1!
#45083
0!
#45124
b1001 /
b10011 -
1!
#45166
0!
#45208
b0 /
10
b10 .
b10100 -
1!
#45249
0!
#45291
b1 /
b10101 -
1!
00
#45333
0!
#45374
b10 /
b10110 -
1!
#45416
0!
#45458
b11 /
b10111 -
1!
#45499
0!
#45541
b100 /
b11000 -
1!
#45583
0!
#45624
b101 /
b11001 -
1!
#45666
0!
#45708
b110 /
b11010 -
1!
#45749
0!
#45791
b111 /
b11011 -
1!
#45833
0!
#45874
b1000 /
b11100 -
1!
#45916
0!
#45958
b1001 /
b11101 -
1!
#45999
0!
#46041
b0 /
10
b11 .
b11110 -
1!
#46083
0!
#46124
b1 /
b11111 -
1!
00
#46166
0!
#46208
b10 /
b100000 -
1!
#46249
0!
#46291
b11 /
b100001 -
1!
#46333
0!
#46374
b100 /
b100010 -
1!
#46416
0!
#46458
b101 /
b100011 -
1!
#46499
0!
#46541
b110 /
b100100 -
1!
#46583
0!
#46624
b111 /
b100101 -
1!
#46666
0!
#46708
b1000 /
b100110 -
1!
#46749
0!
#46791
b1001 /
b100111 -
1!
#46793
0)
1,
#46833
0!
#46874
1'
1!
#46916
0!
#46958
b0 /
b0 -
1!
b0 .
#46999
0!
#47041
1!
#47083
0!
#47124
1!
#47166
0!
#47208
1!
#47249
0!
#47291
1!
#47333
0!
#47374
1!
#47416
0!
#47458
1!
#47499
0!
#47541
1!
#47583
0!
#47607
1)
0,
#47624
0'
1!
#47666
0!
