dividing-counter.vcd
$comment Generated by nMigen $end
$date 2020-11-30 09:32:53.726878 $end
$timescale 100 ps $end
$scope module top $end
$var wire 1 ! clk $end
$var wire 1 " rst $end
$var wire 5 # counter_out $end
$var wire 5 $ divided_counter_out $end
$var wire 3 % dividing_cycle_counter $end
$var wire 1 & dividable_out $end
$var wire 1 ' rst_in $end
$var wire 1 ( active_in $end
$upscope $end
$enddefinitions $end
#0
$dumpvars
0!
0"
b0 #
b0 $
b0 %
0&
0'
0(
$end
#5000
1!
#10000
0!
#15000
1!
#20000
0!
#24999
1!
#29999
0!
#34999
1!
#40000
0!
#45000
1!
#50000
0!
#55000
1!
1(
#60000
0!
#65000
b1 %
1!
b1 #
#70000
0!
#75000
b10 %
1!
b10 #
#80000
0!
#85000
b11 %
1!
b11 #
#90000
0!
#95000
b100 %
1!
b100 #
#100000
0!
#105000
b0 %
1!
b1 $
1&
b101 #
#110000
0!
#115000
b1 %
1!
0&
b110 #
#120000
0!
#125000
b10 %
1!
b111 #
#130000
0!
#135000
b11 %
1!
b1000 #
#140000
0!
#145000
b100 %
1!
b1001 #
#150000
0!
#155000
b0 %
1!
b10 $
1&
b1010 #
#160000
0!
#165000
b1 %
1!
0&
b1011 #
#170000
0!
#174999
b10 %
1!
b1100 #
#179999
0!
#184999
b11 %
1!
b1101 #
#189999
0!
#194999
b100 %
1!
b1110 #
#199999
0!
#204999
b0 %
1!
b11 $
1&
b1111 #
#209999
0!
#214999
b1 %
1!
0&
b10000 #
#219999
0!
#224999
b10 %
1!
b10001 #
#229999
0!
#234999
b11 %
1!
b10010 #
#239999
0!
#244999
b100 %
1!
b10011 #
#249999
0!
#254999
b0 %
1!
b100 $
1&
b10100 #
#259999
0!
#264999
b1 %
1!
0&
b10101 #
#269999
0!
#274999
b10 %
1!
b10110 #
#279999
0!
#284999
b11 %
1!
b10111 #
#289999
0!
#294999
b100 %
1!
b11000 #
#299999
0!
#304999
b0 %
1!
b101 $
1&
b11001 #
#309999
0!
#314999
b1 %
1!
0&
b11010 #
#319999
0!
#324999
b10 %
1!
b11011 #
#329999
0!
#334999
b11 %
1!
b11100 #
#339999
0!
#344999
b100 %
1!
b11101 #
#349999
0!
#354999
b0 %
1!
b110 $
1&
b11110 #
#359999
0!
#364999
b1 %
1!
0&
b11111 #
#369999
0!
#374999
b0 %
1!
b0 #
#379999
0!
#384999
b1 %
1!
b1 #
#389999
0!
#394999
b10 %
1!
b10 #
#399999
0!
#404999
b11 %
1!
b11 #
#409999
0!
#414999
b100 %
1!
b100 #
#419999
0!
#424999
b0 %
1!
b111 $
1&
b101 #
#429999
0!
#434999
b1 %
1!
0&
b110 #
#439999
0!
#444999
b10 %
1!
b111 #
#449999
0!
#454999
b11 %
1!
b1000 #
#459999
0!
#464999
b100 %
1!
b1001 #
#469999
0!
#474999
b0 %
1!
b1000 $
1&
b1010 #
#479999
0!
#484999
b1 %
1!
0&
b1011 #
#489999
0!
#494999
b10 %
1!
b1100 #
#499999
0!
#504999
b11 %
1!
b1101 #
#509999
0!
#514999
b100 %
1!
b1110 #
#519999
0!
#524999
b0 %
1!
b1001 $
1&
b1111 #
#529999
0!
#534999
b1 %
1!
0&
b10000 #
#539999
0!
#544999
b10 %
1!
b10001 #
#549999
0!
#554999
b11 %
1!
1'
b10010 #
#559999
0!
#564999
b0 $
b0 %
1!
b0 #
#569999
0!
#574999
1!
#579999
0!
#584999
1!
#589999
0!
#594999
1!
#599999
0!
#604999
1!
#609999
0!
#614999
1!
#619999
0!
#624999
1!
0'
#629999
0!
#634999
b1 %
1!
b1 #
#639999
0!
#644999
b10 %
1!
b10 #
#649999
0!
#654999
b11 %
1!
b11 #
#659999
0!
#664999
b100 %
1!
b100 #
#669999
0!
#674999
b0 %
1!
b1 $
1&
b101 #
#679999
0!
#684999
b1 %
1!
0&
b110 #
#689999
0!
#694999
b10 %
1!
b111 #
#699999
0!
#704999
b11 %
1!
b1000 #
#709999
0!
#714999
b100 %
1!
b1001 #
#719999
0!
#724999
b0 %
1!
b10 $
1&
b1010 #
#729999
0!
#734999
b1 %
1!
0&
b1011 #
#739999
0!
#744999
b10 %
1!
b1100 #
#749999
0!
#754999
b11 %
1!
b1101 #
#759999
0!
#764999
b100 %
1!
b1110 #
#769999
0!
#774999
b0 %
1!
b11 $
1&
b1111 #
#779999
0!
#784999
b1 %
1!
0&
b10000 #
#789999
0!
#794999
b10 %
1!
b10001 #
#799999
0!
#804999
b11 %
1!
b10010 #
#809999
0!
#814999
b100 %
1!
b10011 #
#819999
0!
#824999
b0 %
1!
0(
b100 $
1&
b10100 #
