dividing-counter.vcd
$comment Generated by nMigen $end
$date 2020-11-30 06:18:31.011170 $end
$timescale 100 ps $end
$scope module top $end
$var wire 1 ! clk $end
$var wire 1 " rst $end
$var wire 3 # dividing_cycle_counter $end
$var wire 5 $ divided_counter_out $end
$var wire 1 % dividable_out $end
$var wire 5 & counter_out $end
$var wire 1 ' active_in $end
$upscope $end
$enddefinitions $end
#0
$dumpvars
0!
0"
b0 #
b0 $
0%
b0 &
0'
$end
#5000
1!
#10000
0!
#15000
1!
#20000
0!
#24999
1!
#29999
0!
#34999
1!
#40000
0!
#45000
1!
#50000
0!
#55000
1!
1'
#60000
0!
#65000
b1 &
1!
b1 #
#70000
0!
#75000
b10 &
1!
b10 #
#80000
0!
#85000
b11 &
1!
b11 #
#90000
0!
#95000
b100 &
1!
b100 #
#100000
0!
#105000
b101 &
1%
1!
b0 #
b1 $
#110000
0!
#115000
0%
1!
b1 #
b110 &
#120000
0!
#125000
b111 &
1!
b10 #
#130000
0!
#135000
b1000 &
1!
b11 #
#140000
0!
#145000
b1001 &
1!
b100 #
#150000
0!
#155000
b1010 &
1%
1!
b0 #
b10 $
#160000
0!
#165000
0%
1!
b1 #
b1011 &
#170000
0!
#174999
b1100 &
1!
b10 #
#179999
0!
#184999
b1101 &
1!
b11 #
#189999
0!
#194999
b1110 &
1!
b100 #
#199999
0!
#204999
b1111 &
1%
1!
b0 #
b11 $
#209999
0!
#214999
0%
1!
b1 #
b10000 &
#219999
0!
#224999
b10001 &
1!
b10 #
#229999
0!
#234999
b10010 &
1!
b11 #
#239999
0!
#244999
b10011 &
1!
b100 #
#249999
0!
#254999
b10100 &
1%
1!
b0 #
b100 $
#259999
0!
#264999
0%
1!
b1 #
b10101 &
#269999
0!
#274999
b10110 &
1!
b10 #
#279999
0!
#284999
b10111 &
1!
b11 #
#289999
0!
#294999
b11000 &
1!
b100 #
#299999
0!
#304999
b11001 &
1%
1!
b0 #
b101 $
#309999
0!
#314999
0%
1!
b1 #
b11010 &
#319999
0!
#324999
b11011 &
1!
b10 #
#329999
0!
#334999
b11100 &
1!
b11 #
#339999
0!
#344999
b11101 &
1!
b100 #
#349999
0!
#354999
b11110 &
1%
1!
b0 #
b110 $
#359999
0!
#364999
0%
1!
b1 #
b11111 &
#369999
0!
#374999
b0 &
1!
b0 #
#379999
0!
#384999
b1 &
1!
b1 #
#389999
0!
#394999
b10 &
1!
b10 #
#399999
0!
#404999
b11 &
1!
b11 #
#409999
0!
#414999
b100 &
1!
b100 #
#419999
0!
#424999
b101 &
1%
1!
b0 #
b111 $
#429999
0!
#434999
0%
1!
b1 #
b110 &
#439999
0!
#444999
b111 &
1!
b10 #
#449999
0!
#454999
b1000 &
1!
b11 #
#459999
0!
#464999
b1001 &
1!
b100 #
#469999
0!
#474999
b1010 &
1%
1!
b0 #
b1000 $
#479999
0!
#484999
0%
1!
b1 #
b1011 &
#489999
0!
#494999
b1100 &
1!
b10 #
#499999
0!
#504999
b1101 &
1!
b11 #
#509999
0!
#514999
b1110 &
1!
b100 #
#519999
0!
#524999
b1111 &
1%
1!
b0 #
b1001 $
#529999
0!
#534999
0%
1!
b1 #
b10000 &
#539999
0!
#544999
b10001 &
1!
b10 #
#549999
0!
#554999
b10010 &
1!
0'
b11 #
