edgetopulse.vcd
$comment Generated by nMigen $end
$date 2020-12-24 10:36:17.023920 $end
$timescale 100 ps $end
$scope module top $end
$var wire 1 ! clk $end
$var wire 1 " rst $end
$var wire 2 # edge_shift $end
$var wire 1 $ pulse_out $end
$var wire 1 % rst_in $end
$var wire 1 & edge_in $end
$upscope $end
$enddefinitions $end
#0
$dumpvars
0!
0"
b0 #
0$
0%
0&
$end
#5000
1!
#10000
0!
#15000
1!
#20000
0!
#24999
1!
#29999
0!
#34999
1&
1!
#40000
0!
#45000
1$
b1 #
1!
#50000
0!
#55000
0$
b11 #
1!
#60000
0!
#65000
1!
#70000
0!
#75000
1!
#80000
0!
#85000
0&
1!
#90000
0!
#95000
b10 #
1!
#100000
0!
#105000
b0 #
1!
#110000
0!
#115000
1!
#120000
0!
#125000
1!
#130000
0!
#135000
1&
1!
#140000
0!
#145000
1$
b1 #
1!
#150000
0!
#155000
0&
0$
b11 #
1!
#160000
0!
#165000
b10 #
1!
#170000
0!
#174999
b0 #
1!
#179999
0!
#184999
1!
#189999
0!
#194999
1&
1!
#199999
0!
#204999
0&
1$
b1 #
1!
#209999
0!
#214999
b10 #
1&
1%
0$
1!
#219999
0!
#224999
b0 #
1!
#229999
0!
#234999
1!
#239999
0!
#244999
0%
1!
#249999
0!
#254999
1$
b1 #
1!
#259999
0!
#264999
0$
b11 #
1!
