nrzi-decoder-bench-44100.vcd
$comment Generated by nMigen $end
$date 2021-01-23 13:53:51.384510 $end
$timescale 100 ps $end
$scope module top $end
$var wire 1 ! clk $end
$var wire 1 " rst $end
$var wire 1 # nrzi_prev $end
$var wire 1 $ nrzi $end
$var wire 1 % got_edge $end
$var wire 1 & running $end
$var wire 1 ' data_out $end
$var wire 1 ( data_out_en $end
$var wire 1 ) reset_in $end
$var wire 1 * active_in $end
$var string 1 + fsm_state $end
$var wire 7 , bit_counter $end
$var wire 1 - output $end
$var wire 8 . dead_counter $end
$var wire 7 / counter_out $end
$var wire 7 0 divided_counter_out $end
$scope module cdc $end
$var wire 1 ! clk $end
$var wire 1 " rst $end
$var wire 1 $ nrzi $end
$var wire 1 1 stage0 $end
$var wire 1 2 nrzi_in $end
$var wire 1 3 stage1 $end
$upscope $end
$scope module sync_counter $end
$var wire 1 ! clk $end
$var wire 1 " rst $end
$var wire 1 ) reset_in $end
$var wire 1 * active_in $end
$var wire 7 / counter_out $end
$var wire 7 0 divided_counter_out $end
$var wire 4 4 dividing_cycle_counter $end
$var wire 1 5 dividable_out $end
$upscope $end
$upscope $end
$enddefinitions $end
#0
$dumpvars
0!
0"
0#
0$
0%
0&
0'
0(
0)
0*
sSYNC/0 +
b0 ,
1-
b0 .
b0 /
b0 0
01
02
03
b0 4
05
$end
#50
1!
1*
#100
0!
#150
b1 4
1!
b1 /
#200
0!
#250
b10 4
1!
b10 /
#300
0!
#349
b11 4
1!
b11 /
#399
0!
#442
12
#449
11
b100 4
1!
b100 /
#499
0!
#549
b101 4
1$
b101 /
1%
1!
13
#600
0!
#650
b110 4
b110 /
1#
1)
0%
1!
#700
0!
#750
b0 4
1!
b0 /
0)
#800
0!
#850
b1 4
1!
b1 /
#900
0!
#950
b10 4
1!
b10 /
#1000
0!
#1050
b11 4
1!
b11 /
#1100
0!
#1150
b100 4
1!
b100 /
#1200
0!
#1250
b101 4
1!
b101 /
#1300
0!
#1328
02
#1350
01
b110 4
1!
b110 /
#1400
0!
#1450
b111 4
0$
b111 /
1%
1!
03
#1500
0!
#1550
b1000 4
b1000 /
0#
1)
0%
1!
#1600
0!
#1650
b0 4
1!
b0 /
0)
#1700
0!
#1750
b1 4
1!
b1 /
#1800
0!
#1850
b10 4
1!
b10 /
#1900
0!
#1950
b11 4
1!
b11 /
#2000
0!
#2050
b100 4
1!
b100 /
#2100
0!
#2150
b101 4
1!
b101 /
#2200
0!
#2250
b110 4
1!
b110 /
#2300
0!
#2350
b111 4
1!
b111 /
#2400
0!
#2450
b1000 4
1!
b1000 /
#2500
0!
#2550
b1001 4
1!
b1001 /
#2600
0!
#2650
b1010 4
1!
b1010 /
#2700
0!
#2750
b1011 4
1!
b1011 /
#2800
0!
#2850
b0 4
15
b1100 /
1!
b1 0
#2900
0!
#2950
b1 4
1!
05
b1101 /
#3000
0!
#3050
b10 4
1!
b1110 /
#3100
0!
#3150
b11 4
1!
b1111 /
#3200
0!
#3250
b100 4
1!
b10000 /
#3300
0!
#3350
b101 4
1!
b10001 /
#3400
0!
#3450
b110 4
1!
b10010 /
#3500
0!
#3550
b111 4
1!
b10011 /
#3600
0!
#3650
b1000 4
1!
b10100 /
#3700
0!
#3750
b1001 4
1!
b10101 /
#3800
0!
#3850
b1010 4
1!
b10110 /
#3900
0!
#3950
b1011 4
1!
b10111 /
#4000
0!
#4050
b0 4
15
b11000 /
1!
b10 0
#4100
0!
#4150
b1 4
1!
05
b11001 /
#4200
0!
#4250
b10 4
1!
b11010 /
#4300
0!
#4350
b11 4
1!
b11011 /
#4400
0!
#4450
b100 4
1!
b11100 /
#4500
0!
#4550
b101 4
1!
b11101 /
#4600
0!
#4650
b110 4
1!
b11110 /
#4700
0!
#4750
b111 4
1!
b11111 /
#4800
0!
#4850
b1000 4
1!
b100000 /
#4900
0!
#4950
b1001 4
1!
b100001 /
#5000
0!
#5050
b1010 4
1!
b100010 /
#5100
0!
#5150
b1011 4
1!
b100011 /
#5200
0!
#5249
b0 4
15
b100100 /
1!
b11 0
#5299
0!
#5349
b1 4
1!
05
b100101 /
#5399
0!
#5449
b10 4
1!
b100110 /
#5499
0!
#5549
b11 4
1!
b100111 /
#5599
0!
#5649
b100 4
1!
b101000 /
#5699
0!
#5749
b101 4
1!
b101001 /
#5799
0!
#5849
b110 4
1!
b101010 /
#5899
0!
#5949
b111 4
1!
b101011 /
#5999
0!
#6049
b1000 4
1!
b101100 /
#6099
0!
#6149
b1001 4
1!
b101101 /
#6199
0!
#6249
b1010 4
1!
b101110 /
#6299
0!
#6349
b1011 4
1!
b101111 /
#6399
0!
#6449
b0 4
15
b110000 /
1!
b100 0
#6499
0!
#6549
b1 4
1!
05
b110001 /
#6599
0!
#6649
b10 4
1!
b110010 /
#6699
0!
#6749
b11 4
1!
b110011 /
#6799
0!
#6849
b100 4
1!
b110100 /
#6899
0!
#6949
b101 4
1!
b110101 /
#6999
0!
#7049
b110 4
1!
b110110 /
#7099
0!
#7149
b111 4
1!
b110111 /
#7199
0!
#7249
b1000 4
1!
b111000 /
#7299
0!
#7349
b1001 4
1!
b111001 /
#7399
0!
#7449
b1010 4
1!
b111010 /
#7499
0!
#7549
b1011 4
1!
b111011 /
#7599
0!
#7649
b0 4
15
b111100 /
1!
b101 0
#7699
0!
#7749
b1 4
1!
05
b111101 /
#7799
0!
#7849
b10 4
1!
b111110 /
#7899
0!
#7949
b11 4
1!
b111111 /
#7999
0!
#8049
b100 4
1!
b1000000 /
#8099
0!
#8149
b101 4
1!
b1000001 /
#8199
0!
#8249
b110 4
1!
b1000010 /
#8299
0!
#8349
b111 4
1!
b1000011 /
#8399
0!
#8449
b1000 4
1!
b1000100 /
#8499
0!
#8549
b1001 4
1!
b1000101 /
#8599
0!
#8649
b1010 4
1!
b1000110 /
#8699
0!
#8749
b1011 4
1!
b1000111 /
#8799
0!
#8849
b0 4
15
b1001000 /
1!
b110 0
#8899
0!
#8949
b1 4
1!
05
b1001001 /
#8999
0!
#9049
b10 4
1!
b1001010 /
#9099
0!
#9149
b11 4
1!
b1001011 /
#9199
0!
#9249
b100 4
1!
b1001100 /
#9299
0!
#9349
b101 4
1!
b1001101 /
#9399
0!
#9449
b110 4
1!
b1001110 /
#9499
0!
#9549
b111 4
1!
b1001111 /
#9599
0!
#9649
b1000 4
1!
b1010000 /
#9699
0!
#9749
b1001 4
1!
b1010001 /
#9799
0!
#9849
b1010 4
1!
b1010010 /
#9899
0!
#9949
b1011 4
1!
b1010011 /
#9999
0!
#10049
b0 4
15
b1010100 /
1!
b111 0
#10099
0!
#10149
b1 4
1!
05
b1010101 /
#10199
0!
#10249
b10 4
1!
b1010110 /
#10299
0!
#10349
b11 4
1!
b1010111 /
#10399
0!
#10449
b100 4
1!
b1011000 /
#10499
0!
#10549
b101 4
1!
b1011001 /
#10599
0!
#10649
b110 4
1!
b1011010 /
#10699
0!
#10749
b111 4
1!
b1011011 /
#10799
0!
#10849
b1000 4
1!
b1011100 /
#10899
0!
#10949
b1001 4
1!
b1011101 /
#10999
0!
#11049
b1010 4
1!
b1011110 /
#11072
12
#11099
0!
#11149
11
b1011 4
1!
b1011111 /
#11199
0!
#11249
b0 4
15
1$
b1100000 /
1%
1!
b1000 0
13
#11299
0!
#11349
1&
b1 4
1#
b1100001 /
sDECODE/1 +
0%
0*
05
1!
#11399
0!
#11449
1!
b1 .
b1 ,
#11499
0!
#11549
1!
b10 .
b10 ,
#11599
0!
#11649
1!
b11 .
b11 ,
#11699
0!
#11749
1!
b100 .
b100 ,
#11799
0!
#11849
1'
0-
1(
b101 .
1!
b101 ,
#11899
0!
#11949
1!
0(
b110 .
b110 ,
#11999
0!
#12049
1!
b111 .
b111 ,
#12099
0!
#12149
1!
b1000 .
b1000 ,
#12199
0!
#12249
1!
b1001 .
b0 ,
#12299
0!
#12349
1!
b1010 .
b1 ,
#12399
0!
#12449
1!
b1011 .
b10 ,
#12499
0!
#12549
1!
b1100 .
b11 ,
#12599
0!
#12649
1!
b1101 .
b100 ,
#12699
0!
#12749
0'
1(
b1110 .
1!
b101 ,
#12799
0!
#12843
02
#12849
01
0(
b1111 .
1!
b110 ,
#12899
0!
#12949
0$
b10000 .
1%
1!
03
b111 ,
#12999
0!
#13049
1-
b0 .
0#
0%
1!
b1 ,
#13099
0!
#13149
1!
b1 .
b10 ,
#13199
0!
#13249
1!
b10 .
b11 ,
#13299
0!
#13349
1!
b11 .
b100 ,
#13399
0!
#13449
1'
0-
1(
b100 .
1!
b101 ,
#13499
0!
#13549
1!
0(
b101 .
b110 ,
#13599
0!
#13649
1!
b110 .
b111 ,
#13699
0!
#13749
1!
b111 .
b1000 ,
#13799
0!
#13849
1!
b1000 .
b0 ,
#13899
0!
#13949
1!
b1001 .
b1 ,
#13999
0!
#14049
1!
b1010 .
b10 ,
#14099
0!
#14149
1!
b1011 .
b11 ,
#14199
0!
#14249
1!
b1100 .
b100 ,
#14299
0!
#14349
0'
1(
b1101 .
1!
b101 ,
#14399
0!
#14449
1!
0(
b1110 .
b110 ,
#14499
0!
#14549
1!
b1111 .
b111 ,
#14599
0!
#14615
12
#14649
11
1!
b10000 .
b1000 ,
#14699
0!
#14749
1$
b10001 .
1%
1!
13
b0 ,
#14799
0!
#14849
1-
b0 .
1#
0%
1!
b1 ,
#14899
0!
#14949
1!
b1 .
b10 ,
#14999
0!
#15049
1!
b10 .
b11 ,
#15099
0!
#15149
1!
b11 .
b100 ,
#15199
0!
#15249
1'
0-
1(
b100 .
1!
b101 ,
#15299
0!
#15349
1!
0(
b101 .
b110 ,
#15399
0!
#15449
1!
b110 .
b111 ,
#15499
0!
#15500
02
#15549
01
1!
b111 .
b1000 ,
#15599
0!
#15649
0$
b1000 .
1%
1!
03
b0 ,
#15699
0!
#15749
1-
b0 .
0#
0%
1!
b1 ,
#15799
0!
#15849
1!
b1 .
b10 ,
#15899
0!
#15949
1!
b10 .
b11 ,
#15999
0!
#16049
1!
b11 .
b100 ,
#16099
0!
#16149
0-
1(
b100 .
1!
b101 ,
#16199
0!
#16249
1!
0(
b101 .
b110 ,
#16299
0!
#16349
1!
b110 .
b111 ,
#16399
0!
#16449
1!
b111 .
b1000 ,
#16499
0!
#16549
1!
b1000 .
b0 ,
#16599
0!
#16649
1!
b1001 .
b1 ,
#16699
0!
#16749
1!
b1010 .
b10 ,
#16799
0!
#16849
1!
b1011 .
b11 ,
#16899
0!
#16949
1!
b1100 .
b100 ,
#16999
0!
#17049
0'
1(
b1101 .
1!
b101 ,
#17099
0!
#17149
1!
0(
b1110 .
b110 ,
#17199
0!
#17249
1!
b1111 .
b111 ,
#17299
0!
#17349
1!
b10000 .
b1000 ,
#17399
0!
#17449
1!
b10001 .
b0 ,
#17499
0!
#17549
1!
b10010 .
b1 ,
#17599
0!
#17649
1!
b10011 .
b10 ,
#17699
0!
#17749
1!
b10100 .
b11 ,
#17799
0!
#17849
1!
b10101 .
b100 ,
#17899
0!
#17949
1!
1(
b10110 .
b101 ,
#17999
0!
#18049
1!
0(
b10111 .
b110 ,
#18099
0!
#18149
1!
b11000 .
b111 ,
#18199
0!
#18249
1!
b11001 .
b1000 ,
#18299
0!
#18349
1!
b11010 .
b0 ,
#18399
0!
#18449
1!
b11011 .
b1 ,
#18499
0!
#18549
1!
b11100 .
b10 ,
#18599
0!
#18649
1!
b11101 .
b11 ,
#18699
0!
#18749
1!
b11110 .
b100 ,
#18799
0!
#18849
1!
1(
b11111 .
b101 ,
#18899
0!
#18949
1!
0(
b100000 .
b110 ,
#18999
0!
#19049
1!
b100001 .
b111 ,
#19099
0!
#19149
1!
b100010 .
b1000 ,
#19199
0!
#19249
1!
b100011 .
b0 ,
#19299
0!
#19349
1!
b100100 .
b1 ,
#19399
0!
#19449
1!
b100101 .
b10 ,
#19499
0!
#19549
1!
b100110 .
b11 ,
#19599
0!
#19649
1!
b100111 .
b100 ,
#19699
0!
#19749
1!
1(
b101000 .
b101 ,
#19799
0!
#19849
1!
0(
b101001 .
b110 ,
#19899
0!
#19929
12
#19949
11
1!
b101010 .
b111 ,
#19999
0!
#20049
1$
b101011 .
1%
1!
13
b1000 ,
#20099
0!
#20149
1-
b0 .
1#
0%
1!
b0 ,
#20199
0!
#20249
1!
b1 .
b1 ,
#20299
0!
#20349
1!
b10 .
b10 ,
#20399
0!
#20449
1!
b11 .
b11 ,
#20499
0!
#20549
1!
b100 .
b100 ,
#20599
0!
#20649
1'
0-
1(
b101 .
1!
b101 ,
#20699
0!
#20749
1!
0(
b110 .
b110 ,
#20799
0!
#20849
1!
b111 .
b111 ,
#20899
0!
#20949
1!
b1000 .
b1000 ,
#20999
0!
#21049
1!
b1001 .
b0 ,
#21099
0!
#21149
1!
b1010 .
b1 ,
#21199
0!
#21249
1!
b1011 .
b10 ,
#21299
0!
#21349
1!
b1100 .
b11 ,
#21399
0!
#21449
1!
b1101 .
b100 ,
#21499
0!
#21549
0'
1(
b1110 .
1!
b101 ,
#21599
0!
#21649
1!
0(
b1111 .
b110 ,
#21699
0!
#21749
1!
b10000 .
b111 ,
#21799
0!
#21849
1!
b10001 .
b1000 ,
#21899
0!
#21949
1!
b10010 .
b0 ,
#21999
0!
#22049
1!
b10011 .
b1 ,
#22099
0!
#22149
1!
b10100 .
b10 ,
#22199
0!
#22249
1!
b10101 .
b11 ,
#22299
0!
#22349
1!
b10110 .
b100 ,
#22399
0!
#22449
1!
1(
b10111 .
b101 ,
#22499
0!
#22549
1!
0(
b11000 .
b110 ,
#22599
0!
#22649
1!
b11001 .
b111 ,
#22699
0!
#22749
1!
b11010 .
b1000 ,
#22799
0!
#22849
1!
b11011 .
b0 ,
#22899
0!
#22949
1!
b11100 .
b1 ,
#22999
0!
#23049
1!
b11101 .
b10 ,
#23099
0!
#23149
1!
b11110 .
b11 ,
#23199
0!
#23249
1!
b11111 .
b100 ,
#23299
0!
#23349
1!
1(
b100000 .
b101 ,
#23399
0!
#23449
1!
0(
b100001 .
b110 ,
#23499
0!
#23549
1!
b100010 .
b111 ,
#23599
0!
#23649
1!
b100011 .
b1000 ,
#23699
0!
#23749
1!
b100100 .
b0 ,
#23799
0!
#23849
1!
b100101 .
b1 ,
#23899
0!
#23949
1!
b100110 .
b10 ,
#23999
0!
#24049
1!
b100111 .
b11 ,
#24099
0!
#24149
1!
b101000 .
b100 ,
#24199
0!
#24249
1!
1(
b101001 .
b101 ,
#24299
0!
#24349
1!
0(
b101010 .
b110 ,
#24358
02
#24399
0!
#24449
01
1!
b101011 .
b111 ,
#24499
0!
#24549
0$
b101100 .
1%
1!
03
b1000 ,
#24599
0!
#24649
1-
b0 .
0#
0%
1!
b0 ,
#24699
0!
#24749
1!
b1 .
b1 ,
#24799
0!
#24849
1!
b10 .
b10 ,
#24899
0!
#24949
1!
b11 .
b11 ,
#24999
0!
#25049
1!
b100 .
b100 ,
#25099
0!
#25149
1'
0-
1(
b101 .
1!
b101 ,
#25199
0!
#25249
1!
0(
b110 .
b110 ,
#25299
0!
#25349
1!
b111 .
b111 ,
#25399
0!
#25449
1!
b1000 .
b1000 ,
#25499
0!
#25549
1!
b1001 .
b0 ,
#25599
0!
#25649
1!
b1010 .
b1 ,
#25699
0!
#25749
1!
b1011 .
b10 ,
#25799
0!
#25849
1!
b1100 .
b11 ,
#25899
0!
#25949
1!
b1101 .
b100 ,
#25999
0!
#26049
0'
1(
b1110 .
1!
b101 ,
#26099
0!
#26149
1!
0(
b1111 .
b110 ,
#26199
0!
#26249
1!
b10000 .
b111 ,
#26299
0!
#26349
1!
b10001 .
b1000 ,
#26399
0!
#26449
1!
b10010 .
b0 ,
#26499
0!
#26549
1!
b10011 .
b1 ,
#26599
0!
#26649
1!
b10100 .
b10 ,
#26699
0!
#26749
1!
b10101 .
b11 ,
#26799
0!
#26849
1!
b10110 .
b100 ,
#26899
0!
#26949
1!
1(
b10111 .
b101 ,
#26999
0!
#27049
1!
0(
b11000 .
b110 ,
#27099
0!
#27149
1!
b11001 .
b111 ,
#27199
0!
#27249
1!
b11010 .
b1000 ,
#27299
0!
#27349
1!
b11011 .
b0 ,
#27399
0!
#27449
1!
b11100 .
b1 ,
#27499
0!
#27549
1!
b11101 .
b10 ,
#27599
0!
#27649
1!
b11110 .
b11 ,
#27699
0!
#27749
1!
b11111 .
b100 ,
#27799
0!
#27849
1!
1(
b100000 .
b101 ,
#27899
0!
#27949
1!
0(
b100001 .
b110 ,
#27999
0!
#28049
1!
b100010 .
b111 ,
#28099
0!
#28149
1!
b100011 .
b1000 ,
#28199
0!
#28249
1!
b100100 .
b0 ,
#28299
0!
#28349
1!
b100101 .
b1 ,
#28399
0!
#28449
1!
b100110 .
b10 ,
#28499
0!
#28549
1!
b100111 .
b11 ,
#28599
0!
#28649
1!
b101000 .
b100 ,
#28699
0!
#28749
1!
1(
b101001 .
b101 ,
#28787
12
#28799
0!
#28849
11
0(
b101010 .
1!
b110 ,
#28899
0!
#28949
1$
b101011 .
1%
1!
13
b111 ,
#28999
0!
#29049
1-
b0 .
1#
0%
1!
b1 ,
#29099
0!
#29149
1!
b1 .
b10 ,
#29199
0!
#29249
1!
b10 .
b11 ,
#29299
0!
#29349
1!
b11 .
b100 ,
#29399
0!
#29449
1'
0-
1(
b100 .
1!
b101 ,
#29499
0!
#29549
1!
0(
b101 .
b110 ,
#29599
0!
#29649
1!
b110 .
b111 ,
#29699
0!
#29749
1!
b111 .
b1000 ,
#29799
0!
#29849
1!
b1000 .
b0 ,
#29899
0!
#29949
1!
b1001 .
b1 ,
#29999
0!
#30049
1!
b1010 .
b10 ,
#30099
0!
#30149
1!
b1011 .
b11 ,
#30199
0!
#30249
1!
b1100 .
b100 ,
#30299
0!
#30349
0'
1(
b1101 .
1!
b101 ,
#30399
0!
#30449
1!
0(
b1110 .
b110 ,
#30499
0!
#30549
1!
b1111 .
b111 ,
#30599
0!
#30649
1!
b10000 .
b1000 ,
#30699
0!
#30749
1!
b10001 .
b0 ,
#30799
0!
#30849
1!
b10010 .
b1 ,
#30899
0!
#30949
1!
b10011 .
b10 ,
#30999
0!
#31049
1!
b10100 .
b11 ,
#31099
0!
#31149
1!
b10101 .
b100 ,
#31199
0!
#31249
1!
1(
b10110 .
b101 ,
#31299
0!
#31349
1!
0(
b10111 .
b110 ,
#31399
0!
#31449
1!
b11000 .
b111 ,
#31499
0!
#31549
1!
b11001 .
b1000 ,
#31599
0!
#31649
1!
b11010 .
b0 ,
#31699
0!
#31749
1!
b11011 .
b1 ,
#31799
0!
#31849
1!
b11100 .
b10 ,
#31899
0!
#31949
1!
b11101 .
b11 ,
#31999
0!
#32049
1!
b11110 .
b100 ,
#32099
0!
#32149
1!
1(
b11111 .
b101 ,
#32199
0!
#32249
1!
0(
b100000 .
b110 ,
#32299
0!
#32349
1!
b100001 .
b111 ,
#32399
0!
#32449
1!
b100010 .
b1000 ,
#32499
0!
#32549
1!
b100011 .
b0 ,
#32599
0!
#32649
1!
b100100 .
b1 ,
#32699
0!
#32749
1!
b100101 .
b10 ,
#32799
0!
#32849
1!
b100110 .
b11 ,
#32899
0!
#32949
1!
b100111 .
b100 ,
#32999
0!
#33049
1!
1(
b101000 .
b101 ,
#33099
0!
#33149
1!
0(
b101001 .
b110 ,
#33199
0!
#33216
02
#33249
01
1!
b101010 .
b111 ,
#33299
0!
#33349
0$
b101011 .
1%
1!
03
b1000 ,
#33399
0!
#33449
1-
b0 .
0#
0%
1!
b0 ,
#33499
0!
#33549
1!
b1 .
b1 ,
#33599
0!
#33649
1!
b10 .
b10 ,
#33699
0!
#33749
1!
b11 .
b11 ,
#33799
0!
#33849
1!
b100 .
b100 ,
#33899
0!
#33949
1'
0-
1(
b101 .
1!
b101 ,
#33999
0!
#34049
1!
0(
b110 .
b110 ,
#34099
0!
#34149
1!
b111 .
b111 ,
#34199
0!
#34249
1!
b1000 .
b1000 ,
#34299
0!
#34349
1!
b1001 .
b0 ,
#34399
0!
#34449
1!
b1010 .
b1 ,
#34499
0!
#34549
1!
b1011 .
b10 ,
#34599
0!
#34649
1!
b1100 .
b11 ,
#34699
0!
#34749
1!
b1101 .
b100 ,
#34799
0!
#34849
0'
1(
b1110 .
1!
b101 ,
#34899
0!
#34949
1!
0(
b1111 .
b110 ,
#34999
0!
#35049
1!
b10000 .
b111 ,
#35099
0!
#35149
1!
b10001 .
b1000 ,
#35199
0!
#35249
1!
b10010 .
b0 ,
#35299
0!
#35349
1!
b10011 .
b1 ,
#35399
0!
#35449
1!
b10100 .
b10 ,
#35499
0!
#35549
1!
b10101 .
b11 ,
#35599
0!
#35649
1!
b10110 .
b100 ,
#35699
0!
#35749
1!
1(
b10111 .
b101 ,
#35799
0!
#35849
1!
0(
b11000 .
b110 ,
#35899
0!
#35949
1!
b11001 .
b111 ,
#35999
0!
#36049
1!
b11010 .
b1000 ,
#36099
0!
#36149
1!
b11011 .
b0 ,
#36199
0!
#36249
1!
b11100 .
b1 ,
#36299
0!
#36349
1!
b11101 .
b10 ,
#36399
0!
#36449
1!
b11110 .
b11 ,
#36499
0!
#36549
1!
b11111 .
b100 ,
#36599
0!
#36649
1!
1(
b100000 .
b101 ,
#36699
0!
#36749
1!
0(
b100001 .
b110 ,
#36799
0!
#36849
1!
b100010 .
b111 ,
#36899
0!
#36949
1!
b100011 .
b1000 ,
#36999
0!
#37049
1!
b100100 .
b0 ,
#37099
0!
#37149
1!
b100101 .
b1 ,
#37199
0!
#37249
1!
b100110 .
b10 ,
#37299
0!
#37349
1!
b100111 .
b11 ,
#37399
0!
#37449
1!
b101000 .
b100 ,
#37499
0!
#37549
1!
1(
b101001 .
b101 ,
#37599
0!
#37645
12
#37649
11
0(
b101010 .
1!
b110 ,
#37699
0!
#37749
1$
b101011 .
1%
1!
13
b111 ,
#37799
0!
#37849
1-
b0 .
1#
0%
1!
b1 ,
#37899
0!
#37949
1!
b1 .
b10 ,
#37999
0!
#38049
1!
b10 .
b11 ,
#38099
0!
#38149
1!
b11 .
b100 ,
#38199
0!
#38249
1'
0-
1(
b100 .
1!
b101 ,
#38299
0!
#38349
1!
0(
b101 .
b110 ,
#38399
0!
#38449
1!
b110 .
b111 ,
#38499
0!
#38549
1!
b111 .
b1000 ,
#38599
0!
#38649
1!
b1000 .
b0 ,
#38699
0!
#38749
1!
b1001 .
b1 ,
#38799
0!
#38849
1!
b1010 .
b10 ,
#38899
0!
#38949
1!
b1011 .
b11 ,
#38999
0!
#39049
1!
b1100 .
b100 ,
#39099
0!
#39149
0'
1(
b1101 .
1!
b101 ,
#39199
0!
#39249
1!
0(
b1110 .
b110 ,
#39299
0!
#39349
1!
b1111 .
b111 ,
#39399
0!
#39449
1!
b10000 .
b1000 ,
#39499
0!
#39549
1!
b10001 .
b0 ,
#39599
0!
#39649
1!
b10010 .
b1 ,
#39699
0!
#39749
1!
b10011 .
b10 ,
#39799
0!
#39849
1!
b10100 .
b11 ,
#39899
0!
#39949
1!
b10101 .
b100 ,
#39999
0!
#40049
1!
1(
b10110 .
b101 ,
#40099
0!
#40149
1!
0(
b10111 .
b110 ,
#40199
0!
#40249
1!
b11000 .
b111 ,
#40299
0!
#40349
1!
b11001 .
b1000 ,
#40399
0!
#40449
1!
b11010 .
b0 ,
#40499
0!
#40549
1!
b11011 .
b1 ,
#40599
0!
#40649
1!
b11100 .
b10 ,
#40699
0!
#40749
1!
b11101 .
b11 ,
#40799
0!
#40849
1!
b11110 .
b100 ,
#40899
0!
#40949
1!
1(
b11111 .
b101 ,
#40999
0!
#41049
1!
0(
b100000 .
b110 ,
#41099
0!
#41149
1!
b100001 .
b111 ,
#41199
0!
#41249
1!
b100010 .
b1000 ,
#41299
0!
#41349
1!
b100011 .
b0 ,
#41399
0!
#41449
1!
b100100 .
b1 ,
#41499
0!
#41549
1!
b100101 .
b10 ,
#41599
0!
#41649
1!
b100110 .
b11 ,
#41699
0!
#41749
1!
b100111 .
b100 ,
#41799
0!
#41849
1!
1(
b101000 .
b101 ,
#41899
0!
#41949
1!
0(
b101001 .
b110 ,
#41999
0!
#42049
1!
b101010 .
b111 ,
#42074
02
#42099
0!
#42149
01
1!
b101011 .
b1000 ,
#42199
0!
#42249
0$
b101100 .
1%
1!
03
b0 ,
#42299
0!
#42349
1-
b0 .
0#
0%
1!
b1 ,
#42399
0!
#42449
1!
b1 .
b10 ,
#42499
0!
#42549
1!
b10 .
b11 ,
#42599
0!
#42649
1!
b11 .
b100 ,
#42699
0!
#42749
1'
0-
1(
b100 .
1!
b101 ,
#42799
0!
#42849
1!
0(
b101 .
b110 ,
#42899
0!
#42949
1!
b110 .
b111 ,
#42999
0!
#43049
1!
b111 .
b1000 ,
#43099
0!
#43149
1!
b1000 .
b0 ,
#43199
0!
#43249
1!
b1001 .
b1 ,
#43299
0!
#43349
1!
b1010 .
b10 ,
#43399
0!
#43449
1!
b1011 .
b11 ,
#43499
0!
#43549
1!
b1100 .
b100 ,
#43599
0!
#43649
0'
1(
b1101 .
1!
b101 ,
#43699
0!
#43749
1!
0(
b1110 .
b110 ,
#43799
0!
#43849
1!
b1111 .
b111 ,
#43899
0!
#43949
1!
b10000 .
b1000 ,
#43999
0!
#44049
1!
b10001 .
b0 ,
#44099
0!
#44149
1!
b10010 .
b1 ,
#44199
0!
#44249
1!
b10011 .
b10 ,
#44299
0!
#44349
1!
b10100 .
b11 ,
#44399
0!
#44449
1!
b10101 .
b100 ,
#44499
0!
#44549
1!
1(
b10110 .
b101 ,
#44599
0!
#44649
1!
0(
b10111 .
b110 ,
#44699
0!
#44749
1!
b11000 .
b111 ,
#44799
0!
#44849
1!
b11001 .
b1000 ,
#44899
0!
#44949
1!
b11010 .
b0 ,
#44999
0!
#45049
1!
b11011 .
b1 ,
#45099
0!
#45149
1!
b11100 .
b10 ,
#45199
0!
#45249
1!
b11101 .
b11 ,
#45299
0!
#45349
1!
b11110 .
b100 ,
#45399
0!
#45449
1!
1(
b11111 .
b101 ,
#45499
0!
#45549
1!
0(
b100000 .
b110 ,
#45599
0!
#45649
1!
b100001 .
b111 ,
#45699
0!
#45749
1!
b100010 .
b1000 ,
#45799
0!
#45849
1!
b100011 .
b0 ,
#45899
0!
#45949
1!
b100100 .
b1 ,
#45999
0!
#46049
1!
b100101 .
b10 ,
#46099
0!
#46149
1!
b100110 .
b11 ,
#46199
0!
#46249
1!
b100111 .
b100 ,
#46299
0!
#46349
1!
1(
b101000 .
b101 ,
#46399
0!
#46449
1!
0(
b101001 .
b110 ,
#46499
0!
#46502
12
#46549
11
1!
b101010 .
b111 ,
#46599
0!
#46649
1$
b101011 .
1%
1!
13
b1000 ,
#46699
0!
#46749
1-
b0 .
1#
0%
1!
b0 ,
#46799
0!
#46849
1!
b1 .
b1 ,
#46899
0!
#46949
1!
b10 .
b10 ,
#46999
0!
#47049
1!
b11 .
b11 ,
#47099
0!
#47149
1!
b100 .
b100 ,
#47199
0!
#47249
1'
0-
1(
b101 .
1!
b101 ,
#47299
0!
#47349
1!
0(
b110 .
b110 ,
#47399
0!
#47449
1!
b111 .
b111 ,
#47499
0!
#47549
1!
b1000 .
b1000 ,
#47599
0!
#47649
1!
b1001 .
b0 ,
#47699
0!
#47749
1!
b1010 .
b1 ,
#47799
0!
#47849
1!
b1011 .
b10 ,
#47899
0!
#47949
1!
b1100 .
b11 ,
#47999
0!
#48049
1!
b1101 .
b100 ,
#48099
0!
#48149
0'
1(
b1110 .
1!
b101 ,
#48199
0!
#48249
1!
0(
b1111 .
b110 ,
#48299
0!
#48349
1!
b10000 .
b111 ,
#48399
0!
#48449
1!
b10001 .
b1000 ,
#48499
0!
#48549
1!
b10010 .
b0 ,
#48599
0!
#48649
1!
b10011 .
b1 ,
#48699
0!
#48749
1!
b10100 .
b10 ,
#48799
0!
#48849
1!
b10101 .
b11 ,
#48899
0!
#48949
1!
b10110 .
b100 ,
#48999
0!
#49049
1!
1(
b10111 .
b101 ,
#49099
0!
#49149
1!
0(
b11000 .
b110 ,
#49199
0!
#49249
1!
b11001 .
b111 ,
#49299
0!
#49349
1!
b11010 .
b1000 ,
#49399
0!
#49449
1!
b11011 .
b0 ,
#49499
0!
#49549
1!
b11100 .
b1 ,
#49599
0!
#49649
1!
b11101 .
b10 ,
#49699
0!
#49749
1!
b11110 .
b11 ,
#49799
0!
#49849
1!
b11111 .
b100 ,
#49899
0!
#49949
1!
1(
b100000 .
b101 ,
#49999
0!
#50049
1!
0(
b100001 .
b110 ,
#50099
0!
#50149
1!
b100010 .
b111 ,
#50199
0!
#50249
1!
b100011 .
b1000 ,
#50299
0!
#50349
1!
b100100 .
b0 ,
#50399
0!
#50449
1!
b100101 .
b1 ,
#50499
0!
#50549
1!
b100110 .
b10 ,
#50599
0!
#50649
1!
b100111 .
b11 ,
#50699
0!
#50749
1!
b101000 .
b100 ,
#50799
0!
#50849
1!
1(
b101001 .
b101 ,
#50899
0!
#50931
02
#50949
01
0(
b101010 .
1!
b110 ,
#50999
0!
#51049
0$
b101011 .
1%
1!
03
b111 ,
#51099
0!
#51149
1-
b0 .
0#
0%
1!
b1 ,
#51199
0!
#51249
1!
b1 .
b10 ,
#51299
0!
#51349
1!
b10 .
b11 ,
#51399
0!
#51449
1!
b11 .
b100 ,
#51499
0!
#51549
1'
0-
1(
b100 .
1!
b101 ,
#51599
0!
#51649
1!
0(
b101 .
b110 ,
#51699
0!
#51749
1!
b110 .
b111 ,
#51799
0!
#51849
1!
b111 .
b1000 ,
#51899
0!
#51949
1!
b1000 .
b0 ,
#51999
0!
#52049
1!
b1001 .
b1 ,
#52099
0!
#52149
1!
b1010 .
b10 ,
#52199
0!
#52249
1!
b1011 .
b11 ,
#52299
0!
#52349
1!
b1100 .
b100 ,
#52399
0!
#52449
0'
1(
b1101 .
1!
b101 ,
