nrzi-decoder-bench-44100.vcd
$comment Generated by nMigen $end
$date 2021-01-21 13:54:10.443858 $end
$timescale 100 ps $end
$scope module top $end
$var wire 1 ! clk $end
$var wire 1 " rst $end
$var wire 1 # nrzi_prev $end
$var wire 1 $ nrzi $end
$var wire 1 % got_edge $end
$var wire 1 & data_out $end
$var wire 1 ' data_out_en $end
$var wire 1 ( reset_in $end
$var wire 1 ) active_in $end
$var string 1 * fsm_state $end
$var wire 7 + bit_counter $end
$var wire 1 , output $end
$var wire 8 - dead_counter $end
$var wire 7 . counter_out $end
$var wire 7 / divided_counter_out $end
$scope module cdc $end
$var wire 1 ! clk $end
$var wire 1 " rst $end
$var wire 1 $ nrzi $end
$var wire 1 0 stage0 $end
$var wire 1 1 nrzi_in $end
$var wire 1 2 stage1 $end
$upscope $end
$scope module sync_counter $end
$var wire 1 ! clk $end
$var wire 1 " rst $end
$var wire 1 ( reset_in $end
$var wire 1 ) active_in $end
$var wire 7 . counter_out $end
$var wire 7 / divided_counter_out $end
$var wire 4 3 dividing_cycle_counter $end
$var wire 1 4 dividable_out $end
$upscope $end
$upscope $end
$enddefinitions $end
#0
$dumpvars
0!
0"
0#
0$
0%
0&
0'
0(
0)
sSYNC/0 *
b0 +
1,
b0 -
b0 .
b0 /
00
01
02
b0 3
04
$end
#50
1)
1!
#100
0!
#150
b1 .
1!
b1 3
#200
0!
#250
b10 .
1!
b10 3
#300
0!
#349
b11 .
1!
b11 3
#399
0!
#442
11
#449
10
b100 .
1!
b100 3
#499
0!
#549
12
1%
1!
b101 3
b101 .
1$
#600
0!
#650
1(
0%
1!
b110 3
1#
b110 .
#700
0!
#750
0(
b0 .
1!
b0 3
#800
0!
#850
b1 .
1!
b1 3
#900
0!
#950
b10 .
1!
b10 3
#1000
0!
#1050
b11 .
1!
b11 3
#1100
0!
#1150
b100 .
1!
b100 3
#1200
0!
#1250
b101 .
1!
b101 3
#1300
0!
#1328
01
#1350
00
b110 .
1!
b110 3
#1400
0!
#1450
02
1%
1!
b111 3
b111 .
0$
#1500
0!
#1550
1(
0%
1!
b1000 3
0#
b1000 .
#1600
0!
#1650
0(
b0 .
1!
b0 3
#1700
0!
#1750
b1 .
1!
b1 3
#1800
0!
#1850
b10 .
1!
b10 3
#1900
0!
#1950
b11 .
1!
b11 3
#2000
0!
#2050
b100 .
1!
b100 3
#2100
0!
#2150
b101 .
1!
b101 3
#2200
0!
#2250
b110 .
1!
b110 3
#2300
0!
#2350
b111 .
1!
b111 3
#2400
0!
#2450
b1000 .
1!
b1000 3
#2500
0!
#2550
b1001 .
1!
b1001 3
#2600
0!
#2650
b1010 .
1!
b1010 3
#2700
0!
#2750
b1011 .
1!
b1011 3
#2800
0!
#2850
b1 /
1!
b0 3
b1100 .
14
#2900
0!
#2950
b1 3
b1101 .
1!
04
#3000
0!
#3050
b1110 .
1!
b10 3
#3100
0!
#3150
b1111 .
1!
b11 3
#3200
0!
#3250
b10000 .
1!
b100 3
#3300
0!
#3350
b10001 .
1!
b101 3
#3400
0!
#3450
b10010 .
1!
b110 3
#3500
0!
#3550
b10011 .
1!
b111 3
#3600
0!
#3650
b10100 .
1!
b1000 3
#3700
0!
#3750
b10101 .
1!
b1001 3
#3800
0!
#3850
b10110 .
1!
b1010 3
#3900
0!
#3950
b10111 .
1!
b1011 3
#4000
0!
#4050
b10 /
1!
b0 3
b11000 .
14
#4100
0!
#4150
b1 3
b11001 .
1!
04
#4200
0!
#4250
b11010 .
1!
b10 3
#4300
0!
#4350
b11011 .
1!
b11 3
#4400
0!
#4450
b11100 .
1!
b100 3
#4500
0!
#4550
b11101 .
1!
b101 3
#4600
0!
#4650
b11110 .
1!
b110 3
#4700
0!
#4750
b11111 .
1!
b111 3
#4800
0!
#4850
b100000 .
1!
b1000 3
#4900
0!
#4950
b100001 .
1!
b1001 3
#5000
0!
#5050
b100010 .
1!
b1010 3
#5100
0!
#5150
b100011 .
1!
b1011 3
#5200
0!
#5249
b11 /
1!
b0 3
b100100 .
14
#5299
0!
#5349
b1 3
b100101 .
1!
04
#5399
0!
#5449
b100110 .
1!
b10 3
#5499
0!
#5549
b100111 .
1!
b11 3
#5599
0!
#5649
b101000 .
1!
b100 3
#5699
0!
#5749
b101001 .
1!
b101 3
#5757
11
#5799
0!
#5849
10
b101010 .
1!
b110 3
#5899
0!
#5949
12
1%
1!
b111 3
b101011 .
1$
#5999
0!
#6049
1(
0%
1!
b1000 3
1#
b101100 .
#6099
0!
#6149
0(
b0 /
1!
b0 3
b0 .
#6199
0!
#6249
b1 .
1!
b1 3
#6299
0!
#6349
b10 .
1!
b10 3
#6399
0!
#6449
b11 .
1!
b11 3
#6499
0!
#6549
b100 .
1!
b100 3
#6599
0!
#6649
b101 .
1!
b101 3
#6699
0!
#6749
b110 .
1!
b110 3
#6799
0!
#6849
b111 .
1!
b111 3
#6899
0!
#6949
b1000 .
1!
b1000 3
#6999
0!
#7049
b1001 .
1!
b1001 3
#7099
0!
#7149
b1010 .
1!
b1010 3
#7199
0!
#7249
b1011 .
1!
b1011 3
#7299
0!
#7349
b1 /
1!
b0 3
b1100 .
14
#7399
0!
#7449
b1 3
b1101 .
1!
04
#7499
0!
#7549
b1110 .
1!
b10 3
#7599
0!
#7649
b1111 .
1!
b11 3
#7699
0!
#7749
b10000 .
1!
b100 3
#7799
0!
#7849
b10001 .
1!
b101 3
#7899
0!
#7949
b10010 .
1!
b110 3
#7999
0!
#8049
b10011 .
1!
b111 3
#8099
0!
#8149
b10100 .
1!
b1000 3
#8199
0!
#8249
b10101 .
1!
b1001 3
#8299
0!
#8349
b10110 .
1!
b1010 3
#8399
0!
#8449
b10111 .
1!
b1011 3
#8499
0!
#8549
b10 /
1!
b0 3
b11000 .
14
#8599
0!
#8649
b1 3
b11001 .
1!
04
#8699
0!
#8749
b11010 .
1!
b10 3
#8799
0!
#8849
b11011 .
1!
b11 3
#8899
0!
#8949
b11100 .
1!
b100 3
#8999
0!
#9049
b11101 .
1!
b101 3
#9099
0!
#9149
b11110 .
1!
b110 3
#9199
0!
#9249
b11111 .
1!
b111 3
#9299
0!
#9349
b100000 .
1!
b1000 3
#9399
0!
#9449
b100001 .
1!
b1001 3
#9499
0!
#9549
b100010 .
1!
b1010 3
#9599
0!
#9649
b100011 .
1!
b1011 3
#9699
0!
#9749
b11 /
1!
b0 3
b100100 .
14
#9799
0!
#9849
b1 3
b100101 .
1!
04
#9899
0!
#9949
b100110 .
1!
b10 3
#9999
0!
#10049
b100111 .
1!
b11 3
#10099
0!
#10149
b101000 .
1!
b100 3
#10186
01
#10199
0!
#10249
00
b101001 .
1!
b101 3
#10299
0!
#10349
02
1%
1!
b110 3
b101010 .
0$
#10399
0!
#10449
1(
0%
1!
b111 3
0#
b101011 .
#10499
0!
#10549
0(
b0 /
1!
b0 3
b0 .
#10599
0!
#10649
b1 .
1!
b1 3
#10699
0!
#10749
b10 .
1!
b10 3
#10799
0!
#10849
b11 .
1!
b11 3
#10899
0!
#10949
b100 .
1!
b100 3
#10999
0!
#11049
b101 .
1!
b101 3
#11099
0!
#11149
b110 .
1!
b110 3
#11199
0!
#11249
b111 .
1!
b111 3
#11299
0!
#11349
b1000 .
1!
b1000 3
#11399
0!
#11449
b1001 .
1!
b1001 3
#11499
0!
#11549
b1010 .
1!
b1010 3
#11599
0!
#11649
b1011 .
1!
b1011 3
#11699
0!
#11749
b1 /
1!
b0 3
b1100 .
14
#11799
0!
#11849
b1 3
b1101 .
1!
04
#11899
0!
#11949
b1110 .
1!
b10 3
#11999
0!
#12049
b1111 .
1!
b11 3
#12099
0!
#12149
b10000 .
1!
b100 3
#12199
0!
#12249
b10001 .
1!
b101 3
#12299
0!
#12349
b10010 .
1!
b110 3
#12399
0!
#12449
b10011 .
1!
b111 3
#12499
0!
#12549
b10100 .
1!
b1000 3
#12599
0!
#12649
b10101 .
1!
b1001 3
#12699
0!
#12749
b10110 .
1!
b1010 3
#12799
0!
#12849
b10111 .
1!
b1011 3
#12899
0!
#12949
b10 /
1!
b0 3
b11000 .
14
#12999
0!
#13049
b1 3
b11001 .
1!
04
#13099
0!
#13149
b11010 .
1!
b10 3
#13199
0!
#13249
b11011 .
1!
b11 3
#13299
0!
#13349
b11100 .
1!
b100 3
#13399
0!
#13449
b11101 .
1!
b101 3
#13499
0!
#13549
b11110 .
1!
b110 3
#13599
0!
#13649
b11111 .
1!
b111 3
#13699
0!
#13749
b100000 .
1!
b1000 3
#13799
0!
#13849
b100001 .
1!
b1001 3
#13899
0!
#13949
b100010 .
1!
b1010 3
#13999
0!
#14049
b100011 .
1!
b1011 3
#14099
0!
#14149
b11 /
1!
b0 3
b100100 .
14
#14199
0!
#14249
b1 3
b100101 .
1!
04
#14299
0!
#14349
b100110 .
1!
b10 3
#14399
0!
#14449
b100111 .
1!
b11 3
#14499
0!
#14549
b101000 .
1!
b100 3
#14599
0!
#14615
11
#14649
10
b101001 .
1!
b101 3
#14699
0!
#14749
12
1%
1!
b110 3
b101010 .
1$
#14799
0!
#14849
1(
0%
1!
b111 3
1#
b101011 .
#14899
0!
#14949
0(
b0 /
1!
b0 3
b0 .
#14999
0!
#15049
b1 .
1!
b1 3
#15099
0!
#15149
b10 .
1!
b10 3
#15199
0!
#15249
b11 .
1!
b11 3
#15299
0!
#15349
b100 .
1!
b100 3
#15399
0!
#15449
b101 .
1!
b101 3
#15499
0!
#15549
b110 .
1!
b110 3
#15599
0!
#15649
b111 .
1!
b111 3
#15699
0!
#15749
b1000 .
1!
b1000 3
#15799
0!
#15849
b1001 .
1!
b1001 3
#15899
0!
#15949
b1010 .
1!
b1010 3
#15999
0!
#16049
b1011 .
1!
b1011 3
#16099
0!
#16149
b1 /
1!
b0 3
b1100 .
14
#16199
0!
#16249
b1 3
b1101 .
1!
04
#16299
0!
#16349
b1110 .
1!
b10 3
#16399
0!
#16449
b1111 .
1!
b11 3
#16499
0!
#16549
b10000 .
1!
b100 3
#16599
0!
#16649
b10001 .
1!
b101 3
#16699
0!
#16749
b10010 .
1!
b110 3
#16799
0!
#16849
b10011 .
1!
b111 3
#16899
0!
#16949
b10100 .
1!
b1000 3
#16999
0!
#17049
b10101 .
1!
b1001 3
#17099
0!
#17149
b10110 .
1!
b1010 3
#17199
0!
#17249
b10111 .
1!
b1011 3
#17299
0!
#17349
b10 /
1!
b0 3
b11000 .
14
#17399
0!
#17449
b1 3
b11001 .
1!
04
#17499
0!
#17549
b11010 .
1!
b10 3
#17599
0!
#17649
b11011 .
1!
b11 3
#17699
0!
#17749
b11100 .
1!
b100 3
#17799
0!
#17849
b11101 .
1!
b101 3
#17899
0!
#17949
b11110 .
1!
b110 3
#17999
0!
#18049
b11111 .
1!
b111 3
#18099
0!
#18149
b100000 .
1!
b1000 3
#18199
0!
#18249
b100001 .
1!
b1001 3
#18299
0!
#18349
b100010 .
1!
b1010 3
#18399
0!
#18449
b100011 .
1!
b1011 3
#18499
0!
#18549
b11 /
1!
b0 3
b100100 .
14
#18599
0!
#18649
b1 3
b100101 .
1!
04
#18699
0!
#18749
b100110 .
1!
b10 3
#18799
0!
#18849
b100111 .
1!
b11 3
#18899
0!
#18949
b101000 .
1!
b100 3
#18999
0!
#19044
01
#19049
00
b101001 .
1!
b101 3
#19099
0!
#19149
02
1%
1!
b110 3
b101010 .
0$
#19199
0!
#19249
1(
0%
1!
b111 3
0#
b101011 .
#19299
0!
#19349
0(
b0 /
1!
b0 3
b0 .
#19399
0!
#19449
b1 .
1!
b1 3
#19499
0!
#19549
b10 .
1!
b10 3
#19599
0!
#19649
b11 .
1!
b11 3
#19699
0!
#19749
b100 .
1!
b100 3
#19799
0!
#19849
b101 .
1!
b101 3
#19899
0!
#19949
b110 .
1!
b110 3
#19999
0!
#20049
b111 .
1!
b111 3
#20099
0!
#20149
b1000 .
1!
b1000 3
#20199
0!
#20249
b1001 .
1!
b1001 3
#20299
0!
#20349
b1010 .
1!
b1010 3
#20399
0!
#20449
b1011 .
1!
b1011 3
#20499
0!
#20549
b1 /
1!
b0 3
b1100 .
14
#20599
0!
#20649
b1 3
b1101 .
1!
04
#20699
0!
#20749
b1110 .
1!
b10 3
#20799
0!
#20849
b1111 .
1!
b11 3
#20899
0!
#20949
b10000 .
1!
b100 3
#20999
0!
#21049
b10001 .
1!
b101 3
#21099
0!
#21149
b10010 .
1!
b110 3
#21199
0!
#21249
b10011 .
1!
b111 3
#21299
0!
#21349
b10100 .
1!
b1000 3
#21399
0!
#21449
b10101 .
1!
b1001 3
#21499
0!
#21549
b10110 .
1!
b1010 3
#21599
0!
#21649
b10111 .
1!
b1011 3
#21699
0!
#21749
b10 /
1!
b0 3
b11000 .
14
#21799
0!
#21849
b1 3
b11001 .
1!
04
#21899
0!
#21949
b11010 .
1!
b10 3
#21999
0!
#22049
b11011 .
1!
b11 3
#22099
0!
#22149
b11100 .
1!
b100 3
#22199
0!
#22249
b11101 .
1!
b101 3
#22299
0!
#22349
b11110 .
1!
b110 3
#22399
0!
#22449
b11111 .
1!
b111 3
#22499
0!
#22549
b100000 .
1!
b1000 3
#22599
0!
#22649
b100001 .
1!
b1001 3
#22699
0!
#22749
b100010 .
1!
b1010 3
#22799
0!
#22849
b100011 .
1!
b1011 3
#22899
0!
#22949
b11 /
1!
b0 3
b100100 .
14
#22999
0!
#23049
b1 3
b100101 .
1!
04
#23099
0!
#23149
b100110 .
1!
b10 3
#23199
0!
#23249
b100111 .
1!
b11 3
#23299
0!
#23349
b101000 .
1!
b100 3
#23399
0!
#23449
b101001 .
1!
b101 3
#23472
11
#23499
0!
#23549
10
b101010 .
1!
b110 3
#23599
0!
#23649
12
1%
1!
b111 3
b101011 .
1$
#23699
0!
#23749
1(
0%
1!
b1000 3
1#
b101100 .
#23799
0!
#23849
0(
b0 /
1!
b0 3
b0 .
#23899
0!
#23949
b1 .
1!
b1 3
#23999
0!
#24049
b10 .
1!
b10 3
#24099
0!
#24149
b11 .
1!
b11 3
#24199
0!
#24249
b100 .
1!
b100 3
#24299
0!
#24349
b101 .
1!
b101 3
#24399
0!
#24449
b110 .
1!
b110 3
#24499
0!
#24549
b111 .
1!
b111 3
#24599
0!
#24649
b1000 .
1!
b1000 3
#24699
0!
#24749
b1001 .
1!
b1001 3
#24799
0!
#24849
b1010 .
1!
b1010 3
#24899
0!
#24949
b1011 .
1!
b1011 3
#24999
0!
#25049
b1 /
1!
b0 3
b1100 .
14
#25099
0!
#25149
b1 3
b1101 .
1!
04
#25199
0!
#25249
b1110 .
1!
b10 3
#25299
0!
#25349
b1111 .
1!
b11 3
#25399
0!
#25449
b10000 .
1!
b100 3
#25499
0!
#25549
b10001 .
1!
b101 3
#25599
0!
#25649
b10010 .
1!
b110 3
#25699
0!
#25749
b10011 .
1!
b111 3
#25799
0!
#25849
b10100 .
1!
b1000 3
#25899
0!
#25949
b10101 .
1!
b1001 3
#25999
0!
#26049
b10110 .
1!
b1010 3
#26099
0!
#26149
b10111 .
1!
b1011 3
#26199
0!
#26249
b10 /
1!
b0 3
b11000 .
14
#26299
0!
#26349
b1 3
b11001 .
1!
04
#26399
0!
#26449
b11010 .
1!
b10 3
#26499
0!
#26549
b11011 .
1!
b11 3
#26599
0!
#26649
b11100 .
1!
b100 3
#26699
0!
#26749
b11101 .
1!
b101 3
#26799
0!
#26849
b11110 .
1!
b110 3
#26899
0!
#26949
b11111 .
1!
b111 3
#26999
0!
#27049
b100000 .
1!
b1000 3
#27099
0!
#27149
b100001 .
1!
b1001 3
#27199
0!
#27249
b100010 .
1!
b1010 3
#27299
0!
#27349
b100011 .
1!
b1011 3
#27399
0!
#27449
b11 /
1!
b0 3
b100100 .
14
#27499
0!
#27549
b1 3
b100101 .
1!
04
#27599
0!
#27649
b100110 .
1!
b10 3
#27699
0!
#27749
b100111 .
1!
b11 3
#27799
0!
#27849
b101000 .
1!
b100 3
#27899
0!
#27901
01
#27949
00
b101001 .
1!
b101 3
#27999
0!
#28049
02
1%
1!
b110 3
b101010 .
0$
#28099
0!
#28149
1(
0%
1!
b111 3
0#
b101011 .
#28199
0!
#28249
0(
b0 /
1!
b0 3
b0 .
#28299
0!
#28349
b1 .
1!
b1 3
#28399
0!
#28449
b10 .
1!
b10 3
#28499
0!
#28549
b11 .
1!
b11 3
#28599
0!
#28649
b100 .
1!
b100 3
#28699
0!
#28749
b101 .
1!
b101 3
#28799
0!
#28849
b110 .
1!
b110 3
#28899
0!
#28949
b111 .
1!
b111 3
#28999
0!
#29049
b1000 .
1!
b1000 3
#29099
0!
#29149
b1001 .
1!
b1001 3
#29199
0!
#29249
b1010 .
1!
b1010 3
#29299
0!
#29349
b1011 .
1!
b1011 3
#29399
0!
#29449
b1 /
1!
b0 3
b1100 .
14
#29499
0!
#29549
b1 3
b1101 .
1!
04
#29599
0!
#29649
b1110 .
1!
b10 3
#29699
0!
#29749
b1111 .
1!
b11 3
#29799
0!
#29849
b10000 .
1!
b100 3
#29899
0!
#29949
b10001 .
1!
b101 3
#29999
0!
#30049
b10010 .
1!
b110 3
#30099
0!
#30149
b10011 .
1!
b111 3
#30199
0!
#30249
b10100 .
1!
b1000 3
#30299
0!
#30349
b10101 .
1!
b1001 3
#30399
0!
#30449
b10110 .
1!
b1010 3
#30499
0!
#30549
b10111 .
1!
b1011 3
#30599
0!
#30649
b10 /
1!
b0 3
b11000 .
14
#30699
0!
#30749
b1 3
b11001 .
1!
04
#30799
0!
#30849
b11010 .
1!
b10 3
#30899
0!
#30949
b11011 .
1!
b11 3
#30999
0!
#31049
b11100 .
1!
b100 3
#31099
0!
#31149
b11101 .
1!
b101 3
#31199
0!
#31249
b11110 .
1!
b110 3
#31299
0!
#31349
b11111 .
1!
b111 3
#31399
0!
#31449
b100000 .
1!
b1000 3
#31499
0!
#31549
b100001 .
1!
b1001 3
#31599
0!
#31649
b100010 .
1!
b1010 3
#31699
0!
#31749
b100011 .
1!
b1011 3
#31799
0!
#31849
b11 /
1!
b0 3
b100100 .
14
#31899
0!
#31949
b1 3
b100101 .
1!
04
#31999
0!
#32049
b100110 .
1!
b10 3
#32099
0!
#32149
b100111 .
1!
b11 3
#32199
0!
#32249
b101000 .
1!
b100 3
#32299
0!
#32330
11
#32349
10
b101001 .
1!
b101 3
#32399
0!
#32449
12
1%
1!
b110 3
b101010 .
1$
#32499
0!
#32549
1(
0%
1!
b111 3
1#
b101011 .
#32599
0!
#32649
0(
b0 /
1!
b0 3
b0 .
#32699
0!
#32749
b1 .
1!
b1 3
#32799
0!
#32849
b10 .
1!
b10 3
#32899
0!
#32949
b11 .
1!
b11 3
#32999
0!
#33049
b100 .
1!
b100 3
#33099
0!
#33149
b101 .
1!
b101 3
#33199
0!
#33249
b110 .
1!
b110 3
#33299
0!
#33349
b111 .
1!
b111 3
#33399
0!
#33449
b1000 .
1!
b1000 3
#33499
0!
#33549
b1001 .
1!
b1001 3
#33599
0!
#33649
b1010 .
1!
b1010 3
#33699
0!
#33749
b1011 .
1!
b1011 3
#33799
0!
#33849
b1 /
1!
b0 3
b1100 .
14
#33899
0!
#33949
b1 3
b1101 .
1!
04
#33999
0!
#34049
b1110 .
1!
b10 3
#34099
0!
#34149
b1111 .
1!
b11 3
#34199
0!
#34249
b10000 .
1!
b100 3
#34299
0!
#34349
b10001 .
1!
b101 3
#34399
0!
#34449
b10010 .
1!
b110 3
#34499
0!
#34549
b10011 .
1!
b111 3
#34599
0!
#34649
b10100 .
1!
b1000 3
#34699
0!
#34749
b10101 .
1!
b1001 3
#34799
0!
#34849
b10110 .
1!
b1010 3
#34899
0!
#34949
b10111 .
1!
b1011 3
#34999
0!
#35049
b10 /
1!
b0 3
b11000 .
14
#35099
0!
#35149
b1 3
b11001 .
1!
04
#35199
0!
#35249
b11010 .
1!
b10 3
#35299
0!
#35349
b11011 .
1!
b11 3
#35399
0!
#35449
b11100 .
1!
b100 3
#35499
0!
#35549
b11101 .
1!
b101 3
#35599
0!
#35649
b11110 .
1!
b110 3
#35699
0!
#35749
b11111 .
1!
b111 3
#35799
0!
#35849
b100000 .
1!
b1000 3
#35899
0!
#35949
b100001 .
1!
b1001 3
#35999
0!
#36049
b100010 .
1!
b1010 3
#36099
0!
#36149
b100011 .
1!
b1011 3
#36199
0!
#36249
b11 /
1!
b0 3
b100100 .
14
#36299
0!
#36349
b1 3
b100101 .
1!
04
#36399
0!
#36449
b100110 .
1!
b10 3
#36499
0!
#36549
b100111 .
1!
b11 3
#36599
0!
#36649
b101000 .
1!
b100 3
#36699
0!
#36749
b101001 .
1!
b101 3
#36759
01
#36799
0!
#36849
00
b101010 .
1!
b110 3
#36899
0!
#36949
02
1%
1!
b111 3
b101011 .
0$
#36999
0!
#37049
1(
0%
1!
b1000 3
0#
b101100 .
#37099
0!
#37149
0(
b0 /
1!
b0 3
b0 .
#37199
0!
#37249
b1 .
1!
b1 3
#37299
0!
#37349
b10 .
1!
b10 3
#37399
0!
#37449
b11 .
1!
b11 3
#37499
0!
#37549
b100 .
1!
b100 3
#37599
0!
#37649
b101 .
1!
b101 3
#37699
0!
#37749
b110 .
1!
b110 3
#37799
0!
#37849
b111 .
1!
b111 3
#37899
0!
#37949
b1000 .
1!
b1000 3
#37999
0!
#38049
b1001 .
1!
b1001 3
#38099
0!
#38149
b1010 .
1!
b1010 3
#38199
0!
#38249
b1011 .
1!
b1011 3
#38299
0!
#38349
b1 /
1!
b0 3
b1100 .
14
#38399
0!
#38449
b1 3
b1101 .
1!
04
#38499
0!
#38549
b1110 .
1!
b10 3
#38599
0!
#38649
b1111 .
1!
b11 3
#38699
0!
#38749
b10000 .
1!
b100 3
#38799
0!
#38849
b10001 .
1!
b101 3
#38899
0!
#38949
b10010 .
1!
b110 3
#38999
0!
#39049
b10011 .
1!
b111 3
#39099
0!
#39149
b10100 .
1!
b1000 3
#39199
0!
#39249
b10101 .
1!
b1001 3
#39299
0!
#39349
b10110 .
1!
b1010 3
#39399
0!
#39449
b10111 .
1!
b1011 3
#39499
0!
#39549
b10 /
1!
b0 3
b11000 .
14
#39599
0!
#39649
b1 3
b11001 .
1!
04
#39699
0!
#39749
b11010 .
1!
b10 3
#39799
0!
#39849
b11011 .
1!
b11 3
#39899
0!
#39949
b11100 .
1!
b100 3
#39999
0!
#40049
b11101 .
1!
b101 3
#40099
0!
#40149
b11110 .
1!
b110 3
#40199
0!
#40249
b11111 .
1!
b111 3
#40299
0!
#40349
b100000 .
1!
b1000 3
#40399
0!
#40449
b100001 .
1!
b1001 3
#40499
0!
#40549
b100010 .
1!
b1010 3
#40599
0!
#40649
b100011 .
1!
b1011 3
#40699
0!
#40749
b11 /
1!
b0 3
b100100 .
14
#40799
0!
#40849
b1 3
b100101 .
1!
04
#40899
0!
#40949
b100110 .
1!
b10 3
#40999
0!
#41049
b100111 .
1!
b11 3
#41099
0!
#41149
b101000 .
1!
b100 3
#41188
11
#41199
0!
#41249
10
b101001 .
1!
b101 3
#41299
0!
#41349
12
1%
1!
b110 3
b101010 .
1$
#41399
0!
#41449
1(
0%
1!
b111 3
1#
b101011 .
#41499
0!
#41549
0(
b0 /
1!
b0 3
b0 .
#41599
0!
#41649
b1 .
1!
b1 3
#41699
0!
#41749
b10 .
1!
b10 3
#41799
0!
#41849
b11 .
1!
b11 3
#41899
0!
#41949
b100 .
1!
b100 3
#41999
0!
#42049
b101 .
1!
b101 3
#42099
0!
#42149
b110 .
1!
b110 3
#42199
0!
#42249
b111 .
1!
b111 3
#42299
0!
#42349
b1000 .
1!
b1000 3
#42399
0!
#42449
b1001 .
1!
b1001 3
#42499
0!
#42549
b1010 .
1!
b1010 3
#42599
0!
#42649
b1011 .
1!
b1011 3
#42699
0!
#42749
b1 /
1!
b0 3
b1100 .
14
#42799
0!
#42849
b1 3
b1101 .
1!
04
#42899
0!
#42949
b1110 .
1!
b10 3
#42999
0!
#43049
b1111 .
1!
b11 3
#43099
0!
#43149
b10000 .
1!
b100 3
#43199
0!
#43249
b10001 .
1!
b101 3
#43299
0!
#43349
b10010 .
1!
b110 3
#43399
0!
#43449
b10011 .
1!
b111 3
#43499
0!
#43549
b10100 .
1!
b1000 3
#43599
0!
#43649
b10101 .
1!
b1001 3
#43699
0!
#43749
b10110 .
1!
b1010 3
#43799
0!
#43849
b10111 .
1!
b1011 3
#43899
0!
#43949
b10 /
1!
b0 3
b11000 .
14
#43999
0!
#44049
b1 3
b11001 .
1!
04
#44099
0!
#44149
b11010 .
1!
b10 3
#44199
0!
#44249
b11011 .
1!
b11 3
#44299
0!
#44349
b11100 .
1!
b100 3
#44399
0!
#44449
b11101 .
1!
b101 3
#44499
0!
#44549
b11110 .
1!
b110 3
#44599
0!
#44649
b11111 .
1!
b111 3
#44699
0!
#44749
b100000 .
1!
b1000 3
#44799
0!
#44849
b100001 .
1!
b1001 3
#44899
0!
#44949
b100010 .
1!
b1010 3
#44999
0!
#45049
b100011 .
1!
b1011 3
#45099
0!
#45149
b11 /
1!
b0 3
b100100 .
14
#45199
0!
#45249
b1 3
b100101 .
1!
04
#45299
0!
#45349
b100110 .
1!
b10 3
#45399
0!
#45449
b100111 .
1!
b11 3
#45499
0!
#45549
b101000 .
1!
b100 3
#45599
0!
#45617
01
#45649
00
b101001 .
1!
b101 3
#45699
0!
#45749
02
1%
1!
b110 3
b101010 .
0$
#45799
0!
#45849
1(
0%
1!
b111 3
0#
b101011 .
#45899
0!
#45949
0(
b0 /
1!
b0 3
b0 .
#45999
0!
#46049
b1 .
1!
b1 3
#46099
0!
#46149
b10 .
1!
b10 3
#46199
0!
#46249
b11 .
1!
b11 3
#46299
0!
#46349
b100 .
1!
b100 3
#46399
0!
#46449
b101 .
1!
b101 3
#46499
0!
#46549
b110 .
1!
b110 3
#46599
0!
#46649
b111 .
1!
b111 3
#46699
0!
#46749
b1000 .
1!
b1000 3
#46799
0!
#46849
b1001 .
1!
b1001 3
#46899
0!
#46949
b1010 .
1!
b1010 3
#46999
0!
#47049
b1011 .
1!
b1011 3
#47099
0!
#47149
b1 /
1!
b0 3
b1100 .
14
#47199
0!
#47249
b1 3
b1101 .
1!
04
#47299
0!
#47349
b1110 .
1!
b10 3
#47399
0!
#47449
b1111 .
1!
b11 3
#47499
0!
#47549
b10000 .
1!
b100 3
#47599
0!
#47649
b10001 .
1!
b101 3
#47699
0!
#47749
b10010 .
1!
b110 3
#47799
0!
#47849
b10011 .
1!
b111 3
#47899
0!
#47949
b10100 .
1!
b1000 3
#47999
0!
#48049
b10101 .
1!
b1001 3
#48099
0!
#48149
b10110 .
1!
b1010 3
#48199
0!
#48249
b10111 .
1!
b1011 3
#48299
0!
#48349
b10 /
1!
b0 3
b11000 .
14
#48399
0!
#48449
b1 3
b11001 .
1!
04
#48499
0!
#48549
b11010 .
1!
b10 3
#48599
0!
#48649
b11011 .
1!
b11 3
#48699
0!
#48749
b11100 .
1!
b100 3
#48799
0!
#48849
b11101 .
1!
b101 3
#48899
0!
#48949
b11110 .
1!
b110 3
#48999
0!
#49049
b11111 .
1!
b111 3
#49099
0!
#49149
b100000 .
1!
b1000 3
#49199
0!
#49249
b100001 .
1!
b1001 3
#49299
0!
#49349
b100010 .
1!
b1010 3
#49399
0!
#49449
b100011 .
1!
b1011 3
#49499
0!
#49549
b11 /
1!
b0 3
b100100 .
14
#49599
0!
#49649
b1 3
b100101 .
1!
04
#49699
0!
#49749
b100110 .
1!
b10 3
#49799
0!
#49849
b100111 .
1!
b11 3
#49899
0!
#49949
b101000 .
1!
b100 3
#49999
0!
#50046
11
#50049
10
b101001 .
1!
b101 3
#50099
0!
#50149
12
1%
1!
b110 3
b101010 .
1$
#50199
0!
#50249
1(
0%
1!
b111 3
1#
b101011 .
#50299
0!
#50349
0(
b0 /
1!
b0 3
b0 .
#50399
0!
#50449
b1 .
1!
b1 3
#50499
0!
#50549
b10 .
1!
b10 3
#50599
0!
#50649
b11 .
1!
b11 3
#50699
0!
#50749
b100 .
1!
b100 3
#50799
0!
#50849
b101 .
1!
b101 3
#50899
0!
#50949
b110 .
1!
b110 3
#50999
0!
#51049
b111 .
1!
b111 3
#51099
0!
#51149
b1000 .
1!
b1000 3
#51199
0!
#51249
b1001 .
1!
b1001 3
#51299
0!
#51349
b1010 .
1!
b1010 3
#51399
0!
#51449
b1011 .
1!
b1011 3
#51499
0!
#51549
b1 /
1!
b0 3
b1100 .
14
#51599
0!
#51649
b1 3
b1101 .
1!
04
#51699
0!
#51749
b1110 .
1!
b10 3
#51799
0!
#51849
b1111 .
1!
b11 3
#51899
0!
#51949
b10000 .
1!
b100 3
#51999
0!
#52049
b10001 .
1!
b101 3
#52099
0!
#52149
b10010 .
1!
b110 3
#52199
0!
#52249
b10011 .
1!
b111 3
#52299
0!
#52349
b10100 .
1!
b1000 3
#52399
0!
#52449
b10101 .
1!
b1001 3
#52499
0!
#52549
b10110 .
1!
b1010 3
#52599
0!
#52649
b10111 .
1!
b1011 3
#52699
0!
#52749
b10 /
1!
b0 3
b11000 .
14
#52799
0!
#52849
b1 3
b11001 .
1!
04
#52899
0!
#52949
b11010 .
1!
b10 3
#52999
0!
#53049
b11011 .
1!
b11 3
#53099
0!
#53149
b11100 .
1!
b100 3
#53199
0!
#53249
b11101 .
1!
b101 3
#53299
0!
#53349
b11110 .
1!
b110 3
#53399
0!
#53449
b11111 .
1!
b111 3
#53499
0!
#53549
b100000 .
1!
b1000 3
#53599
0!
#53649
b100001 .
1!
b1001 3
#53699
0!
#53749
b100010 .
1!
b1010 3
#53799
0!
#53849
b100011 .
1!
b1011 3
#53899
0!
#53949
b11 /
1!
b0 3
b100100 .
14
#53999
0!
#54049
b1 3
b100101 .
1!
04
#54099
0!
#54149
b100110 .
1!
b10 3
#54199
0!
#54249
b100111 .
1!
b11 3
#54299
0!
