receiver-smoke-test.vcd
$comment Generated by nMigen $end
$date 2020-12-24 09:35:16.191715 $end
$timescale 100 ps $end
$scope module top $end
$var wire 1 ! clk_in $end
$var wire 1 " rst $end
$var wire 1 # clk_in$1 $end
$var wire 1 $ adat_in $end
$var wire 1 % adat_in$1 $end
$var wire 1 & got_sync $end
$var wire 32 ' bit_length_out $end
$var wire 1 ( last_adat_in $end
$var wire 10 ) bit_time_counter $end
$var wire 1 * bit_time_counter_enable $end
$var wire 10 + bit_time $end
$var string 1 , fsm_state $end
$var wire 1 - rst_in $end
$var wire 1 . read_user_data $end
$var wire 3 / addr_out $end
$var wire 3 0 active_channel $end
$var wire 3 1 nibble_bitcounter $end
$var wire 1 2 enable_in $end
$var wire 1 3 bit_in $end
$var wire 4 4 user_data_out $end
$var wire 3 5 num_nibbles_counter_prev $end
$var wire 3 6 num_nibbles_counter $end
$var wire 24 7 sample_out $end
$var wire 1 8 output_enable $end
$var wire 1 9 bit_in$1 $end
$var wire 1 : enable_in$1 $end
$var wire 4 ; value_out $end
$var wire 24 < value_out$1 $end
$scope module U$1 $end
$var wire 1 ! clk_in $end
$var wire 1 " rst $end
$var wire 1 9 bit_in $end
$var wire 1 : enable_in $end
$var wire 24 < value_out $end
$upscope $end
$scope module U$2 $end
$var wire 1 ! clk_in $end
$var wire 1 " rst $end
$var wire 1 2 enable_in $end
$var wire 1 3 bit_in $end
$var wire 4 ; value_out $end
$upscope $end
$scope module sync_time_detector $end
$var wire 1 ! clk_in $end
$var wire 1 " rst $end
$var wire 1 $ adat_in $end
$var wire 32 ' bit_length_out $end
$var wire 1 - rst_in $end
$var wire 32 = max_sync_counter $end
$var wire 32 > last_max $end
$var wire 1 ? got_sync_frame $end
$var wire 1 @ last_got_sync_frame $end
$var wire 1 A rst_in$1 $end
$var wire 1 B active_in $end
$var wire 1 C got_sync_frame_pulse $end
$var wire 32 D counter_out $end
$var wire 32 E divided_counter_out $end
$scope module sync_counter $end
$var wire 1 ! clk_in $end
$var wire 1 " rst $end
$var wire 1 A rst_in $end
$var wire 1 B active_in $end
$var wire 32 D counter_out $end
$var wire 32 E divided_counter_out $end
$var wire 4 F dividing_cycle_counter $end
$var wire 1 G dividable_out $end
$upscope $end
$upscope $end
$upscope $end
$enddefinitions $end
#0
$dumpvars
0!
0"
0#
0$
0%
0&
b0 '
0(
b0 )
0*
b0 +
sFRAME_SYNC/0 ,
0-
0.
b0 /
b0 0
b0 1
02
03
b0 4
b0 5
b0 6
b0 7
08
09
0:
b0 ;
b0 <
b0 =
b0 >
0?
0@
0A
1B
0C
b0 D
b0 E
b0 F
0G
$end
#41
b1 D
1!
b1 F
#83
0!
#125
b10 D
b1 =
1!
b10 F
#166
0!
#208
b11 D
b10 =
1!
b11 F
#250
0!
#291
b100 D
b11 =
1!
b100 F
#333
0!
#375
b101 D
b100 =
1!
b101 F
#416
0!
#458
b110 D
b101 =
1!
b110 F
#499
0!
#541
b111 D
b110 =
1!
b111 F
#583
0!
#624
b1000 D
b111 =
1!
b1000 F
#666
0!
#708
b1001 D
b1000 =
1!
b1001 F
#750
0!
#791
b1010 D
b1 E
1G
b1001 =
1!
b0 F
#833
0!
#875
b1011 D
0G
b1010 =
1!
b1 F
#916
0!
#958
b1100 D
b1011 =
1!
b10 F
#1000
0!
#1041
b1101 D
b1100 =
1!
b11 F
#1083
0!
#1125
b1110 D
b1101 =
1!
b100 F
#1166
0!
#1208
b1111 D
b1110 =
1!
b101 F
#1220
1$
1%
0!
0B
#1250
b1110 >
1!
1(
1A
#1291
0!
#1333
b0 D
b0 E
1!
b0 F
#1375
0!
#1416
1!
#1458
0!
#1500
1!
#1541
0!
#1583
1!
#1625
0!
#1666
1!
#1708
0!
#1750
1!
#1791
0!
#1833
1!
#1875
0!
#1916
1!
#1958
0!
#2000
1!
#2034
0$
0%
0!
1B
#2041
0A
1!
0(
#2083
0!
#2125
b1 D
1!
b1 F
#2166
0!
#2208
b10 D
1!
b10 F
#2250
0!
#2291
b11 D
1!
b11 F
#2333
0!
#2375
b100 D
1!
b100 F
#2416
0!
#2458
b101 D
1!
b101 F
#2500
0!
#2541
b110 D
1!
b110 F
#2583
0!
#2625
b111 D
1!
b111 F
#2666
0!
#2708
b1000 D
1!
b1000 F
#2749
0!
#2791
b1001 D
1!
b1001 F
#2833
0!
#2874
b1010 D
b1 E
1G
1!
b0 F
#2916
0!
#2958
b1011 D
0G
1!
b1 F
#2999
0!
#3041
b1100 D
1!
b10 F
#3083
0!
#3124
b1101 D
1!
b11 F
#3166
0!
#3208
b1110 D
1!
b100 F
#3249
0!
#3291
b1111 D
1!
b101 F
#3333
0!
#3374
b10000 D
b1111 =
1!
b110 F
#3416
0!
#3458
b10001 D
b10000 =
1!
b111 F
#3499
0!
#3541
b10010 D
b10001 =
1!
b1000 F
#3583
0!
#3624
b10011 D
b10010 =
1!
b1001 F
#3666
0!
#3708
b10100 D
b10 E
1G
b10011 =
1!
b0 F
#3749
0!
#3791
b10101 D
0G
b10100 =
1!
b1 F
#3833
0!
#3874
b10110 D
b10101 =
1!
b10 F
#3916
0!
#3958
b10111 D
b10110 =
1!
b11 F
#3999
0!
#4041
b11000 D
b10111 =
1!
b100 F
#4083
0!
#4124
b11001 D
b11000 =
1!
b101 F
#4166
0!
#4208
b11010 D
b11001 =
1!
b110 F
#4249
0!
#4291
b11011 D
b11010 =
1!
b111 F
#4333
0!
#4374
b11100 D
b11011 =
1!
b1000 F
#4416
0!
#4458
b11101 D
b11100 =
1!
b1001 F
#4499
0!
#4541
b11110 D
b11 E
1G
b11101 =
1!
b0 F
#4583
0!
#4624
b11111 D
0G
b11110 =
1!
b1 F
#4666
0!
#4708
b100000 D
b11111 =
1!
b10 F
#4749
0!
#4791
b100001 D
b100000 =
1!
b11 F
#4833
0!
#4874
b100010 D
b100001 =
1!
b100 F
#4916
0!
#4958
b100011 D
b100010 =
1!
b101 F
#4999
0!
#5041
b100100 D
b100011 =
1!
b110 F
#5083
0!
#5124
b100101 D
b100100 =
1!
b111 F
#5166
0!
#5208
b100110 D
b100101 =
1!
b1000 F
#5249
0!
#5289
1$
1%
0B
#5291
b100101 >
1!
1(
1A
#5333
0!
#5374
b0 D
b0 E
1!
b0 F
#5416
0!
#5458
1!
#5499
0!
#5541
1!
#5583
0!
#5624
1!
#5666
0!
#5708
1!
#5749
0!
#5791
1!
#5833
0!
#5874
1!
#5916
0!
#5958
1!
#5999
0!
#6041
1!
#6083
0!
#6103
0$
0%
1B
#6124
0A
1!
0(
#6166
0!
#6208
b1 D
1!
b1 F
#6249
0!
#6291
b10 D
1!
b10 F
#6333
0!
#6375
b11 D
1!
b11 F
#6416
0!
#6458
b100 D
1!
b100 F
#6500
0!
#6541
b101 D
1!
b101 F
#6583
0!
#6625
b110 D
1!
b110 F
#6666
0!
#6708
b111 D
1!
b111 F
#6750
0!
#6791
b1000 D
1!
b1000 F
#6833
0!
#6875
b1001 D
1!
b1001 F
#6916
0!
#6958
b1010 D
b1 E
1G
1!
b0 F
#7000
0!
#7041
b1011 D
0G
1!
b1 F
#7083
0!
#7125
b1100 D
1!
b10 F
#7166
0!
#7208
b1101 D
1!
b11 F
#7250
0!
#7291
b1110 D
1!
b100 F
#7333
0!
#7375
b1111 D
1!
b101 F
#7416
0!
#7458
b10000 D
1!
b110 F
#7500
0!
#7541
b10001 D
1!
b111 F
#7583
0!
#7625
b10010 D
1!
b1000 F
#7666
0!
#7708
b10011 D
1!
b1001 F
#7750
0!
#7791
b10100 D
b10 E
1G
1!
b0 F
#7833
0!
#7875
b10101 D
0G
1!
b1 F
#7916
0!
#7958
b10110 D
1!
b10 F
#8000
0!
#8041
b10111 D
1!
b11 F
#8083
0!
#8125
b11000 D
1!
b100 F
#8166
0!
#8208
b11001 D
1!
b101 F
#8250
0!
#8291
b11010 D
1!
b110 F
#8333
0!
#8375
b11011 D
1!
b111 F
#8416
0!
#8458
b11100 D
1!
b1000 F
#8500
0!
#8541
b11101 D
1!
b1001 F
#8583
0!
#8625
b11110 D
b11 E
1G
1!
b0 F
#8666
0!
#8708
b11111 D
0G
1!
b1 F
#8750
0!
#8791
b100000 D
1!
b10 F
#8833
0!
#8875
b100001 D
1!
b11 F
#8916
0!
#8958
b100010 D
1!
b100 F
#9000
0!
#9041
b100011 D
1!
b101 F
#9083
0!
#9125
b100100 D
1!
b110 F
#9166
0!
#9208
b100101 D
1!
b111 F
#9250
0!
#9291
b100110 D
1!
b1000 F
#9333
0!
#9358
1$
1%
0B
#9375
1A
1!
1(
#9416
0!
#9458
b0 D
b0 E
1!
b0 F
#9500
0!
#9541
1!
#9583
0!
#9625
1!
#9666
0!
#9708
1!
#9750
0!
#9791
1!
#9833
0!
#9875
1!
#9916
0!
#9958
1!
#10000
0!
#10041
1!
#10083
0!
#10125
1!
#10166
0!
#10172
0$
0%
1B
#10208
0A
1!
0(
#10250
0!
#10291
b1 D
1!
b1 F
#10333
0!
#10375
b10 D
1!
b10 F
#10416
0!
#10458
b11 D
1!
b11 F
#10500
0!
#10541
b100 D
1!
b100 F
#10583
0!
#10625
b101 D
1!
b101 F
#10666
0!
#10708
b110 D
1!
b110 F
#10750
0!
#10791
b111 D
1!
b111 F
#10833
0!
#10875
b1000 D
1!
b1000 F
#10916
0!
#10958
b1001 D
1!
b1001 F
#11000
0!
#11041
b1010 D
b1 E
1G
1!
b0 F
#11083
0!
#11125
b1011 D
0G
1!
b1 F
#11166
0!
#11208
b1100 D
1!
b10 F
#11250
0!
#11291
b1101 D
1!
b11 F
#11333
0!
#11375
b1110 D
1!
b100 F
#11416
0!
#11458
b1111 D
1!
b101 F
#11500
0!
#11541
b10000 D
1!
b110 F
#11583
0!
#11625
b10001 D
1!
b111 F
#11666
0!
#11708
b10010 D
1!
b1000 F
#11750
0!
#11791
b10011 D
1!
b1001 F
#11833
0!
#11875
b10100 D
b10 E
1G
1!
b0 F
#11916
0!
#11958
b10101 D
0G
1!
b1 F
#12000
0!
#12041
b10110 D
1!
b10 F
#12083
0!
#12125
b10111 D
1!
b11 F
#12166
0!
#12208
b11000 D
1!
b100 F
#12250
0!
#12291
b11001 D
1!
b101 F
#12333
0!
#12375
b11010 D
1!
b110 F
#12416
0!
#12458
b11011 D
1!
b111 F
#12500
0!
#12541
b11100 D
1!
b1000 F
#12583
0!
#12625
b11101 D
1!
b1001 F
#12666
0!
#12708
b11110 D
b11 E
1G
1!
b0 F
#12750
0!
#12791
b11111 D
0G
1!
b1 F
#12833
0!
#12875
b100000 D
1!
b10 F
#12916
0!
#12958
b100001 D
1!
b11 F
#13000
0!
#13041
b100010 D
1!
b100 F
#13083
0!
#13125
b100011 D
1!
b101 F
#13166
0!
#13208
b100100 D
1!
b110 F
#13250
0!
#13291
b100101 D
1!
b111 F
#13333
0!
#13375
b100110 D
1!
b1000 F
#13416
0!
#13427
1$
1%
0B
#13458
1A
1!
1(
#13500
0!
#13541
b0 D
b0 E
1!
b0 F
#13583
0!
#13625
1!
#13666
0!
#13708
1!
#13750
0!
#13791
1!
#13833
0!
#13875
1!
#13916
0!
#13958
1!
#14000
0!
#14041
1!
#14083
0!
#14125
1!
#14166
0!
#14208
1!
#14241
0$
0%
0!
1B
#14250
0A
1!
0(
#14291
0!
#14333
b1 D
1!
b1 F
#14375
0!
#14416
b10 D
1!
b10 F
#14458
0!
#14500
b11 D
1!
b11 F
#14541
0!
#14583
b100 D
1!
b100 F
#14625
0!
#14666
b101 D
1!
b101 F
#14708
0!
#14750
b110 D
1!
b110 F
#14791
0!
#14833
b111 D
1!
b111 F
#14875
0!
#14916
b1000 D
1!
b1000 F
#14958
0!
#15000
b1001 D
1!
b1001 F
#15041
0!
#15083
b1010 D
b1 E
1G
1!
b0 F
#15125
0!
#15166
b1011 D
0G
1!
b1 F
#15208
0!
#15250
b1100 D
1!
b10 F
#15291
0!
#15333
b1101 D
1!
b11 F
#15375
0!
#15416
b1110 D
1!
b100 F
#15458
0!
#15500
b1111 D
1!
b101 F
#15541
0!
#15583
b10000 D
1!
b110 F
#15625
0!
#15666
b10001 D
1!
b111 F
#15708
0!
#15750
b10010 D
1!
b1000 F
#15791
0!
#15833
b10011 D
1!
b1001 F
#15875
0!
#15916
b10100 D
b10 E
1G
1!
b0 F
#15958
0!
#16000
b10101 D
0G
1!
b1 F
#16041
0!
#16083
b10110 D
1!
b10 F
#16125
0!
#16166
b10111 D
1!
b11 F
#16208
0!
#16250
b11000 D
1!
b100 F
#16291
0!
#16333
b11001 D
1!
b101 F
#16375
0!
#16416
b11010 D
1!
b110 F
#16458
0!
#16500
b11011 D
1!
b111 F
#16541
0!
#16583
b11100 D
1!
b1000 F
#16625
0!
#16666
b11101 D
1!
b1001 F
#16708
0!
#16750
b11110 D
b11 E
1G
1!
b0 F
#16791
0!
#16833
b11111 D
0G
1!
b1 F
#16875
0!
#16916
b100000 D
1!
b10 F
#16958
0!
#17000
b100001 D
1!
b11 F
#17041
0!
#17083
b100010 D
1!
b100 F
#17125
0!
#17166
b100011 D
1!
b101 F
#17208
0!
#17250
b100100 D
1!
b110 F
#17291
0!
#17333
b100101 D
1!
b111 F
#17375
0!
#17416
b100110 D
1!
b1000 F
#17458
0!
#17500
b100111 D
b100110 =
1!
b1001 F
#17541
0!
#17583
b101000 D
b100 E
1G
b100111 =
1!
b0 F
#17625
0!
#17666
b101001 D
0G
b101000 =
1!
b1 F
#17708
0!
#17750
b101010 D
b101001 =
1!
b10 F
#17791
0!
#17833
b101011 D
b101010 =
1!
b11 F
#17875
0!
#17916
b101100 D
b101011 =
1!
b100 F
#17958
0!
#18000
b101101 D
b101100 =
1!
b101 F
#18041
0!
#18083
b101110 D
b101101 =
1!
b110 F
#18125
0!
#18166
b101111 D
b101110 =
1!
b111 F
#18208
0!
#18250
b110000 D
b101111 =
1!
b1000 F
#18291
0!
#18333
b110001 D
b110000 =
1!
b1001 F
#18375
0!
#18416
b110010 D
b101 E
1G
b110001 =
1!
b0 F
#18458
0!
#18500
b110011 D
0G
b110010 =
1!
b1 F
#18541
0!
#18583
b110100 D
b110011 =
1!
b10 F
#18625
0!
#18666
b110101 D
b110100 =
1!
b11 F
#18708
0!
#18750
b110110 D
b110101 =
1!
b100 F
#18791
0!
#18833
b110111 D
b110110 =
1!
b101 F
#18875
0!
#18916
b111000 D
b110111 =
1!
b110 F
#18958
0!
#19000
b111001 D
b111000 =
1!
b111 F
#19041
0!
#19083
b111010 D
b111001 =
1!
b1000 F
#19125
0!
#19166
b111011 D
b111010 =
1!
b1001 F
#19208
0!
#19250
b111100 D
b110 E
1G
b111011 =
1!
b0 F
#19291
0!
#19333
b111101 D
0G
b111100 =
1!
b1 F
#19375
0!
#19416
b111110 D
b111101 =
1!
b10 F
#19458
0!
#19500
b111111 D
b111110 =
1!
b11 F
#19541
0!
#19583
b1000000 D
b111111 =
1!
b100 F
#19625
0!
#19666
b1000001 D
b1000000 =
1!
b101 F
#19708
0!
#19750
b1000010 D
b1000001 =
1!
b110 F
#19791
0!
#19833
b1000011 D
b1000010 =
1!
b111 F
#19875
0!
#19916
b1000100 D
b1000011 =
1!
b1000 F
#19958
0!
#20000
b1000101 D
b1000100 =
1!
b1001 F
#20041
0!
#20083
b1000110 D
b111 E
1G
b1000101 =
1!
b0 F
#20125
0!
#20166
b1000111 D
0G
b1000110 =
1!
b1 F
#20208
0!
#20250
b1001000 D
b1000111 =
1!
b10 F
#20291
0!
#20333
b1001001 D
b1001000 =
1!
b11 F
#20375
0!
#20416
b1001010 D
b1001001 =
1!
b100 F
#20458
0!
#20500
b1001011 D
b1001010 =
1!
b101 F
#20541
0!
#20583
b1001100 D
b1001011 =
1!
b110 F
#20625
0!
#20666
b1001101 D
b1001100 =
1!
b111 F
#20708
0!
#20750
b1001110 D
b1001101 =
1!
b1000 F
#20791
0!
#20833
b1001111 D
b1001110 =
1!
b1001 F
#20875
0!
#20916
b1010000 D
b1000 E
1G
b1001111 =
1!
b0 F
#20958
0!
#21000
b1010001 D
0G
b1010000 =
1!
b1 F
#21041
0!
#21083
b1010010 D
b1010001 =
1!
b10 F
#21125
0!
#21166
b1010011 D
b1010010 =
1!
b11 F
#21208
0!
#21250
b1010100 D
b1010011 =
1!
b100 F
#21291
0!
#21333
b1010101 D
b1010100 =
1!
b101 F
#21374
0!
#21416
b1010110 D
b1010101 =
1!
b110 F
#21458
0!
#21499
b1010111 D
b1010110 =
1!
b111 F
#21541
0!
#21583
b1011000 D
b1010111 =
1!
b1000 F
#21624
0!
#21666
b1011001 D
b1011000 =
1!
b1001 F
#21708
0!
#21749
b1011010 D
b1001 E
1G
b1011001 =
1!
b0 F
#21791
0!
#21833
b1011011 D
0G
b1011010 =
1!
b1 F
#21874
0!
#21916
b1011100 D
b1011011 =
1!
b10 F
#21958
0!
#21999
b1011101 D
b1011100 =
1!
b11 F
#22041
0!
#22083
b1011110 D
b1011101 =
1!
b100 F
#22124
0!
#22166
b1011111 D
b1011110 =
1!
b101 F
#22208
0!
#22249
b1100000 D
b1011111 =
1!
b110 F
#22291
0!
#22333
b1100001 D
b1100000 =
1!
b111 F
#22374
0!
#22379
1$
1%
0B
#22416
b1100000 >
1C
1(
1A
1?
1!
#22458
0!
#22499
b1001 '
b0 F
b0 D
b0 E
1&
0C
1@
#22541
b11 )
sFRAME/1 ,
1!
b1001 +
#22583
0!
#22624
1.
sSYNC_BIT/3 ,
1!
1*
#22666
0!
#22708
1!
b100 )
#22749
0!
#22791
1!
b101 )
#22833
0!
#22874
1!
b110 )
#22916
0!
#22958
0.
sUSER_DATA/4 ,
1!
b111 )
b111 1
#22999
0!
#23041
1!
b1000 )
#23083
0!
#23124
1!
b1001 )
#23166
0!
#23193
0$
0%
1B
#23208
0A
1!
b0 )
0(
#23249
0!
#23291
b1 D
1!
b1 )
b1 F
#23333
0!
#23374
b10 D
1!
b10 )
b10 F
#23416
0!
#23458
b11 D
1!
b11 )
b11 F
#23499
0!
#23541
b100 D
1!
b100 )
b100 F
#23583
0!
#23624
b101 D
12
1!
b101 )
b0 1
b101 F
#23666
0!
#23708
b110 D
02
1!
b110 )
b110 F
#23749
0!
#23791
b111 D
1!
b111 )
b111 F
#23833
0!
#23874
b1000 D
1!
b1000 )
b1000 F
#23916
0!
#23958
b1001 D
1!
b1001 )
b1001 F
#23999
0!
#24041
b1010 D
b1 E
1G
1!
b0 )
b0 F
#24083
0!
#24124
b1011 D
0G
1!
b1 )
b1 F
#24166
0!
#24208
b1100 D
1!
b10 )
b10 F
#24249
0!
#24291
b1101 D
1!
b11 )
b11 F
#24333
0!
#24374
b1110 D
1!
b100 )
b100 F
#24416
0!
#24458
b1111 D
12
1!
b101 )
b1 1
b101 F
#24499
0!
#24541
b10000 D
02
1!
b110 )
b110 F
#24583
0!
#24624
b10001 D
1!
b111 )
b111 F
#24666
0!
#24708
b10010 D
1!
b1000 )
b1000 F
#24749
0!
#24791
b10011 D
1!
b1001 )
b1001 F
#24833
0!
#24874
b10100 D
b10 E
1G
1!
b0 )
b0 F
#24916
0!
#24958
b10101 D
0G
1!
b1 )
b1 F
#24999
0!
#25041
b10110 D
1!
b10 )
b10 F
#25083
0!
#25124
b10111 D
1!
b11 )
b11 F
#25166
0!
#25208
b11000 D
1!
b100 )
b100 F
#25249
0!
#25291
b11001 D
12
1!
b101 )
b10 1
b101 F
#25333
0!
#25374
b11010 D
02
1!
b110 )
b110 F
#25416
0!
#25458
b11011 D
1!
b111 )
b111 F
#25499
0!
#25541
b11100 D
1!
b1000 )
b1000 F
#25583
0!
#25624
b11101 D
1!
b1001 )
b1001 F
#25666
0!
#25708
b11110 D
b11 E
1G
1!
b0 )
b0 F
#25749
0!
#25791
b11111 D
0G
1!
b1 )
b1 F
#25833
0!
#25874
b100000 D
1!
b10 )
b10 F
#25916
0!
#25958
b100001 D
1!
b11 )
b11 F
#25999
0!
#26041
b100010 D
1!
b100 )
b100 F
#26083
0!
#26124
b100011 D
12
1!
b101 )
b11 1
b101 F
#26166
0!
#26208
b100100 D
02
1!
b110 )
b110 F
#26249
0!
#26291
b100101 D
1!
b111 )
b111 F
#26333
0!
#26374
b100110 D
1!
b1000 )
b1000 F
#26416
0!
#26448
1$
1%
0B
#26458
sSYNC_BIT/3 ,
1(
1A
1!
b0 )
#26499
0!
#26541
b0 D
b0 E
1!
b1 )
b0 F
#26583
0!
#26624
1!
b10 )
#26666
0!
#26708
1!
b11 )
#26749
0!
#26791
1!
b100 )
#26833
0!
#26874
1!
b101 )
#26916
0!
#26958
1!
b110 )
#26999
0!
#27041
sDATA_NIBBLE/5 ,
1!
b111 )
b111 1
#27083
0!
#27124
1!
b1000 )
#27166
0!
#27208
1!
b1001 )
#27249
0!
#27262
0$
0%
1B
#27291
0A
1!
b0 )
0(
#27333
0!
#27374
b1 D
1!
b1 )
b1 F
#27416
0!
#27458
b10 D
1!
b10 )
b10 F
#27499
0!
#27541
b11 D
1!
b11 )
b11 F
#27583
0!
#27624
b100 D
1!
b100 )
b100 F
#27666
0!
#27708
b101 D
1:
1!
b101 )
b0 1
b101 F
#27749
0!
#27791
b110 D
0:
1!
b110 )
b110 F
#27833
0!
#27874
b111 D
1!
b111 )
b111 F
#27916
0!
#27958
b1000 D
1!
b1000 )
b1000 F
#27999
0!
#28041
b1001 D
1!
b1001 )
b1001 F
#28083
0!
#28124
b1010 D
b1 E
1G
1!
b0 )
b0 F
#28166
0!
#28208
b1011 D
0G
1!
b1 )
b1 F
#28249
0!
#28291
b1100 D
1!
b10 )
b10 F
#28333
0!
#28374
b1101 D
1!
b11 )
b11 F
#28416
0!
#28458
b1110 D
1!
b100 )
b100 F
#28499
0!
#28541
b1111 D
1:
1!
b101 )
b1 1
b101 F
#28583
0!
#28624
b10000 D
0:
1!
b110 )
b110 F
#28666
0!
#28708
b10001 D
1!
b111 )
b111 F
#28749
0!
#28791
b10010 D
1!
b1000 )
b1000 F
#28833
0!
#28874
b10011 D
1!
b1001 )
b1001 F
#28916
0!
#28958
b10100 D
b10 E
1G
1!
b0 )
b0 F
#28999
0!
#29041
b10101 D
0G
1!
b1 )
b1 F
#29083
0!
#29124
b10110 D
1!
b10 )
b10 F
#29166
0!
#29208
b10111 D
1!
b11 )
b11 F
#29249
0!
#29291
b11000 D
1!
b100 )
b100 F
#29333
0!
#29374
b11001 D
1:
1!
b101 )
b10 1
b101 F
#29416
0!
#29458
b11010 D
0:
1!
b110 )
b110 F
#29499
0!
#29541
b11011 D
1!
b111 )
b111 F
#29583
0!
#29624
b11100 D
1!
b1000 )
b1000 F
#29666
0!
#29708
b11101 D
1!
b1001 )
b1001 F
#29749
0!
#29791
b11110 D
b11 E
1G
1!
b0 )
b0 F
#29833
0!
#29874
b11111 D
0G
1!
b1 )
b1 F
#29916
0!
#29958
b100000 D
1!
b10 )
b10 F
#29999
0!
#30041
b100001 D
1!
b11 )
b11 F
#30083
0!
#30124
b100010 D
1!
b100 )
b100 F
#30166
0!
#30208
b100011 D
1:
1!
b101 )
b11 1
b101 F
#30249
0!
#30291
b100100 D
0:
1!
b110 )
b110 F
#30333
0!
#30374
b100101 D
1!
b111 )
b111 F
#30416
0!
#30458
b100110 D
1!
b1000 )
b1000 F
#30499
0!
#30517
1$
1%
0B
#30541
1A
1!
b0 )
1(
#30583
0!
#30624
b0 D
b0 E
1!
b1 )
b0 F
#30666
0!
#30708
1!
b10 )
#30749
0!
#30791
1!
b11 )
#30833
0!
#30874
1!
b100 )
#30916
0!
#30958
1!
b101 )
b100 1
19
#30999
0!
#31041
b1 6
sSYNC_BIT/3 ,
1!
b110 )
#31083
0!
#31124
sDATA_NIBBLE/5 ,
1!
b111 )
b111 1
#31166
0!
#31208
1!
b1000 )
#31249
0!
#31291
1!
b1001 )
#31331
0$
0%
0!
1B
#31333
0A
1!
b0 )
0(
#31374
0!
#31416
b1 D
1!
b1 )
b1 F
#31458
0!
#31499
b10 D
1!
b10 )
b10 F
#31541
0!
#31583
b11 D
1!
b11 )
b11 F
#31624
0!
#31666
b100 D
1!
b100 )
b100 F
#31708
0!
#31749
b101 D
09
b101 F
1:
1!
b101 )
b0 1
#31791
0!
#31833
b110 D
0:
1!
b110 )
b110 F
#31874
0!
#31916
b111 D
1!
b111 )
b111 F
#31958
0!
#31999
b1000 D
1!
b1000 )
b1000 F
#32041
0!
#32083
b1001 D
1!
b1001 )
b1001 F
#32124
0!
#32166
b1010 D
b1 E
1G
1!
b0 )
b0 F
#32208
0!
#32249
b1011 D
0G
1!
b1 )
b1 F
#32291
0!
#32333
b1100 D
1!
b10 )
b10 F
#32374
0!
#32416
b1101 D
1!
b11 )
b11 F
#32458
0!
#32499
b1110 D
1!
b100 )
b100 F
#32541
0!
#32583
b1111 D
1:
1!
b101 )
b1 1
b101 F
#32624
0!
#32666
b10000 D
0:
1!
b110 )
b110 F
#32708
0!
#32749
b10001 D
1!
b111 )
b111 F
#32791
0!
#32833
b10010 D
1!
b1000 )
b1000 F
#32874
0!
#32916
b10011 D
1!
b1001 )
b1001 F
#32958
0!
#32999
b10100 D
b10 E
1G
1!
b0 )
b0 F
#33041
0!
#33083
b10101 D
0G
1!
b1 )
b1 F
#33124
0!
#33166
b10110 D
1!
b10 )
b10 F
#33208
0!
#33249
b10111 D
1!
b11 )
b11 F
#33291
0!
#33333
b11000 D
1!
b100 )
b100 F
#33374
0!
#33416
b11001 D
1:
1!
b101 )
b10 1
b101 F
#33458
0!
#33499
b11010 D
0:
1!
b110 )
b110 F
#33541
0!
#33583
b11011 D
1!
b111 )
b111 F
#33624
0!
#33666
b11100 D
1!
b1000 )
b1000 F
#33708
0!
#33749
b11101 D
1!
b1001 )
b1001 F
#33791
0!
#33833
b11110 D
b11 E
1G
1!
b0 )
b0 F
#33874
0!
#33916
b11111 D
0G
1!
b1 )
b1 F
#33958
0!
#33999
b100000 D
1!
b10 )
b10 F
#34041
0!
#34083
b100001 D
1!
b11 )
b11 F
#34124
0!
#34166
b100010 D
1!
b100 )
b100 F
#34208
0!
#34249
b100011 D
1:
1!
b101 )
b11 1
b101 F
#34291
0!
#34333
b100100 D
0:
1!
b110 )
b110 F
#34374
0!
#34416
b100101 D
1!
b111 )
b111 F
#34458
0!
#34499
b100110 D
1!
b1000 )
b1000 F
#34541
0!
#34583
b100111 D
1!
b1001 )
b1001 F
#34586
1$
1%
0!
0B
#34624
1A
1!
b0 )
1(
#34666
0!
#34708
b0 D
b0 E
1!
b1 )
b0 F
#34749
0!
#34791
1!
b10 )
#34833
0!
#34874
1!
b11 )
#34916
0!
#34958
1!
b100 )
#34999
0!
#35041
1!
b101 )
b100 1
19
#35083
0!
#35124
b10 6
sSYNC_BIT/3 ,
b1 5
1!
b110 )
#35166
0!
#35208
sDATA_NIBBLE/5 ,
1!
b111 )
b111 1
#35249
0!
#35291
1!
b1000 )
#35333
0!
#35374
1!
b1001 )
#35400
0$
0%
0!
1B
#35416
0A
1!
b0 )
0(
#35458
0!
#35499
b1 D
1!
b1 )
b1 F
#35541
0!
#35583
b10 D
1!
b10 )
b10 F
#35624
0!
#35666
b11 D
1!
b11 )
b11 F
#35708
0!
#35749
b100 D
1!
b100 )
b100 F
#35791
0!
#35833
b101 D
09
b101 F
1:
1!
b101 )
b0 1
#35874
0!
#35916
b110 D
0:
1!
b110 )
b110 F
#35958
0!
#35999
b111 D
1!
b111 )
b111 F
#36041
0!
#36083
b1000 D
1!
b1000 )
b1000 F
#36124
0!
#36166
b1001 D
1!
b1001 )
b1001 F
#36208
0!
#36249
b1010 D
b1 E
1G
1!
b0 )
b0 F
#36291
0!
#36333
b1011 D
0G
1!
b1 )
b1 F
#36374
0!
#36416
b1100 D
1!
b10 )
b10 F
#36458
0!
#36499
b1101 D
1!
b11 )
b11 F
#36541
0!
#36583
b1110 D
1!
b100 )
b100 F
#36624
0!
#36666
b1111 D
1:
1!
b101 )
b1 1
b101 F
#36708
0!
#36749
b10000 D
0:
1!
b110 )
b110 F
#36791
0!
#36833
b10001 D
1!
b111 )
b111 F
#36874
0!
#36916
b10010 D
1!
b1000 )
b1000 F
#36958
0!
#36999
b10011 D
1!
b1001 )
b1001 F
#37041
0!
#37083
b10100 D
b10 E
1G
1!
b0 )
b0 F
#37124
0!
#37166
b10101 D
0G
1!
b1 )
b1 F
#37208
0!
#37249
b10110 D
1!
b10 )
b10 F
#37291
0!
#37333
b10111 D
1!
b11 )
b11 F
#37374
0!
#37416
b11000 D
1!
b100 )
b100 F
#37458
0!
#37499
b11001 D
1:
1!
b101 )
b10 1
b101 F
#37541
0!
#37583
b11010 D
0:
1!
b110 )
b110 F
#37624
0!
#37666
b11011 D
1!
b111 )
b111 F
#37708
0!
#37749
b11100 D
1!
b1000 )
b1000 F
#37791
0!
#37833
b11101 D
1!
b1001 )
b1001 F
#37874
0!
#37916
b11110 D
b11 E
1G
1!
b0 )
b0 F
#37958
0!
#37999
b11111 D
0G
1!
b1 )
b1 F
#38041
0!
#38083
b100000 D
1!
b10 )
b10 F
#38124
0!
#38166
b100001 D
1!
b11 )
b11 F
#38208
0!
#38249
b100010 D
1!
b100 )
b100 F
#38291
0!
#38333
b100011 D
1:
1!
b101 )
b11 1
b101 F
#38374
0!
#38416
b100100 D
0:
1!
b110 )
b110 F
#38458
0!
#38499
b100101 D
1!
b111 )
b111 F
#38541
0!
#38583
b100110 D
1!
b1000 )
b1000 F
#38624
0!
#38655
1$
1%
0B
#38666
1A
1!
b0 )
1(
#38708
0!
#38749
b0 D
b0 E
1!
b1 )
b0 F
#38791
0!
#38833
1!
b10 )
#38874
0!
#38916
1!
b11 )
#38958
0!
#38999
1!
b100 )
#39041
0!
#39083
1!
b101 )
b100 1
19
#39124
0!
