receiver-smoke-test.vcd
$comment Generated by nMigen $end
$date 2020-12-23 18:42:41.438817 $end
$timescale 100 ps $end
$scope module top $end
$var wire 1 ! clk_in $end
$var wire 1 " rst $end
$var wire 1 # clk_in$1 $end
$var wire 1 $ adat_in $end
$var wire 1 % adat_in$1 $end
$var wire 1 & got_sync $end
$var wire 32 ' bit_length_out $end
$var wire 1 ( last_adat_in $end
$var wire 10 ) bit_time_counter $end
$var wire 1 * bit_time_counter_enable $end
$var wire 10 + bit_time $end
$var string 1 , fsm_state $end
$var wire 1 - read_user_data $end
$var wire 3 . active_channel $end
$var wire 3 / nibble_bitcounter $end
$var wire 1 0 enable_in $end
$var wire 1 1 bit_in $end
$var wire 3 2 user_data_out $end
$var wire 3 3 num_nibbles_counter_prev $end
$var wire 3 4 num_nibbles_counter $end
$var wire 3 5 addr_out $end
$var wire 24 6 sample_out $end
$var wire 1 7 output_enable $end
$var wire 1 8 bit_in$1 $end
$var wire 1 9 enable_in$1 $end
$var wire 4 : value_out $end
$var wire 24 ; value_out$1 $end
$scope module U$1 $end
$var wire 1 ! clk_in $end
$var wire 1 " rst $end
$var wire 1 8 bit_in $end
$var wire 1 9 enable_in $end
$var wire 24 ; value_out $end
$upscope $end
$scope module U$2 $end
$var wire 1 ! clk_in $end
$var wire 1 " rst $end
$var wire 1 0 enable_in $end
$var wire 1 1 bit_in $end
$var wire 4 : value_out $end
$upscope $end
$scope module sync_time_detector $end
$var wire 1 ! clk_in $end
$var wire 1 " rst $end
$var wire 1 $ adat_in $end
$var wire 32 ' bit_length_out $end
$var wire 1 < active_in $end
$var wire 1 = got_sync_frame_pulse $end
$var wire 1 > got_sync_frame $end
$var wire 1 ? last_got_sync_frame $end
$var wire 1 @ rst_in $end
$var wire 32 A max_sync_counter $end
$var wire 32 B last_max $end
$var wire 32 C counter_out $end
$var wire 32 D divided_counter_out $end
$scope module sync_counter $end
$var wire 1 ! clk_in $end
$var wire 1 " rst $end
$var wire 1 < active_in $end
$var wire 1 @ rst_in $end
$var wire 32 C counter_out $end
$var wire 32 D divided_counter_out $end
$var wire 4 E dividing_cycle_counter $end
$var wire 1 F dividable_out $end
$upscope $end
$upscope $end
$upscope $end
$enddefinitions $end
#0
$dumpvars
0!
0"
0#
0$
0%
0&
b0 '
0(
b0 )
0*
b0 +
sSYNC/0 ,
0-
b0 .
b0 /
00
01
b0 2
b0 3
b0 4
b0 5
b0 6
07
08
09
b0 :
b0 ;
1<
0=
0>
0?
0@
b0 A
b0 B
b0 C
b0 D
b0 E
0F
$end
#41
b1 C
b1 E
1!
#83
0!
#125
b1 A
b10 C
b10 E
1!
#166
0!
#208
b10 A
b11 C
b11 E
1!
#250
0!
#291
b11 A
b100 C
b100 E
1!
#333
0!
#375
b100 A
b101 C
b101 E
1!
#416
0!
#458
b101 A
b110 C
b110 E
1!
#499
0!
#541
b110 A
b111 C
b111 E
1!
#583
0!
#624
b111 A
b1000 C
b1000 E
1!
#666
0!
#708
b1000 A
b1001 C
b1001 E
1!
#750
0!
#791
b1 D
b1001 A
b1010 C
1F
b0 E
1!
#833
0!
#875
b1010 A
b1011 C
0F
b1 E
1!
#916
0!
#958
b1011 A
b1100 C
b10 E
1!
#1000
0!
#1041
b1100 A
b1101 C
b11 E
1!
#1083
0!
#1125
b1101 A
b1110 C
b100 E
1!
#1166
0!
#1208
b1110 A
b1111 C
b101 E
1!
#1220
1%
1$
0<
0!
#1250
1@
1(
b1110 B
1!
#1291
0!
#1333
b0 D
b0 C
b0 E
1!
#1375
0!
#1416
1!
#1458
0!
#1500
1!
#1541
0!
#1583
1!
#1625
0!
#1666
1!
#1708
0!
#1750
1!
#1791
0!
#1833
1!
#1875
0!
#1916
1!
#1958
0!
#2000
1!
#2034
0%
0$
1<
0!
#2041
0@
0(
1!
#2083
0!
#2125
b1 C
b1 E
1!
#2166
0!
#2208
b10 C
b10 E
1!
#2250
0!
#2291
b11 C
b11 E
1!
#2333
0!
#2375
b100 C
b100 E
1!
#2416
0!
#2458
b101 C
b101 E
1!
#2500
0!
#2541
b110 C
b110 E
1!
#2583
0!
#2625
b111 C
b111 E
1!
#2666
0!
#2708
b1000 C
b1000 E
1!
#2749
0!
#2791
b1001 C
b1001 E
1!
#2833
0!
#2874
b1 D
b1010 C
1F
b0 E
1!
#2916
0!
#2958
0F
b1011 C
b1 E
1!
#2999
0!
#3041
b1100 C
b10 E
1!
#3083
0!
#3124
b1101 C
b11 E
1!
#3166
0!
#3208
b1110 C
b100 E
1!
#3249
0!
#3291
b1111 C
b101 E
1!
#3333
0!
#3374
b1111 A
b10000 C
b110 E
1!
#3416
0!
#3458
b10000 A
b10001 C
b111 E
1!
#3499
0!
#3541
b10001 A
b10010 C
b1000 E
1!
#3583
0!
#3624
b10010 A
b10011 C
b1001 E
1!
#3666
0!
#3708
b10 D
b10011 A
b10100 C
1F
b0 E
1!
#3749
0!
#3791
b10100 A
b10101 C
0F
b1 E
1!
#3833
0!
#3874
b10101 A
b10110 C
b10 E
1!
#3916
0!
#3958
b10110 A
b10111 C
b11 E
1!
#3999
0!
#4041
b10111 A
b11000 C
b100 E
1!
#4083
0!
#4124
b11000 A
b11001 C
b101 E
1!
#4166
0!
#4208
b11001 A
b11010 C
b110 E
1!
#4249
0!
#4291
b11010 A
b11011 C
b111 E
1!
#4333
0!
#4374
b11011 A
b11100 C
b1000 E
1!
#4416
0!
#4458
b11100 A
b11101 C
b1001 E
1!
#4499
0!
#4541
b11 D
b11101 A
b11110 C
1F
b0 E
1!
#4583
0!
#4624
b11110 A
b11111 C
0F
b1 E
1!
#4666
0!
#4708
b11111 A
b100000 C
b10 E
1!
#4749
0!
#4791
b100000 A
b100001 C
b11 E
1!
#4833
0!
#4874
b100001 A
b100010 C
b100 E
1!
#4916
0!
#4958
b100010 A
b100011 C
b101 E
1!
#4999
0!
#5041
b100011 A
b100100 C
b110 E
1!
#5083
0!
#5124
b100100 A
b100101 C
b111 E
1!
#5166
0!
#5208
b100101 A
b100110 C
b1000 E
1!
#5249
0!
#5289
1%
0<
1$
#5291
1@
1(
b100101 B
1!
#5333
0!
#5374
b0 D
b0 C
b0 E
1!
#5416
0!
#5458
1!
#5499
0!
#5541
1!
#5583
0!
#5624
1!
#5666
0!
#5708
1!
#5749
0!
#5791
1!
#5833
0!
#5874
1!
#5916
0!
#5958
1!
#5999
0!
#6041
1!
#6083
0!
#6103
0%
1<
0$
#6124
0@
0(
1!
#6166
0!
#6208
b1 C
b1 E
1!
#6249
0!
#6291
b10 C
b10 E
1!
#6333
0!
#6375
b11 C
b11 E
1!
#6416
0!
#6458
b100 C
b100 E
1!
#6500
0!
#6541
b101 C
b101 E
1!
#6583
0!
#6625
b110 C
b110 E
1!
#6666
0!
#6708
b111 C
b111 E
1!
#6750
0!
#6791
b1000 C
b1000 E
1!
#6833
0!
#6875
b1001 C
b1001 E
1!
#6916
0!
#6958
b1 D
b1010 C
1F
b0 E
1!
#7000
0!
#7041
0F
b1011 C
b1 E
1!
#7083
0!
#7125
b1100 C
b10 E
1!
#7166
0!
#7208
b1101 C
b11 E
1!
#7250
0!
#7291
b1110 C
b100 E
1!
#7333
0!
#7375
b1111 C
b101 E
1!
#7416
0!
#7458
b10000 C
b110 E
1!
#7500
0!
#7541
b10001 C
b111 E
1!
#7583
0!
#7625
b10010 C
b1000 E
1!
#7666
0!
#7708
b10011 C
b1001 E
1!
#7750
0!
#7791
b10 D
b10100 C
1F
b0 E
1!
#7833
0!
#7875
0F
b10101 C
b1 E
1!
#7916
0!
#7958
b10110 C
b10 E
1!
#8000
0!
#8041
b10111 C
b11 E
1!
#8083
0!
#8125
b11000 C
b100 E
1!
#8166
0!
#8208
b11001 C
b101 E
1!
#8250
0!
#8291
b11010 C
b110 E
1!
#8333
0!
#8375
b11011 C
b111 E
1!
#8416
0!
#8458
b11100 C
b1000 E
1!
#8500
0!
#8541
b11101 C
b1001 E
1!
#8583
0!
#8625
b11 D
b11110 C
1F
b0 E
1!
#8666
0!
#8708
0F
b11111 C
b1 E
1!
#8750
0!
#8791
b100000 C
b10 E
1!
#8833
0!
#8875
b100001 C
b11 E
1!
#8916
0!
#8958
b100010 C
b100 E
1!
#9000
0!
#9041
b100011 C
b101 E
1!
#9083
0!
#9125
b100100 C
b110 E
1!
#9166
0!
#9208
b100101 C
b111 E
1!
#9250
0!
#9291
b100110 C
b1000 E
1!
#9333
0!
#9358
1%
0<
1$
#9375
1@
1(
1!
#9416
0!
#9458
b0 D
b0 C
b0 E
1!
#9500
0!
#9541
1!
#9583
0!
#9625
1!
#9666
0!
#9708
1!
#9750
0!
#9791
1!
#9833
0!
#9875
1!
#9916
0!
#9958
1!
#10000
0!
#10041
1!
#10083
0!
#10125
1!
#10166
0!
#10172
0%
1<
0$
#10208
0@
0(
1!
#10250
0!
#10291
b1 C
b1 E
1!
#10333
0!
#10375
b10 C
b10 E
1!
#10416
0!
#10458
b11 C
b11 E
1!
#10500
0!
#10541
b100 C
b100 E
1!
#10583
0!
#10625
b101 C
b101 E
1!
#10666
0!
#10708
b110 C
b110 E
1!
#10750
0!
#10791
b111 C
b111 E
1!
#10833
0!
#10875
b1000 C
b1000 E
1!
#10916
0!
#10958
b1001 C
b1001 E
1!
#11000
0!
#11041
b1 D
b1010 C
1F
b0 E
1!
#11083
0!
#11125
0F
b1011 C
b1 E
1!
#11166
0!
#11208
b1100 C
b10 E
1!
#11250
0!
#11291
b1101 C
b11 E
1!
#11333
0!
#11375
b1110 C
b100 E
1!
#11416
0!
#11458
b1111 C
b101 E
1!
#11500
0!
#11541
b10000 C
b110 E
1!
#11583
0!
#11625
b10001 C
b111 E
1!
#11666
0!
#11708
b10010 C
b1000 E
1!
#11750
0!
#11791
b10011 C
b1001 E
1!
#11833
0!
#11875
b10 D
b10100 C
1F
b0 E
1!
#11916
0!
#11958
0F
b10101 C
b1 E
1!
#12000
0!
#12041
b10110 C
b10 E
1!
#12083
0!
#12125
b10111 C
b11 E
1!
#12166
0!
#12208
b11000 C
b100 E
1!
#12250
0!
#12291
b11001 C
b101 E
1!
#12333
0!
#12375
b11010 C
b110 E
1!
#12416
0!
#12458
b11011 C
b111 E
1!
#12500
0!
#12541
b11100 C
b1000 E
1!
#12583
0!
#12625
b11101 C
b1001 E
1!
#12666
0!
#12708
b11 D
b11110 C
1F
b0 E
1!
#12750
0!
#12791
0F
b11111 C
b1 E
1!
#12833
0!
#12875
b100000 C
b10 E
1!
#12916
0!
#12958
b100001 C
b11 E
1!
#13000
0!
#13041
b100010 C
b100 E
1!
#13083
0!
#13125
b100011 C
b101 E
1!
#13166
0!
#13208
b100100 C
b110 E
1!
#13250
0!
#13291
b100101 C
b111 E
1!
#13333
0!
#13375
b100110 C
b1000 E
1!
#13416
0!
#13427
1%
0<
1$
#13458
1@
1(
1!
#13500
0!
#13541
b0 D
b0 C
b0 E
1!
#13583
0!
#13625
1!
#13666
0!
#13708
1!
#13750
0!
#13791
1!
#13833
0!
#13875
1!
#13916
0!
#13958
1!
#14000
0!
#14041
1!
#14083
0!
#14125
1!
#14166
0!
#14208
1!
#14241
0%
0$
1<
0!
#14250
0@
0(
1!
#14291
0!
#14333
b1 C
b1 E
1!
#14375
0!
#14416
b10 C
b10 E
1!
#14458
0!
#14500
b11 C
b11 E
1!
#14541
0!
#14583
b100 C
b100 E
1!
#14625
0!
#14666
b101 C
b101 E
1!
#14708
0!
#14750
b110 C
b110 E
1!
#14791
0!
#14833
b111 C
b111 E
1!
#14875
0!
#14916
b1000 C
b1000 E
1!
#14958
0!
#15000
b1001 C
b1001 E
1!
#15041
0!
#15083
b1 D
b1010 C
1F
b0 E
1!
#15125
0!
#15166
0F
b1011 C
b1 E
1!
#15208
0!
#15250
b1100 C
b10 E
1!
#15291
0!
#15333
b1101 C
b11 E
1!
#15375
0!
#15416
b1110 C
b100 E
1!
#15458
0!
#15500
b1111 C
b101 E
1!
#15541
0!
#15583
b10000 C
b110 E
1!
#15625
0!
#15666
b10001 C
b111 E
1!
#15708
0!
#15750
b10010 C
b1000 E
1!
#15791
0!
#15833
b10011 C
b1001 E
1!
#15875
0!
#15916
b10 D
b10100 C
1F
b0 E
1!
#15958
0!
#16000
0F
b10101 C
b1 E
1!
#16041
0!
#16083
b10110 C
b10 E
1!
#16125
0!
#16166
b10111 C
b11 E
1!
#16208
0!
#16250
b11000 C
b100 E
1!
#16291
0!
#16333
b11001 C
b101 E
1!
#16375
0!
#16416
b11010 C
b110 E
1!
#16458
0!
#16500
b11011 C
b111 E
1!
#16541
0!
#16583
b11100 C
b1000 E
1!
#16625
0!
#16666
b11101 C
b1001 E
1!
#16708
0!
#16750
b11 D
b11110 C
1F
b0 E
1!
#16791
0!
#16833
0F
b11111 C
b1 E
1!
#16875
0!
#16916
b100000 C
b10 E
1!
#16958
0!
#17000
b100001 C
b11 E
1!
#17041
0!
#17083
b100010 C
b100 E
1!
#17125
0!
#17166
b100011 C
b101 E
1!
#17208
0!
#17250
b100100 C
b110 E
1!
#17291
0!
#17333
b100101 C
b111 E
1!
#17375
0!
#17416
b100110 C
b1000 E
1!
#17458
0!
#17500
b100110 A
b100111 C
b1001 E
1!
#17541
0!
#17583
b100 D
b100111 A
b101000 C
1F
b0 E
1!
#17625
0!
#17666
b101000 A
b101001 C
0F
b1 E
1!
#17708
0!
#17750
b101001 A
b101010 C
b10 E
1!
#17791
0!
#17833
b101010 A
b101011 C
b11 E
1!
#17875
0!
#17916
b101011 A
b101100 C
b100 E
1!
#17958
0!
#18000
b101100 A
b101101 C
b101 E
1!
#18041
0!
#18083
b101101 A
b101110 C
b110 E
1!
#18125
0!
#18166
b101110 A
b101111 C
b111 E
1!
#18208
0!
#18250
b101111 A
b110000 C
b1000 E
1!
#18291
0!
#18333
b110000 A
b110001 C
b1001 E
1!
#18375
0!
#18416
b101 D
b110001 A
b110010 C
1F
b0 E
1!
#18458
0!
#18500
b110010 A
b110011 C
0F
b1 E
1!
#18541
0!
#18583
b110011 A
b110100 C
b10 E
1!
#18625
0!
#18666
b110100 A
b110101 C
b11 E
1!
#18708
0!
#18750
b110101 A
b110110 C
b100 E
1!
#18791
0!
#18833
b110110 A
b110111 C
b101 E
1!
#18875
0!
#18916
b110111 A
b111000 C
b110 E
1!
#18958
0!
#19000
b111000 A
b111001 C
b111 E
1!
#19041
0!
#19083
b111001 A
b111010 C
b1000 E
1!
#19125
0!
#19166
b111010 A
b111011 C
b1001 E
1!
#19208
0!
#19250
b110 D
b111011 A
b111100 C
1F
b0 E
1!
#19291
0!
#19333
b111100 A
b111101 C
0F
b1 E
1!
#19375
0!
#19416
b111101 A
b111110 C
b10 E
1!
#19458
0!
#19500
b111110 A
b111111 C
b11 E
1!
#19541
0!
#19583
b111111 A
b1000000 C
b100 E
1!
#19625
0!
#19666
b1000000 A
b1000001 C
b101 E
1!
#19708
0!
#19750
b1000001 A
b1000010 C
b110 E
1!
#19791
0!
#19833
b1000010 A
b1000011 C
b111 E
1!
#19875
0!
#19916
b1000011 A
b1000100 C
b1000 E
1!
#19958
0!
#20000
b1000100 A
b1000101 C
b1001 E
1!
#20041
0!
#20083
b111 D
b1000101 A
b1000110 C
1F
b0 E
1!
#20125
0!
#20166
b1000110 A
b1000111 C
0F
b1 E
1!
#20208
0!
#20250
b1000111 A
b1001000 C
b10 E
1!
#20291
0!
#20333
b1001000 A
b1001001 C
b11 E
1!
#20375
0!
#20416
b1001001 A
b1001010 C
b100 E
1!
#20458
0!
#20500
b1001010 A
b1001011 C
b101 E
1!
#20541
0!
#20583
b1001011 A
b1001100 C
b110 E
1!
#20625
0!
#20666
b1001100 A
b1001101 C
b111 E
1!
#20708
0!
#20750
b1001101 A
b1001110 C
b1000 E
1!
#20791
0!
#20833
b1001110 A
b1001111 C
b1001 E
1!
#20875
0!
#20916
b1000 D
b1001111 A
b1010000 C
1F
b0 E
1!
#20958
0!
#21000
b1010000 A
b1010001 C
0F
b1 E
1!
#21041
0!
#21083
b1010001 A
b1010010 C
b10 E
1!
#21125
0!
#21166
b1010010 A
b1010011 C
b11 E
1!
#21208
0!
#21250
b1010011 A
b1010100 C
b100 E
1!
#21291
0!
#21333
b1010100 A
b1010101 C
b101 E
1!
#21374
0!
#21416
b1010101 A
b1010110 C
b110 E
1!
#21458
0!
#21499
b1010110 A
b1010111 C
b111 E
1!
#21541
0!
#21583
b1010111 A
b1011000 C
b1000 E
1!
#21624
0!
#21666
b1011000 A
b1011001 C
b1001 E
1!
#21708
0!
#21749
b1001 D
b1011001 A
b1011010 C
1F
b0 E
1!
#21791
0!
#21833
b1011010 A
b1011011 C
0F
b1 E
1!
#21874
0!
#21916
b1011011 A
b1011100 C
b10 E
1!
#21958
0!
#21999
b1011100 A
b1011101 C
b11 E
1!
#22041
0!
#22083
b1011101 A
b1011110 C
b100 E
1!
#22124
0!
#22166
b1011110 A
b1011111 C
b101 E
1!
#22208
0!
#22249
b1011111 A
b1100000 C
b110 E
1!
#22291
0!
#22333
b1100000 A
b1100001 C
b111 E
1!
#22374
0!
#22379
1%
0<
1$
#22416
1@
1(
1=
b1100000 B
1>
1!
#22458
0!
#22499
b0 D
b0 C
1?
b1001 '
1&
0=
b0 E
#22541
sREAD_FRAME/1 ,
b11 )
b1001 +
1!
#22583
0!
#22624
sREAD_SYNC_BIT/2 ,
1*
1-
1!
#22666
0!
#22708
b100 )
1!
#22749
0!
#22791
b101 )
1!
#22833
0!
#22874
b110 )
1!
#22916
0!
#22958
b111 )
0-
b111 /
sREAD_USER_DATA/3 ,
1!
#22999
0!
#23041
b1000 )
1!
#23083
0!
#23124
b1001 )
1!
#23166
0!
#23193
0%
1<
0$
#23208
0@
0(
b0 )
1!
#23249
0!
#23291
b1 )
b1 C
b1 E
1!
#23333
0!
#23374
b10 )
b10 C
b10 E
1!
#23416
0!
#23458
b11 )
b11 C
b11 E
1!
#23499
0!
#23541
b100 )
b100 C
b100 E
1!
#23583
0!
#23624
b101 )
10
b101 C
b0 /
b101 E
1!
#23666
0!
#23708
b110 )
b110 C
b110 E
1!
#23749
0!
#23791
b111 )
b111 C
b111 E
1!
#23833
0!
#23874
b1000 )
b1000 C
b1000 E
1!
#23916
0!
#23958
b1001 )
b1001 C
b1001 E
1!
#23999
0!
#24041
b1 D
b0 )
b1010 C
1F
b0 E
1!
#24083
0!
#24124
b1 )
b1011 C
0F
b1 E
1!
#24166
0!
#24208
b10 )
b1100 C
b10 E
1!
#24249
0!
#24291
b11 )
b1101 C
b11 E
1!
#24333
0!
#24374
b100 )
b1110 C
b100 E
1!
#24416
0!
#24458
b101 )
b1111 C
b1 /
b101 E
1!
#24499
0!
#24541
b110 )
b10000 C
b110 E
1!
#24583
0!
#24624
b111 )
b10001 C
b111 E
1!
#24666
0!
#24708
b1000 )
b10010 C
b1000 E
1!
#24749
0!
#24791
b1001 )
b10011 C
b1001 E
1!
#24833
0!
#24874
b10 D
b0 )
b10100 C
1F
b0 E
1!
#24916
0!
#24958
b1 )
b10101 C
0F
b1 E
1!
#24999
0!
#25041
b10 )
b10110 C
b10 E
1!
#25083
0!
#25124
b11 )
b10111 C
b11 E
1!
#25166
0!
#25208
b100 )
b11000 C
b100 E
1!
#25249
0!
#25291
b101 )
b11001 C
b10 /
b101 E
1!
#25333
0!
#25374
b110 )
b11010 C
b110 E
1!
#25416
0!
#25458
b111 )
b11011 C
b111 E
1!
#25499
0!
#25541
b1000 )
b11100 C
b1000 E
1!
#25583
0!
#25624
b1001 )
b11101 C
b1001 E
1!
#25666
0!
#25708
b11 D
b0 )
b11110 C
1F
b0 E
1!
#25749
0!
#25791
b1 )
b11111 C
0F
b1 E
1!
#25833
0!
#25874
b10 )
b100000 C
b10 E
1!
#25916
0!
#25958
b11 )
b100001 C
b11 E
1!
#25999
0!
#26041
b100 )
b100010 C
b100 E
1!
#26083
0!
#26124
b101 )
b100011 C
b11 /
b101 E
1!
#26166
0!
#26208
b110 )
b100100 C
b110 E
1!
#26249
0!
#26291
b111 )
b100101 C
b111 E
1!
#26333
0!
#26374
b1000 )
b100110 C
b1000 E
1!
#26416
0!
#26448
1%
0<
1$
#26458
1@
1(
00
b0 )
sREAD_SYNC_BIT/2 ,
1!
#26499
0!
#26541
b0 D
b1 )
b0 C
b0 E
1!
#26583
0!
#26624
b10 )
1!
#26666
0!
#26708
b11 )
1!
#26749
0!
#26791
b100 )
1!
#26833
0!
#26874
b101 )
1!
#26916
0!
#26958
b110 )
1!
#26999
0!
#27041
sREAD_DATA_NIBBLE/4 ,
b111 )
b111 /
1!
#27083
0!
#27124
b1000 )
1!
#27166
0!
#27208
b1001 )
1!
#27249
0!
#27262
0%
1<
0$
#27291
0@
0(
b0 )
1!
#27333
0!
#27374
b1 )
b1 C
b1 E
1!
#27416
0!
#27458
b10 )
b10 C
b10 E
1!
#27499
0!
#27541
b11 )
b11 C
b11 E
1!
#27583
0!
#27624
b100 )
b100 C
b100 E
1!
#27666
0!
#27708
b101 )
19
b101 C
b0 /
b101 E
1!
#27749
0!
#27791
b110 )
09
b110 C
b110 E
1!
#27833
0!
#27874
b111 )
b111 C
b111 E
1!
#27916
0!
#27958
b1000 )
b1000 C
b1000 E
1!
#27999
0!
#28041
b1001 )
b1001 C
b1001 E
1!
#28083
0!
#28124
b1 D
b0 )
b1010 C
1F
b0 E
1!
#28166
0!
#28208
b1 )
b1011 C
0F
b1 E
1!
#28249
0!
#28291
b10 )
b1100 C
b10 E
1!
#28333
0!
#28374
b11 )
b1101 C
b11 E
1!
#28416
0!
#28458
b100 )
b1110 C
b100 E
1!
#28499
0!
#28541
b101 )
19
b1111 C
b1 /
b101 E
1!
#28583
0!
#28624
b110 )
09
b10000 C
b110 E
1!
#28666
0!
#28708
b111 )
b10001 C
b111 E
1!
#28749
0!
#28791
b1000 )
b10010 C
b1000 E
1!
#28833
0!
#28874
b1001 )
b10011 C
b1001 E
1!
#28916
0!
#28958
b10 D
b0 )
b10100 C
1F
b0 E
1!
#28999
0!
#29041
b1 )
b10101 C
0F
b1 E
1!
#29083
0!
#29124
b10 )
b10110 C
b10 E
1!
#29166
0!
#29208
b11 )
b10111 C
b11 E
1!
#29249
0!
#29291
b100 )
b11000 C
b100 E
1!
#29333
0!
#29374
b101 )
19
b11001 C
b10 /
b101 E
1!
#29416
0!
#29458
b110 )
09
b11010 C
b110 E
1!
#29499
0!
#29541
b111 )
b11011 C
b111 E
1!
#29583
0!
#29624
b1000 )
b11100 C
b1000 E
1!
#29666
0!
#29708
b1001 )
b11101 C
b1001 E
1!
#29749
0!
#29791
b11 D
b0 )
b11110 C
1F
b0 E
1!
#29833
0!
#29874
b1 )
b11111 C
0F
b1 E
1!
#29916
0!
#29958
b10 )
b100000 C
b10 E
1!
#29999
0!
#30041
b11 )
b100001 C
b11 E
1!
#30083
0!
#30124
b100 )
b100010 C
b100 E
1!
#30166
0!
#30208
b101 )
19
b100011 C
b11 /
b101 E
1!
#30249
0!
#30291
b110 )
09
b100100 C
b110 E
1!
#30333
0!
#30374
b111 )
b100101 C
b111 E
1!
#30416
0!
#30458
b1000 )
b100110 C
b1000 E
1!
#30499
0!
#30517
1%
0<
1$
#30541
1@
1(
b0 )
1!
#30583
0!
#30624
b0 D
b1 )
b0 C
b0 E
1!
#30666
0!
#30708
b10 )
1!
#30749
0!
#30791
b11 )
1!
#30833
0!
#30874
b100 )
1!
#30916
0!
#30958
b101 )
b100 /
18
1!
#30999
0!
#31041
sREAD_SYNC_BIT/2 ,
b110 )
b1 4
1!
#31083
0!
#31124
sREAD_DATA_NIBBLE/4 ,
b111 )
b111 /
1!
#31166
0!
#31208
b1000 )
1!
#31249
0!
#31291
b1001 )
1!
#31331
0%
0$
1<
0!
#31333
0@
0(
b0 )
1!
#31374
0!
#31416
b1 )
b1 C
b1 E
1!
#31458
0!
#31499
b10 )
b10 C
b10 E
1!
#31541
0!
#31583
b11 )
b11 C
b11 E
1!
#31624
0!
#31666
b100 )
b100 C
b100 E
1!
#31708
0!
#31749
b101 )
b0 /
b101 C
19
08
b101 E
1!
#31791
0!
#31833
b110 )
09
b110 C
b110 E
1!
#31874
0!
#31916
b111 )
b111 C
b111 E
1!
#31958
0!
#31999
b1000 )
b1000 C
b1000 E
1!
#32041
0!
#32083
b1001 )
b1001 C
b1001 E
1!
#32124
0!
#32166
b1 D
b0 )
b1010 C
1F
b0 E
1!
#32208
0!
#32249
b1 )
b1011 C
0F
b1 E
1!
#32291
0!
#32333
b10 )
b1100 C
b10 E
1!
#32374
0!
#32416
b11 )
b1101 C
b11 E
1!
#32458
0!
#32499
b100 )
b1110 C
b100 E
1!
#32541
0!
#32583
b101 )
19
b1111 C
b1 /
b101 E
1!
#32624
0!
#32666
b110 )
09
b10000 C
b110 E
1!
#32708
0!
#32749
b111 )
b10001 C
b111 E
1!
#32791
0!
#32833
b1000 )
b10010 C
b1000 E
1!
#32874
0!
#32916
b1001 )
b10011 C
b1001 E
1!
#32958
0!
#32999
b10 D
b0 )
b10100 C
1F
b0 E
1!
#33041
0!
#33083
b1 )
b10101 C
0F
b1 E
1!
#33124
0!
#33166
b10 )
b10110 C
b10 E
1!
#33208
0!
#33249
b11 )
b10111 C
b11 E
1!
#33291
0!
#33333
b100 )
b11000 C
b100 E
1!
#33374
0!
#33416
b101 )
19
b11001 C
b10 /
b101 E
1!
#33458
0!
#33499
b110 )
09
b11010 C
b110 E
1!
#33541
0!
#33583
b111 )
b11011 C
b111 E
1!
#33624
0!
#33666
b1000 )
b11100 C
b1000 E
1!
#33708
0!
#33749
b1001 )
b11101 C
b1001 E
1!
#33791
0!
#33833
b11 D
b0 )
b11110 C
1F
b0 E
1!
#33874
0!
#33916
b1 )
b11111 C
0F
b1 E
1!
#33958
0!
#33999
b10 )
b100000 C
b10 E
1!
#34041
0!
#34083
b11 )
b100001 C
b11 E
1!
#34124
0!
#34166
b100 )
b100010 C
b100 E
1!
#34208
0!
#34249
b101 )
19
b100011 C
b11 /
b101 E
1!
#34291
0!
#34333
b110 )
09
b100100 C
b110 E
1!
#34374
0!
#34416
b111 )
b100101 C
b111 E
1!
#34458
0!
#34499
b1000 )
b100110 C
b1000 E
1!
#34541
0!
#34583
b1001 )
b100111 C
b1001 E
1!
#34586
1%
1$
0<
0!
#34624
1@
1(
b0 )
1!
#34666
0!
#34708
b0 D
b1 )
b0 C
b0 E
1!
#34749
0!
#34791
b10 )
1!
#34833
0!
#34874
b11 )
1!
#34916
0!
#34958
b100 )
1!
#34999
0!
#35041
b101 )
b100 /
18
1!
#35083
0!
#35124
b110 )
sREAD_SYNC_BIT/2 ,
b10 4
b1 3
1!
#35166
0!
#35208
sREAD_DATA_NIBBLE/4 ,
b111 )
b111 /
1!
#35249
0!
#35291
b1000 )
1!
#35333
0!
#35374
b1001 )
1!
#35400
0%
0$
1<
0!
#35416
0@
0(
b0 )
1!
#35458
0!
#35499
b1 )
b1 C
b1 E
1!
#35541
0!
#35583
b10 )
b10 C
b10 E
1!
#35624
0!
#35666
b11 )
b11 C
b11 E
1!
#35708
0!
#35749
b100 )
b100 C
b100 E
1!
#35791
0!
#35833
b101 )
b0 /
b101 C
19
08
b101 E
1!
#35874
0!
#35916
b110 )
09
b110 C
b110 E
1!
#35958
0!
#35999
b111 )
b111 C
b111 E
1!
#36041
0!
#36083
b1000 )
b1000 C
b1000 E
1!
#36124
0!
#36166
b1001 )
b1001 C
b1001 E
1!
#36208
0!
#36249
b1 D
b0 )
b1010 C
1F
b0 E
1!
#36291
0!
#36333
b1 )
b1011 C
0F
b1 E
1!
#36374
0!
#36416
b10 )
b1100 C
b10 E
1!
#36458
0!
#36499
b11 )
b1101 C
b11 E
1!
#36541
0!
#36583
b100 )
b1110 C
b100 E
1!
#36624
0!
#36666
b101 )
19
b1111 C
b1 /
b101 E
1!
#36708
0!
#36749
b110 )
09
b10000 C
b110 E
1!
#36791
0!
#36833
b111 )
b10001 C
b111 E
1!
#36874
0!
#36916
b1000 )
b10010 C
b1000 E
1!
#36958
0!
#36999
b1001 )
b10011 C
b1001 E
1!
#37041
0!
#37083
b10 D
b0 )
b10100 C
1F
b0 E
1!
#37124
0!
#37166
b1 )
b10101 C
0F
b1 E
1!
#37208
0!
#37249
b10 )
b10110 C
b10 E
1!
#37291
0!
#37333
b11 )
b10111 C
b11 E
1!
#37374
0!
#37416
b100 )
b11000 C
b100 E
1!
#37458
0!
#37499
b101 )
19
b11001 C
b10 /
b101 E
1!
#37541
0!
#37583
b110 )
09
b11010 C
b110 E
1!
#37624
0!
#37666
b111 )
b11011 C
b111 E
1!
#37708
0!
#37749
b1000 )
b11100 C
b1000 E
1!
#37791
0!
#37833
b1001 )
b11101 C
b1001 E
1!
#37874
0!
#37916
b11 D
b0 )
b11110 C
1F
b0 E
1!
#37958
0!
#37999
b1 )
b11111 C
0F
b1 E
1!
#38041
0!
#38083
b10 )
b100000 C
b10 E
1!
#38124
0!
#38166
b11 )
b100001 C
b11 E
1!
#38208
0!
#38249
b100 )
b100010 C
b100 E
1!
#38291
0!
#38333
b101 )
19
b100011 C
b11 /
b101 E
1!
#38374
0!
#38416
b110 )
09
b100100 C
b110 E
1!
#38458
0!
#38499
b111 )
b100101 C
b111 E
1!
#38541
0!
#38583
b1000 )
b100110 C
b1000 E
1!
#38624
0!
#38655
1%
0<
1$
#38666
1@
1(
b0 )
1!
#38708
0!
#38749
b0 D
b1 )
b0 C
b0 E
1!
#38791
0!
#38833
b10 )
1!
#38874
0!
#38916
b11 )
1!
#38958
0!
#38999
b100 )
1!
#39041
0!
#39083
b101 )
b100 /
18
1!
#39124
0!
#39166
b110 )
sREAD_SYNC_BIT/2 ,
b11 4
b10 3
1!
#39208
0!
