receiver-smoke-test-48000.vcd
$comment Generated by nMigen $end
$date 2021-01-23 13:54:09.462014 $end
$timescale 100 ps $end
$scope module top $end
$var wire 1 ! clk $end
$var wire 1 " rst $end
$var wire 1 # nrzi_in $end
$var wire 1 $ adat_in $end
$var wire 8 % bit_counter $end
$var wire 3 & nibble_counter $end
$var wire 3 ' active_channel $end
$var wire 1 ( edge_in $end
$var string 1 ) fsm_state $end
$var wire 4 * user_data_out $end
$var wire 8 + output_at $end
$var wire 3 , addr_out $end
$var wire 24 - sample_out $end
$var wire 1 . output_enable $end
$var wire 1 / bit_in $end
$var wire 1 0 enable_in $end
$var wire 1 1 clear_in $end
$var wire 1 2 running $end
$var wire 24 3 value_out $end
$var wire 1 4 data_out_en $end
$var wire 1 5 data_out $end
$var wire 1 6 pulse_out $end
$scope module framedata_shifter $end
$var wire 1 ! clk $end
$var wire 1 " rst $end
$var wire 1 / bit_in $end
$var wire 1 0 enable_in $end
$var wire 1 1 clear_in $end
$var wire 24 3 value_out $end
$upscope $end
$scope module nrzi_decoder $end
$var wire 1 ! clk $end
$var wire 1 " rst $end
$var wire 1 2 running $end
$var wire 1 4 data_out_en $end
$var wire 1 5 data_out $end
$var wire 1 7 nrzi_prev $end
$var wire 1 8 nrzi $end
$var wire 1 9 got_edge $end
$var wire 1 : reset_in $end
$var wire 1 ; active_in $end
$var string 1 < fsm_state $end
$var wire 7 = bit_counter $end
$var wire 1 > output $end
$var wire 8 ? dead_counter $end
$var wire 7 @ counter_out $end
$var wire 7 A divided_counter_out $end
$scope module cdc $end
$var wire 1 ! clk $end
$var wire 1 " rst $end
$var wire 1 # nrzi_in $end
$var wire 1 8 nrzi $end
$var wire 1 B stage0 $end
$var wire 1 C stage1 $end
$upscope $end
$scope module sync_counter $end
$var wire 1 ! clk $end
$var wire 1 " rst $end
$var wire 1 : reset_in $end
$var wire 1 ; active_in $end
$var wire 7 @ counter_out $end
$var wire 7 A divided_counter_out $end
$var wire 4 D dividing_cycle_counter $end
$var wire 1 E dividable_out $end
$upscope $end
$upscope $end
$scope module output_pulser $end
$var wire 1 ! clk $end
$var wire 1 " rst $end
$var wire 1 ( edge_in $end
$var wire 1 6 pulse_out $end
$var wire 1 F edge_last $end
$upscope $end
$upscope $end
$enddefinitions $end
#0
$dumpvars
0!
0"
0#
0$
b0 %
b0 &
b0 '
0(
sWAIT_SYNC/0 )
b0 *
b0 +
b0 ,
b0 -
0.
0/
00
01
02
b0 3
04
05
06
07
08
09
0:
0;
sSYNC/0 <
b0 =
1>
b0 ?
b0 @
b0 A
0B
0C
b0 D
0E
0F
$end
#50
1!
1;
#100
0!
#150
1!
b1 @
b1 D
#200
0!
#250
1!
b10 @
b10 D
#300
0!
#349
1!
b11 @
b11 D
#399
0!
#406
1$
1#
#449
1B
1!
b100 @
b100 D
#499
0!
#549
1C
18
1!
19
b101 @
b101 D
#600
0!
#650
17
1!
1:
09
b110 @
b110 D
#700
0!
#750
1!
0:
b0 @
b0 D
#800
0!
#850
1!
b1 @
b1 D
#900
0!
#950
1!
b10 @
b10 D
#1000
0!
#1050
1!
b11 @
b11 D
#1100
0!
#1150
1!
b100 @
b100 D
#1200
0!
#1220
0$
0#
#1250
0B
1!
b101 @
b101 D
#1300
0!
#1350
0C
08
1!
19
b110 @
b110 D
#1400
0!
#1450
07
1!
1:
09
b111 @
b111 D
#1500
0!
#1550
1!
0:
b0 @
b0 D
#1600
0!
#1650
1!
b1 @
b1 D
#1700
0!
#1750
1!
b10 @
b10 D
#1800
0!
#1850
1!
b11 @
b11 D
#1900
0!
#1950
1!
b100 @
b100 D
#2000
0!
#2050
1!
b101 @
b101 D
#2100
0!
#2150
1!
b110 @
b110 D
#2200
0!
#2250
1!
b111 @
b111 D
#2300
0!
#2350
1!
b1000 @
b1000 D
#2400
0!
#2450
1!
b1001 @
b1001 D
#2500
0!
#2550
1!
b1010 @
b1010 D
#2600
0!
#2650
1!
b1011 @
b1011 D
#2700
0!
#2750
b1 A
1E
1!
b1100 @
b0 D
#2800
0!
#2850
0E
1!
b1101 @
b1 D
#2900
0!
#2950
1!
b1110 @
b10 D
#3000
0!
#3050
1!
b1111 @
b11 D
#3100
0!
#3150
1!
b10000 @
b100 D
#3200
0!
#3250
1!
b10001 @
b101 D
#3300
0!
#3350
1!
b10010 @
b110 D
#3400
0!
#3450
1!
b10011 @
b111 D
#3500
0!
#3550
1!
b10100 @
b1000 D
#3600
0!
#3650
1!
b10101 @
b1001 D
#3700
0!
#3750
1!
b10110 @
b1010 D
#3800
0!
#3850
1!
b10111 @
b1011 D
#3900
0!
#3950
b10 A
1E
1!
b11000 @
b0 D
#4000
0!
#4050
0E
1!
b11001 @
b1 D
#4100
0!
#4150
1!
b11010 @
b10 D
#4200
0!
#4250
1!
b11011 @
b11 D
#4300
0!
#4350
1!
b11100 @
b100 D
#4400
0!
#4450
1!
b11101 @
b101 D
#4500
0!
#4550
1!
b11110 @
b110 D
#4600
0!
#4650
1!
b11111 @
b111 D
#4700
0!
#4750
1!
b100000 @
b1000 D
#4800
0!
#4850
1!
b100001 @
b1001 D
#4900
0!
#4950
1!
b100010 @
b1010 D
#5000
0!
#5050
1!
b100011 @
b1011 D
#5100
0!
#5150
b11 A
1E
1!
b100100 @
b0 D
#5200
0!
#5249
0E
1!
b100101 @
b1 D
#5299
0!
#5349
1!
b100110 @
b10 D
#5399
0!
#5449
1!
b100111 @
b11 D
#5499
0!
#5549
1!
b101000 @
b100 D
#5599
0!
#5649
1!
b101001 @
b101 D
#5699
0!
#5749
1!
b101010 @
b110 D
#5799
0!
#5849
1!
b101011 @
b111 D
#5899
0!
#5949
1!
b101100 @
b1000 D
#5999
0!
#6049
1!
b101101 @
b1001 D
#6099
0!
#6149
1!
b101110 @
b1010 D
#6199
0!
#6249
1!
b101111 @
b1011 D
#6299
0!
#6349
b100 A
1E
1!
b110000 @
b0 D
#6399
0!
#6449
0E
1!
b110001 @
b1 D
#6499
0!
#6549
1!
b110010 @
b10 D
#6599
0!
#6649
1!
b110011 @
b11 D
#6699
0!
#6749
1!
b110100 @
b100 D
#6799
0!
#6849
1!
b110101 @
b101 D
#6899
0!
#6949
1!
b110110 @
b110 D
#6999
0!
#7049
1!
b110111 @
b111 D
#7099
0!
#7149
1!
b111000 @
b1000 D
#7199
0!
#7249
1!
b111001 @
b1001 D
#7299
0!
#7349
1!
b111010 @
b1010 D
#7399
0!
#7449
1!
b111011 @
b1011 D
#7499
0!
#7549
b101 A
1E
1!
b111100 @
b0 D
#7599
0!
#7649
0E
1!
b111101 @
b1 D
#7699
0!
#7749
1!
b111110 @
b10 D
#7799
0!
#7849
1!
b111111 @
b11 D
#7899
0!
#7949
1!
b1000000 @
b100 D
#7999
0!
#8049
1!
b1000001 @
b101 D
#8099
0!
#8149
1!
b1000010 @
b110 D
#8199
0!
#8249
1!
b1000011 @
b111 D
#8299
0!
#8349
1!
b1000100 @
b1000 D
#8399
0!
#8449
1!
b1000101 @
b1001 D
#8499
0!
#8549
1!
b1000110 @
b1010 D
#8599
0!
#8649
1!
b1000111 @
b1011 D
#8699
0!
#8749
b110 A
1E
1!
b1001000 @
b0 D
#8799
0!
#8849
0E
1!
b1001001 @
b1 D
#8899
0!
#8949
1!
b1001010 @
b10 D
#8999
0!
#9049
1!
b1001011 @
b11 D
#9099
0!
#9149
1!
b1001100 @
b100 D
#9199
0!
#9249
1!
b1001101 @
b101 D
#9299
0!
#9349
1!
b1001110 @
b110 D
#9399
0!
#9449
1!
b1001111 @
b111 D
#9499
0!
#9549
1!
b1010000 @
b1000 D
#9599
0!
#9649
1!
b1010001 @
b1001 D
#9699
0!
#9749
1!
b1010010 @
b1010 D
#9799
0!
#9849
1!
b1010011 @
b1011 D
#9899
0!
#9949
b111 A
1E
1!
b1010100 @
b0 D
#9999
0!
#10049
0E
1!
b1010101 @
b1 D
#10099
0!
#10149
1!
b1010110 @
b10 D
#10172
1$
1#
#10199
0!
#10249
1B
1!
b1010111 @
b11 D
#10299
0!
#10349
1C
18
1!
19
b1011000 @
b100 D
#10399
0!
#10449
sDECODE/1 <
09
17
12
1!
0;
b1011001 @
b101 D
#10499
0!
#10549
sREAD_FRAME/1 )
1!
b1 =
b1 ?
#10599
0!
#10649
1!
b10 =
b10 ?
#10699
0!
#10749
1!
b11 =
b11 ?
#10799
0!
#10849
14
b100 =
0>
1/
1!
15
b100 ?
#10899
0!
#10949
b1 %
b1 &
04
b101 =
0/
1!
b101 ?
#10999
0!
#11049
1!
b110 =
b110 ?
#11099
0!
#11149
1!
b111 =
b111 ?
#11199
0!
#11249
1!
b0 =
b1000 ?
#11299
0!
#11349
1!
b1 =
b1001 ?
#11399
0!
#11449
1!
b10 =
b1010 ?
#11499
0!
#11549
1!
b11 =
b1011 ?
#11599
0!
#11649
14
b100 =
1!
10
05
b1100 ?
#11699
0!
#11749
b10 %
b10 &
04
b101 =
1!
00
b1101 ?
#11799
0!
#11800
0$
0#
#11849
0B
1!
b110 =
b1110 ?
#11899
0!
#11949
b111 =
0C
08
1!
19
b1111 ?
#11999
0!
#12049
07
b0 =
1>
1!
09
b0 ?
#12099
0!
#12149
1!
b1 =
b1 ?
#12199
0!
#12249
1!
b10 =
b10 ?
#12299
0!
#12349
1!
b11 =
b11 ?
#12399
0!
#12449
14
b100 =
0>
1/
1!
10
15
b100 ?
#12499
0!
#12549
b11 &
b1 3
b11 %
04
b101 =
0/
1!
00
b101 ?
#12599
0!
#12649
1!
b110 =
b110 ?
#12699
0!
#12749
1!
b111 =
b111 ?
#12799
0!
#12849
1!
b0 =
b1000 ?
#12899
0!
#12949
1!
b1 =
b1001 ?
#12999
0!
#13049
1!
b10 =
b1010 ?
#13099
0!
#13149
1!
b11 =
b1011 ?
#13199
0!
#13249
14
b100 =
1!
10
05
b1100 ?
#13299
0!
#13349
b100 %
b100 &
04
b101 =
b10 3
1!
00
b1101 ?
#13399
0!
#13427
1$
1#
#13449
1B
1!
b110 =
b1110 ?
#13499
0!
#13549
b111 =
1C
18
1!
19
b1111 ?
#13599
0!
#13649
17
b0 =
1>
1!
09
b0 ?
#13699
0!
#13749
1!
b1 =
b1 ?
#13799
0!
#13849
1!
b10 =
b10 ?
#13899
0!
#13949
1!
b11 =
b11 ?
#13999
0!
#14049
14
b100 =
0>
1/
1!
10
15
b100 ?
#14099
0!
#14149
b0 &
b101 3
b101 %
04
b101 =
0/
1!
00
b101 ?
#14199
0!
#14241
0$
0#
#14249
b110 ?
b110 =
b100011 +
0B
1!
b101 *
#14299
0!
#14349
b111 =
0C
08
1!
19
b111 ?
#14399
0!
#14449
07
b0 =
1>
1!
09
b0 ?
#14499
0!
#14549
1!
b1 =
b1 ?
#14599
0!
#14649
1!
b10 =
b10 ?
#14699
0!
#14749
1!
b11 =
b11 ?
#14799
0!
#14849
14
b100 =
0>
1/
1!
b100 ?
#14899
0!
#14949
b110 %
b1 &
04
b101 =
0/
1!
b101 ?
#14999
0!
#15049
1!
b110 =
b110 ?
#15099
0!
#15149
1!
b111 =
b111 ?
#15199
0!
#15249
1!
b0 =
b1000 ?
#15299
0!
#15349
1!
b1 =
b1001 ?
#15399
0!
#15449
1!
b10 =
b1010 ?
#15499
0!
#15549
1!
b11 =
b1011 ?
#15599
0!
#15649
14
b100 =
1!
10
05
b1100 ?
#15699
0!
#15749
b111 %
b10 &
04
b101 =
b1010 3
1!
00
b1101 ?
#15799
0!
#15849
1!
b110 =
b1110 ?
#15899
0!
#15949
1!
b111 =
b1111 ?
#15999
0!
#16049
1!
b0 =
b10000 ?
#16099
0!
#16149
1!
b1 =
b10001 ?
#16199
0!
#16249
1!
b10 =
b10010 ?
#16299
0!
#16349
1!
b11 =
b10011 ?
#16399
0!
#16449
14
b100 =
1!
10
b10100 ?
#16499
0!
#16549
b1000 %
b11 &
04
b101 =
b10100 3
1!
00
b10101 ?
#16599
0!
#16649
1!
b110 =
b10110 ?
#16699
0!
#16749
1!
b111 =
b10111 ?
#16799
0!
#16849
1!
b0 =
b11000 ?
#16899
0!
#16949
1!
b1 =
b11001 ?
#16999
0!
#17049
1!
b10 =
b11010 ?
#17099
0!
#17149
1!
b11 =
b11011 ?
#17199
0!
#17249
14
b100 =
1!
10
b11100 ?
#17299
0!
#17349
b1001 %
b100 &
04
b101 =
b101000 3
1!
00
b11101 ?
#17399
0!
#17449
1!
b110 =
b11110 ?
#17499
0!
#17549
1!
b111 =
b11111 ?
#17599
0!
#17649
1!
b0 =
b100000 ?
#17699
0!
#17749
1!
b1 =
b100001 ?
#17799
0!
#17849
1!
b10 =
b100010 ?
#17899
0!
#17949
1!
b11 =
b100011 ?
#17999
0!
#18049
14
b100 =
1!
10
b100100 ?
#18099
0!
#18149
b1010 %
b0 &
04
b101 =
b1010000 3
1!
00
b100101 ?
#18199
0!
#18249
1!
b110 =
b100110 ?
#18299
0!
#18310
1$
1#
#18349
1B
1!
b111 =
b100111 ?
#18399
0!
#18449
b0 =
1C
18
1!
19
b101000 ?
#18499
0!
#18549
17
b1 =
1>
1!
09
b0 ?
#18599
0!
#18649
1!
b10 =
b1 ?
#18699
0!
#18749
1!
b11 =
b10 ?
#18799
0!
#18849
14
b100 =
0>
1/
1!
15
b11 ?
#18899
0!
#18949
b1011 %
b1 &
04
b101 =
0/
1!
b100 ?
#18999
0!
#19049
1!
b110 =
b101 ?
#19099
0!
#19149
1!
b111 =
b110 ?
#19199
0!
#19249
1!
b0 =
b111 ?
#19299
0!
#19349
1!
b1 =
b1000 ?
#19399
0!
#19449
1!
b10 =
b1001 ?
#19499
0!
#19549
1!
b11 =
b1010 ?
#19599
0!
#19649
14
b100 =
1!
10
05
b1011 ?
#19699
0!
#19749
b1100 %
b10 &
04
b101 =
b10100000 3
1!
00
b1100 ?
#19799
0!
#19849
1!
b110 =
b1101 ?
#19899
0!
#19949
1!
b111 =
b1110 ?
#19999
0!
#20049
1!
b0 =
b1111 ?
#20099
0!
#20149
1!
b1 =
b10000 ?
#20199
0!
#20249
1!
b10 =
b10001 ?
#20299
0!
#20349
1!
b11 =
b10010 ?
#20399
0!
#20449
14
b100 =
1!
10
b10011 ?
#20499
0!
#20549
b1101 %
b11 &
04
b101 =
b101000000 3
1!
00
b10100 ?
#20599
0!
#20649
1!
b110 =
b10101 ?
#20699
0!
#20749
1!
b111 =
b10110 ?
#20799
0!
#20849
1!
b0 =
b10111 ?
#20899
0!
#20949
1!
b1 =
b11000 ?
#20999
0!
#21049
1!
b10 =
b11001 ?
#21099
0!
#21149
1!
b11 =
b11010 ?
#21199
0!
#21249
14
b100 =
1!
10
b11011 ?
#21299
0!
#21349
b1110 %
b100 &
04
b101 =
b1010000000 3
1!
00
b11100 ?
#21399
0!
#21449
1!
b110 =
b11101 ?
#21499
0!
#21549
1!
b111 =
b11110 ?
#21599
0!
#21649
1!
b0 =
b11111 ?
#21699
0!
#21749
1!
b1 =
b100000 ?
#21799
0!
#21849
1!
b10 =
b100001 ?
#21899
0!
#21949
1!
b11 =
b100010 ?
#21999
0!
#22049
14
b100 =
1!
10
b100011 ?
#22099
0!
#22149
b1111 %
b0 &
04
b101 =
b10100000000 3
1!
00
b100100 ?
#22199
0!
#22249
1!
b110 =
b100101 ?
#22299
0!
#22349
1!
b111 =
b100110 ?
#22379
0$
0#
#22399
0!
#22449
0B
1!
b0 =
b100111 ?
#22499
0!
#22549
b1 =
0C
08
1!
19
b101000 ?
#22599
0!
#22649
07
1>
1!
09
b0 ?
#22699
0!
#22749
1!
b10 =
b1 ?
#22799
0!
#22849
1!
b11 =
b10 ?
#22899
0!
#22949
14
b100 =
0>
1/
1!
15
b11 ?
#22999
0!
#23049
b10000 %
b1 &
04
b101 =
0/
1!
b100 ?
#23099
0!
#23149
1!
b110 =
b101 ?
#23199
0!
#23249
1!
b111 =
b110 ?
#23299
0!
#23349
1!
b0 =
b111 ?
#23399
0!
#23449
1!
b1 =
b1000 ?
#23499
0!
#23549
1!
b10 =
b1001 ?
#23599
0!
#23649
1!
b11 =
b1010 ?
#23699
0!
#23749
14
b100 =
1!
10
05
b1011 ?
#23799
0!
#23849
b10001 %
b10 &
04
b101 =
b101000000000 3
1!
00
b1100 ?
#23899
0!
#23949
1!
b110 =
b1101 ?
#23999
0!
#24049
1!
b111 =
b1110 ?
#24099
0!
#24149
1!
b0 =
b1111 ?
#24199
0!
#24249
1!
b1 =
b10000 ?
#24299
0!
#24349
1!
b10 =
b10001 ?
#24399
0!
#24449
1!
b11 =
b10010 ?
#24499
0!
#24549
14
b100 =
1!
10
b10011 ?
#24599
0!
#24649
b10010 %
b11 &
04
b101 =
b1010000000000 3
1!
00
b10100 ?
#24699
0!
#24749
1!
b110 =
b10101 ?
#24799
0!
#24849
1!
b111 =
b10110 ?
#24899
0!
#24949
1!
b0 =
b10111 ?
#24999
0!
#25049
1!
b1 =
b11000 ?
#25099
0!
#25149
1!
b10 =
b11001 ?
#25199
0!
#25249
1!
b11 =
b11010 ?
#25299
0!
#25349
14
b100 =
1!
10
b11011 ?
#25399
0!
#25449
b10011 %
b100 &
04
b101 =
b10100000000000 3
1!
00
b11100 ?
#25499
0!
#25549
1!
b110 =
b11101 ?
#25599
0!
#25649
1!
b111 =
b11110 ?
#25699
0!
#25749
1!
b0 =
b11111 ?
#25799
0!
#25849
1!
b1 =
b100000 ?
#25899
0!
#25949
1!
b10 =
b100001 ?
#25999
0!
#26049
1!
b11 =
b100010 ?
#26099
0!
#26149
14
b100 =
1!
10
b100011 ?
#26199
0!
#26249
b10100 %
b0 &
04
b101 =
b101000000000000 3
1!
00
b100100 ?
#26299
0!
#26349
1!
b110 =
b100101 ?
#26399
0!
#26448
1$
1#
#26449
1B
1!
b111 =
b100110 ?
#26499
0!
#26549
b0 =
1C
18
1!
19
b100111 ?
#26599
0!
#26649
17
b1 =
1>
1!
09
b0 ?
#26699
0!
#26749
1!
b10 =
b1 ?
#26799
0!
#26849
1!
b11 =
b10 ?
#26899
0!
#26949
14
b100 =
0>
1/
1!
15
b11 ?
#26999
0!
#27049
b10101 %
b1 &
04
b101 =
0/
1!
b100 ?
#27099
0!
#27149
1!
b110 =
b101 ?
#27199
0!
#27249
1!
b111 =
b110 ?
#27299
0!
#27349
1!
b0 =
b111 ?
#27399
0!
#27449
1!
b1 =
b1000 ?
#27499
0!
#27549
1!
b10 =
b1001 ?
#27599
0!
#27649
1!
b11 =
b1010 ?
#27699
0!
#27749
14
b100 =
1!
10
05
b1011 ?
#27799
0!
#27849
b10110 %
b10 &
04
b101 =
b1010000000000000 3
1!
00
b1100 ?
#27899
0!
#27949
1!
b110 =
b1101 ?
#27999
0!
#28049
1!
b111 =
b1110 ?
#28099
0!
#28149
1!
b0 =
b1111 ?
#28199
0!
#28249
1!
b1 =
b10000 ?
#28299
0!
#28349
1!
b10 =
b10001 ?
#28399
0!
#28449
1!
b11 =
b10010 ?
#28499
0!
#28549
14
b100 =
1!
10
b10011 ?
#28599
0!
#28649
b10111 %
b11 &
04
b101 =
b10100000000000000 3
1!
00
b10100 ?
#28699
0!
#28749
1!
b110 =
b10101 ?
#28799
0!
#28849
1!
b111 =
b10110 ?
#28899
0!
#28949
1!
b0 =
b10111 ?
#28999
0!
#29049
1!
b1 =
b11000 ?
#29099
0!
#29149
1!
b10 =
b11001 ?
#29199
0!
#29249
1!
b11 =
b11010 ?
#29299
0!
#29349
14
b100 =
1!
10
b11011 ?
#29399
0!
#29449
b11000 %
b100 &
04
b101 =
b101000000000000000 3
1!
00
b11100 ?
#29499
0!
#29549
1!
b110 =
b11101 ?
#29599
0!
#29649
1!
b111 =
b11110 ?
#29699
0!
#29749
1!
b0 =
b11111 ?
#29799
0!
#29849
1!
b1 =
b100000 ?
#29899
0!
#29949
1!
b10 =
b100001 ?
#29999
0!
#30049
1!
b11 =
b100010 ?
#30099
0!
#30149
14
b100 =
1!
10
b100011 ?
#30199
0!
#30249
b11001 %
b0 &
04
b101 =
b1010000000000000000 3
1!
00
b100100 ?
#30299
0!
#30349
1!
b110 =
b100101 ?
#30399
0!
#30449
1!
b111 =
b100110 ?
#30499
0!
#30517
0$
0#
#30549
0B
1!
b0 =
b100111 ?
#30599
0!
#30649
b1 =
0C
08
1!
19
b101000 ?
#30699
0!
#30749
07
1>
1!
09
b0 ?
#30799
0!
#30849
1!
b10 =
b1 ?
#30899
0!
#30949
1!
b11 =
b10 ?
#30999
0!
#31049
14
b100 =
0>
1/
1!
15
b11 ?
#31099
0!
#31149
b11010 %
b1 &
04
b101 =
0/
1!
b100 ?
#31199
0!
#31249
1!
b110 =
b101 ?
#31299
0!
#31349
1!
b111 =
b110 ?
#31399
0!
#31449
1!
b0 =
b111 ?
#31499
0!
#31549
1!
b1 =
b1000 ?
#31599
0!
#31649
1!
b10 =
b1001 ?
#31699
0!
#31749
1!
b11 =
b1010 ?
#31799
0!
#31849
14
b100 =
1!
10
05
b1011 ?
#31899
0!
#31949
b11011 %
b10 &
04
b101 =
b10100000000000000000 3
1!
00
b1100 ?
#31999
0!
#32049
1!
b110 =
b1101 ?
#32099
0!
#32149
1!
b111 =
b1110 ?
#32199
0!
#32249
1!
b0 =
b1111 ?
#32299
0!
#32349
1!
b1 =
b10000 ?
#32399
0!
#32449
1!
b10 =
b10001 ?
#32499
0!
#32549
1!
b11 =
b10010 ?
#32599
0!
#32649
14
b100 =
1!
10
b10011 ?
#32699
0!
#32749
b11100 %
b11 &
04
b101 =
b101000000000000000000 3
1!
00
b10100 ?
#32799
0!
#32849
1!
b110 =
b10101 ?
#32899
0!
#32949
1!
b111 =
b10110 ?
#32999
0!
#33049
1!
b0 =
b10111 ?
#33099
0!
#33149
1!
b1 =
b11000 ?
#33199
0!
#33249
1!
b10 =
b11001 ?
#33299
0!
#33349
1!
b11 =
b11010 ?
#33399
0!
#33449
14
b100 =
1!
10
b11011 ?
#33499
0!
#33549
b11101 %
b100 &
04
b101 =
b1010000000000000000000 3
1!
00
b11100 ?
#33599
0!
#33649
1!
b110 =
b11101 ?
#33699
0!
#33749
1!
b111 =
b11110 ?
#33799
0!
#33849
1!
b0 =
b11111 ?
#33899
0!
#33949
1!
b1 =
b100000 ?
#33999
0!
#34049
1!
b10 =
b100001 ?
#34099
0!
#34149
1!
b11 =
b100010 ?
#34199
0!
#34249
14
b100 =
1!
10
b100011 ?
#34299
0!
#34349
b11110 %
b0 &
04
b101 =
b10100000000000000000000 3
1!
00
b100100 ?
#34399
0!
#34449
1!
b110 =
b100101 ?
#34499
0!
#34549
1!
b111 =
b100110 ?
#34586
1$
1#
#34599
0!
#34649
1B
1!
b0 =
b100111 ?
#34699
0!
#34749
b1 =
1C
18
1!
19
b101000 ?
#34799
0!
#34849
17
1>
1!
09
b0 ?
#34899
0!
#34949
1!
b10 =
b1 ?
#34999
0!
#35049
1!
b11 =
b10 ?
#35099
0!
#35149
14
b100 =
0>
1/
1!
15
b11 ?
#35199
0!
#35249
b11111 %
b1 &
04
b101 =
0/
1!
b100 ?
#35299
0!
#35349
1!
b110 =
b101 ?
#35399
0!
#35449
1!
b111 =
b110 ?
#35499
0!
#35549
1!
b0 =
b111 ?
#35599
0!
#35649
1!
b1 =
b1000 ?
#35699
0!
#35749
1!
b10 =
b1001 ?
#35799
0!
#35849
1!
b11 =
b1010 ?
#35899
0!
#35949
14
b100 =
1!
10
05
b1011 ?
#35999
0!
#36049
b100000 %
b10 &
04
b101 =
b101000000000000000000000 3
1!
00
b1100 ?
#36099
0!
#36149
1!
b110 =
b1101 ?
#36199
0!
#36249
1!
b111 =
b1110 ?
#36299
0!
#36349
1!
b0 =
b1111 ?
#36399
0!
#36449
1!
b1 =
b10000 ?
#36499
0!
#36549
1!
b10 =
b10001 ?
#36599
0!
#36649
1!
b11 =
b10010 ?
#36699
0!
#36749
14
b100 =
1!
10
b10011 ?
#36799
0!
#36849
b100001 %
b11 &
04
b101 =
b10000000000000000000000 3
1!
00
b10100 ?
#36899
0!
#36949
1!
b110 =
b10101 ?
#36999
0!
#37049
1!
b111 =
b10110 ?
#37099
0!
#37149
1!
b0 =
b10111 ?
#37199
0!
#37249
1!
b1 =
b11000 ?
#37299
0!
#37349
1!
b10 =
b11001 ?
#37399
0!
#37449
1!
b11 =
b11010 ?
#37499
0!
#37549
14
b100 =
1!
10
b11011 ?
#37599
0!
#37649
b100010 %
b100 &
04
b101 =
b100000000000000000000000 3
1!
00
b11100 ?
#37699
0!
#37749
1!
b110 =
b11101 ?
#37799
0!
#37849
1!
b111 =
b11110 ?
#37899
0!
#37949
1!
b0 =
b11111 ?
#37999
0!
#38049
1!
b1 =
b100000 ?
#38099
0!
#38149
1!
b10 =
b100001 ?
#38199
0!
#38249
1!
b11 =
b100010 ?
#38299
0!
#38349
14
b100 =
1!
10
b100011 ?
#38399
0!
#38449
b100011 %
b0 &
04
b101 =
b0 3
1!
00
b100100 ?
#38499
0!
#38549
1.
b110 =
b1000001 +
1!
b1 '
b100101 ?
#38599
0!
#38649
1!
0.
b111 =
b100110 ?
#38655
0$
0#
#38699
0!
#38749
0B
1!
b0 =
b100111 ?
#38799
0!
#38849
b1 =
0C
08
1!
19
b101000 ?
#38899
0!
#38949
07
1>
1!
09
b0 ?
#38999
0!
#39049
1!
b10 =
b1 ?
#39099
0!
#39149
1!
b11 =
b10 ?
#39199
0!
#39249
14
b100 =
0>
1/
1!
15
b11 ?
#39299
0!
#39349
b100100 %
b1 &
04
b101 =
0/
1!
b100 ?
#39399
0!
#39449
1!
b110 =
b101 ?
#39499
0!
#39549
1!
b111 =
b110 ?
#39599
0!
#39649
1!
b0 =
b111 ?
#39699
0!
#39749
1!
b1 =
b1000 ?
#39799
0!
#39849
1!
b10 =
b1001 ?
#39899
0!
#39949
1!
b11 =
b1010 ?
#39999
0!
#40049
14
b100 =
1!
10
05
b1011 ?
#40099
0!
#40149
b100101 %
b10 &
04
b101 =
1!
00
b1100 ?
#40199
0!
#40249
1!
b110 =
b1101 ?
#40299
0!
#40349
1!
b111 =
b1110 ?
#40399
0!
#40449
1!
b0 =
b1111 ?
#40499
0!
#40549
1!
b1 =
b10000 ?
#40599
0!
#40649
1!
b10 =
b10001 ?
#40699
0!
#40749
1!
b11 =
b10010 ?
#40799
0!
#40849
14
b100 =
1!
10
b10011 ?
#40899
0!
#40949
b100110 %
b11 &
04
b101 =
1!
00
b10100 ?
#40999
0!
#41049
1!
b110 =
b10101 ?
#41099
0!
#41149
1!
b111 =
b10110 ?
#41199
0!
#41249
1!
b0 =
b10111 ?
#41299
0!
#41349
1!
b1 =
b11000 ?
#41399
0!
#41449
1!
b10 =
b11001 ?
#41499
0!
#41549
1!
b11 =
b11010 ?
#41599
0!
#41649
14
b100 =
1!
10
b11011 ?
#41699
0!
#41749
b100111 %
b100 &
04
b101 =
1!
00
b11100 ?
#41799
0!
#41849
1!
b110 =
b11101 ?
#41899
0!
#41949
1!
b111 =
b11110 ?
#41999
0!
#42049
1!
b0 =
b11111 ?
#42099
0!
#42149
1!
b1 =
b100000 ?
#42199
0!
#42249
1!
b10 =
b100001 ?
#42299
0!
#42349
1!
b11 =
b100010 ?
#42399
0!
#42449
14
b100 =
1!
10
b100011 ?
#42499
0!
#42549
b101000 %
b0 &
04
b101 =
1!
00
b100100 ?
#42599
0!
#42649
1!
b110 =
b100101 ?
#42699
0!
#42724
1$
1#
#42749
1B
1!
b111 =
b100110 ?
#42799
0!
#42849
b0 =
1C
18
1!
19
b100111 ?
#42899
0!
#42949
17
b1 =
1>
1!
09
b0 ?
#42999
0!
#43049
1!
b10 =
b1 ?
#43099
0!
#43149
1!
b11 =
b10 ?
#43199
0!
#43249
14
b100 =
0>
1/
1!
15
b11 ?
#43299
0!
#43349
b101001 %
b1 &
04
b101 =
0/
1!
b100 ?
#43399
0!
#43449
1!
b110 =
b101 ?
#43499
0!
#43549
1!
b111 =
b110 ?
#43599
0!
#43649
1!
b0 =
b111 ?
#43699
0!
#43749
1!
b1 =
b1000 ?
#43799
0!
#43849
1!
b10 =
b1001 ?
#43899
0!
#43949
1!
b11 =
b1010 ?
#43999
0!
#44049
14
b100 =
1!
10
05
b1011 ?
#44099
0!
#44149
b101010 %
b10 &
04
b101 =
1!
00
b1100 ?
#44199
0!
#44249
1!
b110 =
b1101 ?
#44299
0!
#44349
1!
b111 =
b1110 ?
#44399
0!
#44449
1!
b0 =
b1111 ?
#44499
0!
#44549
1!
b1 =
b10000 ?
#44599
0!
#44649
1!
b10 =
b10001 ?
#44699
0!
#44749
1!
b11 =
b10010 ?
#44799
0!
#44849
14
b100 =
1!
10
b10011 ?
#44899
0!
#44949
b101011 %
b11 &
04
b101 =
1!
00
b10100 ?
#44999
0!
#45049
1!
b110 =
b10101 ?
#45099
0!
#45149
1!
b111 =
b10110 ?
#45199
0!
#45249
1!
b0 =
b10111 ?
#45299
0!
#45349
1!
b1 =
b11000 ?
#45399
0!
#45449
1!
b10 =
b11001 ?
#45499
0!
#45549
1!
b11 =
b11010 ?
#45599
0!
#45649
14
b100 =
1!
10
b11011 ?
#45699
0!
#45749
b101100 %
b100 &
04
b101 =
1!
00
b11100 ?
#45799
0!
#45849
1!
b110 =
b11101 ?
#45899
0!
#45949
1!
b111 =
b11110 ?
#45999
0!
#46049
1!
b0 =
b11111 ?
#46099
0!
#46149
1!
b1 =
b100000 ?
#46199
0!
#46249
1!
b10 =
b100001 ?
#46299
0!
#46349
1!
b11 =
b100010 ?
#46399
0!
#46449
14
b100 =
1!
10
b100011 ?
#46499
0!
#46549
b101101 %
b0 &
04
b101 =
1!
00
b100100 ?
#46599
0!
#46649
1!
b110 =
b100101 ?
#46699
0!
#46749
1!
b111 =
b100110 ?
#46793
0$
0#
#46799
0!
#46849
0B
1!
b0 =
b100111 ?
#46899
0!
