receiver-smoke-test.vcd
$comment Generated by nMigen $end
$date 2020-12-24 10:55:00.968751 $end
$timescale 100 ps $end
$scope module top $end
$var wire 1 ! clk_in $end
$var wire 1 " rst $end
$var wire 1 # clk_in$1 $end
$var wire 1 $ adat_in $end
$var wire 1 % adat_in$1 $end
$var wire 1 & got_sync $end
$var wire 32 ' bit_length_out $end
$var wire 1 ( rst_in $end
$var wire 1 ) rst_in$1 $end
$var wire 1 * output_enable $end
$var wire 1 + pulse_out $end
$var wire 1 , last_adat_in $end
$var wire 10 - bit_time_counter $end
$var wire 1 . bit_time_counter_enable $end
$var wire 10 / bit_time $end
$var string 1 0 fsm_state $end
$var wire 1 1 rst_in$2 $end
$var wire 1 2 read_user_data $end
$var wire 3 3 addr_out $end
$var wire 3 4 active_channel $end
$var wire 3 5 nibble_bitcounter $end
$var wire 1 6 enable_in $end
$var wire 1 7 bit_in $end
$var wire 4 8 user_data_out $end
$var wire 3 9 num_nibbles_counter_prev $end
$var wire 3 : num_nibbles_counter $end
$var wire 24 ; sample_out $end
$var wire 1 < edge_in $end
$var wire 1 = bit_in$1 $end
$var wire 1 > enable_in$1 $end
$var wire 4 ? value_out $end
$var wire 24 @ value_out$1 $end
$scope module U$1 $end
$var wire 1 ! clk_in $end
$var wire 1 " rst $end
$var wire 1 = bit_in $end
$var wire 1 > enable_in $end
$var wire 24 @ value_out $end
$upscope $end
$scope module U$2 $end
$var wire 1 ! clk_in $end
$var wire 1 " rst $end
$var wire 1 6 enable_in $end
$var wire 1 7 bit_in $end
$var wire 4 ? value_out $end
$upscope $end
$scope module U$3 $end
$var wire 1 ! clk_in $end
$var wire 1 " rst $end
$var wire 1 ( rst_in $end
$var wire 1 + pulse_out $end
$var wire 1 < edge_in $end
$var wire 1 L edge_last $end
$upscope $end
$scope module sync_time_detector $end
$var wire 1 ! clk_in $end
$var wire 1 " rst $end
$var wire 1 $ adat_in $end
$var wire 32 ' bit_length_out $end
$var wire 1 1 rst_in $end
$var wire 32 A max_sync_counter $end
$var wire 32 B last_max $end
$var wire 1 C got_sync_frame $end
$var wire 1 D last_got_sync_frame $end
$var wire 1 E rst_in$1 $end
$var wire 1 F active_in $end
$var wire 1 G got_sync_frame_pulse $end
$var wire 32 H counter_out $end
$var wire 32 I divided_counter_out $end
$scope module sync_counter $end
$var wire 1 ! clk_in $end
$var wire 1 " rst $end
$var wire 1 E rst_in $end
$var wire 1 F active_in $end
$var wire 32 H counter_out $end
$var wire 32 I divided_counter_out $end
$var wire 4 J dividing_cycle_counter $end
$var wire 1 K dividable_out $end
$upscope $end
$upscope $end
$upscope $end
$enddefinitions $end
#0
$dumpvars
0!
0"
0#
0$
0%
0&
b0 '
0(
0)
0*
0+
0,
b0 -
0.
b0 /
sFRAME_SYNC/0 0
01
02
b0 3
b0 4
b0 5
06
07
b0 8
b0 9
b0 :
b0 ;
0<
0=
0>
b0 ?
b0 @
b0 A
b0 B
0C
0D
0E
1F
0G
b0 H
b0 I
b0 J
0K
0L
$end
#41
b1 H
b1 J
1!
#83
0!
#125
b10 H
b10 J
b1 A
1!
#166
0!
#208
b11 H
b11 J
b10 A
1!
#250
0!
#291
b100 H
b100 J
b11 A
1!
#333
0!
#375
b101 H
b101 J
b100 A
1!
#416
0!
#458
b110 H
b110 J
b101 A
1!
#499
0!
#541
b111 H
b111 J
b110 A
1!
#583
0!
#624
b1000 H
b1000 J
b111 A
1!
#666
0!
#708
b1001 H
b1001 J
b1000 A
1!
#750
0!
#791
b1010 H
b0 J
1!
1K
b1001 A
b1 I
#833
0!
#875
b1011 H
b1 J
1!
b1010 A
0K
#916
0!
#958
b1100 H
b10 J
b1011 A
1!
#1000
0!
#1041
b1101 H
b11 J
b1100 A
1!
#1083
0!
#1125
b1110 H
b100 J
b1101 A
1!
#1166
0!
#1208
b1111 H
b101 J
b1110 A
1!
#1220
0!
1$
1%
0F
#1250
b1110 B
1E
1!
1,
#1291
0!
#1333
b0 H
b0 J
1!
b0 I
#1375
0!
#1416
1!
#1458
0!
#1500
1!
#1541
0!
#1583
1!
#1625
0!
#1666
1!
#1708
0!
#1750
1!
#1791
0!
#1833
1!
#1875
0!
#1916
1!
#1958
0!
#2000
1!
#2034
0!
0$
0%
1F
#2041
0E
1!
0,
#2083
0!
#2125
b1 H
b1 J
1!
#2166
0!
#2208
b10 H
b10 J
1!
#2250
0!
#2291
b11 H
b11 J
1!
#2333
0!
#2375
b100 H
b100 J
1!
#2416
0!
#2458
b101 H
b101 J
1!
#2500
0!
#2541
b110 H
b110 J
1!
#2583
0!
#2625
b111 H
b111 J
1!
#2666
0!
#2708
b1000 H
b1000 J
1!
#2749
0!
#2791
b1001 H
b1001 J
1!
#2833
0!
#2874
b1010 H
b0 J
1!
1K
b1 I
#2916
0!
#2958
b1011 H
b1 J
0K
1!
#2999
0!
#3041
b1100 H
b10 J
1!
#3083
0!
#3124
b1101 H
b11 J
1!
#3166
0!
#3208
b1110 H
b100 J
1!
#3249
0!
#3291
b1111 H
b101 J
1!
#3333
0!
#3374
b10000 H
b110 J
b1111 A
1!
#3416
0!
#3458
b10001 H
b111 J
b10000 A
1!
#3499
0!
#3541
b10010 H
b1000 J
b10001 A
1!
#3583
0!
#3624
b10011 H
b1001 J
b10010 A
1!
#3666
0!
#3708
b10100 H
b0 J
1!
1K
b10011 A
b10 I
#3749
0!
#3791
b10101 H
b1 J
1!
b10100 A
0K
#3833
0!
#3874
b10110 H
b10 J
b10101 A
1!
#3916
0!
#3958
b10111 H
b11 J
b10110 A
1!
#3999
0!
#4041
b11000 H
b100 J
b10111 A
1!
#4083
0!
#4124
b11001 H
b101 J
b11000 A
1!
#4166
0!
#4208
b11010 H
b110 J
b11001 A
1!
#4249
0!
#4291
b11011 H
b111 J
b11010 A
1!
#4333
0!
#4374
b11100 H
b1000 J
b11011 A
1!
#4416
0!
#4458
b11101 H
b1001 J
b11100 A
1!
#4499
0!
#4541
b11110 H
b0 J
1!
1K
b11101 A
b11 I
#4583
0!
#4624
b11111 H
b1 J
1!
b11110 A
0K
#4666
0!
#4708
b100000 H
b10 J
b11111 A
1!
#4749
0!
#4791
b100001 H
b11 J
b100000 A
1!
#4833
0!
#4874
b100010 H
b100 J
b100001 A
1!
#4916
0!
#4958
b100011 H
b101 J
b100010 A
1!
#4999
0!
#5041
b100100 H
b110 J
b100011 A
1!
#5083
0!
#5124
b100101 H
b111 J
b100100 A
1!
#5166
0!
#5208
b100110 H
b1000 J
b100101 A
1!
#5249
0!
#5289
1%
0F
1$
#5291
b100101 B
1E
1!
1,
#5333
0!
#5374
b0 H
b0 J
1!
b0 I
#5416
0!
#5458
1!
#5499
0!
#5541
1!
#5583
0!
#5624
1!
#5666
0!
#5708
1!
#5749
0!
#5791
1!
#5833
0!
#5874
1!
#5916
0!
#5958
1!
#5999
0!
#6041
1!
#6083
0!
#6103
0%
1F
0$
#6124
0E
1!
0,
#6166
0!
#6208
b1 H
b1 J
1!
#6249
0!
#6291
b10 H
b10 J
1!
#6333
0!
#6375
b11 H
b11 J
1!
#6416
0!
#6458
b100 H
b100 J
1!
#6500
0!
#6541
b101 H
b101 J
1!
#6583
0!
#6625
b110 H
b110 J
1!
#6666
0!
#6708
b111 H
b111 J
1!
#6750
0!
#6791
b1000 H
b1000 J
1!
#6833
0!
#6875
b1001 H
b1001 J
1!
#6916
0!
#6958
b1010 H
b0 J
1!
1K
b1 I
#7000
0!
#7041
b1011 H
b1 J
0K
1!
#7083
0!
#7125
b1100 H
b10 J
1!
#7166
0!
#7208
b1101 H
b11 J
1!
#7250
0!
#7291
b1110 H
b100 J
1!
#7333
0!
#7375
b1111 H
b101 J
1!
#7416
0!
#7458
b10000 H
b110 J
1!
#7500
0!
#7541
b10001 H
b111 J
1!
#7583
0!
#7625
b10010 H
b1000 J
1!
#7666
0!
#7708
b10011 H
b1001 J
1!
#7750
0!
#7791
b10100 H
b0 J
1!
1K
b10 I
#7833
0!
#7875
b10101 H
b1 J
0K
1!
#7916
0!
#7958
b10110 H
b10 J
1!
#8000
0!
#8041
b10111 H
b11 J
1!
#8083
0!
#8125
b11000 H
b100 J
1!
#8166
0!
#8208
b11001 H
b101 J
1!
#8250
0!
#8291
b11010 H
b110 J
1!
#8333
0!
#8375
b11011 H
b111 J
1!
#8416
0!
#8458
b11100 H
b1000 J
1!
#8500
0!
#8541
b11101 H
b1001 J
1!
#8583
0!
#8625
b11110 H
b0 J
1!
1K
b11 I
#8666
0!
#8708
b11111 H
b1 J
0K
1!
#8750
0!
#8791
b100000 H
b10 J
1!
#8833
0!
#8875
b100001 H
b11 J
1!
#8916
0!
#8958
b100010 H
b100 J
1!
#9000
0!
#9041
b100011 H
b101 J
1!
#9083
0!
#9125
b100100 H
b110 J
1!
#9166
0!
#9208
b100101 H
b111 J
1!
#9250
0!
#9291
b100110 H
b1000 J
1!
#9333
0!
#9358
1%
0F
1$
#9375
1E
1!
1,
#9416
0!
#9458
b0 H
b0 J
1!
b0 I
#9500
0!
#9541
1!
#9583
0!
#9625
1!
#9666
0!
#9708
1!
#9750
0!
#9791
1!
#9833
0!
#9875
1!
#9916
0!
#9958
1!
#10000
0!
#10041
1!
#10083
0!
#10125
1!
#10166
0!
#10172
0%
1F
0$
#10208
0E
1!
0,
#10250
0!
#10291
b1 H
b1 J
1!
#10333
0!
#10375
b10 H
b10 J
1!
#10416
0!
#10458
b11 H
b11 J
1!
#10500
0!
#10541
b100 H
b100 J
1!
#10583
0!
#10625
b101 H
b101 J
1!
#10666
0!
#10708
b110 H
b110 J
1!
#10750
0!
#10791
b111 H
b111 J
1!
#10833
0!
#10875
b1000 H
b1000 J
1!
#10916
0!
#10958
b1001 H
b1001 J
1!
#11000
0!
#11041
b1010 H
b0 J
1!
1K
b1 I
#11083
0!
#11125
b1011 H
b1 J
0K
1!
#11166
0!
#11208
b1100 H
b10 J
1!
#11250
0!
#11291
b1101 H
b11 J
1!
#11333
0!
#11375
b1110 H
b100 J
1!
#11416
0!
#11458
b1111 H
b101 J
1!
#11500
0!
#11541
b10000 H
b110 J
1!
#11583
0!
#11625
b10001 H
b111 J
1!
#11666
0!
#11708
b10010 H
b1000 J
1!
#11750
0!
#11791
b10011 H
b1001 J
1!
#11833
0!
#11875
b10100 H
b0 J
1!
1K
b10 I
#11916
0!
#11958
b10101 H
b1 J
0K
1!
#12000
0!
#12041
b10110 H
b10 J
1!
#12083
0!
#12125
b10111 H
b11 J
1!
#12166
0!
#12208
b11000 H
b100 J
1!
#12250
0!
#12291
b11001 H
b101 J
1!
#12333
0!
#12375
b11010 H
b110 J
1!
#12416
0!
#12458
b11011 H
b111 J
1!
#12500
0!
#12541
b11100 H
b1000 J
1!
#12583
0!
#12625
b11101 H
b1001 J
1!
#12666
0!
#12708
b11110 H
b0 J
1!
1K
b11 I
#12750
0!
#12791
b11111 H
b1 J
0K
1!
#12833
0!
#12875
b100000 H
b10 J
1!
#12916
0!
#12958
b100001 H
b11 J
1!
#13000
0!
#13041
b100010 H
b100 J
1!
#13083
0!
#13125
b100011 H
b101 J
1!
#13166
0!
#13208
b100100 H
b110 J
1!
#13250
0!
#13291
b100101 H
b111 J
1!
#13333
0!
#13375
b100110 H
b1000 J
1!
#13416
0!
#13427
1%
0F
1$
#13458
1E
1!
1,
#13500
0!
#13541
b0 H
b0 J
1!
b0 I
#13583
0!
#13625
1!
#13666
0!
#13708
1!
#13750
0!
#13791
1!
#13833
0!
#13875
1!
#13916
0!
#13958
1!
#14000
0!
#14041
1!
#14083
0!
#14125
1!
#14166
0!
#14208
1!
#14241
0!
0$
0%
1F
#14250
0E
1!
0,
#14291
0!
#14333
b1 H
b1 J
1!
#14375
0!
#14416
b10 H
b10 J
1!
#14458
0!
#14500
b11 H
b11 J
1!
#14541
0!
#14583
b100 H
b100 J
1!
#14625
0!
#14666
b101 H
b101 J
1!
#14708
0!
#14750
b110 H
b110 J
1!
#14791
0!
#14833
b111 H
b111 J
1!
#14875
0!
#14916
b1000 H
b1000 J
1!
#14958
0!
#15000
b1001 H
b1001 J
1!
#15041
0!
#15083
b1010 H
b0 J
1!
1K
b1 I
#15125
0!
#15166
b1011 H
b1 J
0K
1!
#15208
0!
#15250
b1100 H
b10 J
1!
#15291
0!
#15333
b1101 H
b11 J
1!
#15375
0!
#15416
b1110 H
b100 J
1!
#15458
0!
#15500
b1111 H
b101 J
1!
#15541
0!
#15583
b10000 H
b110 J
1!
#15625
0!
#15666
b10001 H
b111 J
1!
#15708
0!
#15750
b10010 H
b1000 J
1!
#15791
0!
#15833
b10011 H
b1001 J
1!
#15875
0!
#15916
b10100 H
b0 J
1!
1K
b10 I
#15958
0!
#16000
b10101 H
b1 J
0K
1!
#16041
0!
#16083
b10110 H
b10 J
1!
#16125
0!
#16166
b10111 H
b11 J
1!
#16208
0!
#16250
b11000 H
b100 J
1!
#16291
0!
#16333
b11001 H
b101 J
1!
#16375
0!
#16416
b11010 H
b110 J
1!
#16458
0!
#16500
b11011 H
b111 J
1!
#16541
0!
#16583
b11100 H
b1000 J
1!
#16625
0!
#16666
b11101 H
b1001 J
1!
#16708
0!
#16750
b11110 H
b0 J
1!
1K
b11 I
#16791
0!
#16833
b11111 H
b1 J
0K
1!
#16875
0!
#16916
b100000 H
b10 J
1!
#16958
0!
#17000
b100001 H
b11 J
1!
#17041
0!
#17083
b100010 H
b100 J
1!
#17125
0!
#17166
b100011 H
b101 J
1!
#17208
0!
#17250
b100100 H
b110 J
1!
#17291
0!
#17333
b100101 H
b111 J
1!
#17375
0!
#17416
b100110 H
b1000 J
1!
#17458
0!
#17500
b100111 H
b1001 J
b100110 A
1!
#17541
0!
#17583
b101000 H
b0 J
1!
1K
b100111 A
b100 I
#17625
0!
#17666
b101001 H
b1 J
1!
b101000 A
0K
#17708
0!
#17750
b101010 H
b10 J
b101001 A
1!
#17791
0!
#17833
b101011 H
b11 J
b101010 A
1!
#17875
0!
#17916
b101100 H
b100 J
b101011 A
1!
#17958
0!
#18000
b101101 H
b101 J
b101100 A
1!
#18041
0!
#18083
b101110 H
b110 J
b101101 A
1!
#18125
0!
#18166
b101111 H
b111 J
b101110 A
1!
#18208
0!
#18250
b110000 H
b1000 J
b101111 A
1!
#18291
0!
#18333
b110001 H
b1001 J
b110000 A
1!
#18375
0!
#18416
b110010 H
b0 J
1!
1K
b110001 A
b101 I
#18458
0!
#18500
b110011 H
b1 J
1!
b110010 A
0K
#18541
0!
#18583
b110100 H
b10 J
b110011 A
1!
#18625
0!
#18666
b110101 H
b11 J
b110100 A
1!
#18708
0!
#18750
b110110 H
b100 J
b110101 A
1!
#18791
0!
#18833
b110111 H
b101 J
b110110 A
1!
#18875
0!
#18916
b111000 H
b110 J
b110111 A
1!
#18958
0!
#19000
b111001 H
b111 J
b111000 A
1!
#19041
0!
#19083
b111010 H
b1000 J
b111001 A
1!
#19125
0!
#19166
b111011 H
b1001 J
b111010 A
1!
#19208
0!
#19250
b111100 H
b0 J
1!
1K
b111011 A
b110 I
#19291
0!
#19333
b111101 H
b1 J
1!
b111100 A
0K
#19375
0!
#19416
b111110 H
b10 J
b111101 A
1!
#19458
0!
#19500
b111111 H
b11 J
b111110 A
1!
#19541
0!
#19583
b1000000 H
b100 J
b111111 A
1!
#19625
0!
#19666
b1000001 H
b101 J
b1000000 A
1!
#19708
0!
#19750
b1000010 H
b110 J
b1000001 A
1!
#19791
0!
#19833
b1000011 H
b111 J
b1000010 A
1!
#19875
0!
#19916
b1000100 H
b1000 J
b1000011 A
1!
#19958
0!
#20000
b1000101 H
b1001 J
b1000100 A
1!
#20041
0!
#20083
b1000110 H
b0 J
1!
1K
b1000101 A
b111 I
#20125
0!
#20166
b1000111 H
b1 J
1!
b1000110 A
0K
#20208
0!
#20250
b1001000 H
b10 J
b1000111 A
1!
#20291
0!
#20333
b1001001 H
b11 J
b1001000 A
1!
#20375
0!
#20416
b1001010 H
b100 J
b1001001 A
1!
#20458
0!
#20500
b1001011 H
b101 J
b1001010 A
1!
#20541
0!
#20583
b1001100 H
b110 J
b1001011 A
1!
#20625
0!
#20666
b1001101 H
b111 J
b1001100 A
1!
#20708
0!
#20750
b1001110 H
b1000 J
b1001101 A
1!
#20791
0!
#20833
b1001111 H
b1001 J
b1001110 A
1!
#20875
0!
#20916
b1010000 H
b0 J
1!
1K
b1001111 A
b1000 I
#20958
0!
#21000
b1010001 H
b1 J
1!
b1010000 A
0K
#21041
0!
#21083
b1010010 H
b10 J
b1010001 A
1!
#21125
0!
#21166
b1010011 H
b11 J
b1010010 A
1!
#21208
0!
#21250
b1010100 H
b100 J
b1010011 A
1!
#21291
0!
#21333
b1010101 H
b101 J
b1010100 A
1!
#21374
0!
#21416
b1010110 H
b110 J
b1010101 A
1!
#21458
0!
#21499
b1010111 H
b111 J
b1010110 A
1!
#21541
0!
#21583
b1011000 H
b1000 J
b1010111 A
1!
#21624
0!
#21666
b1011001 H
b1001 J
b1011000 A
1!
#21708
0!
#21749
b1011010 H
b0 J
1!
1K
b1011001 A
b1001 I
#21791
0!
#21833
b1011011 H
b1 J
1!
b1011010 A
0K
#21874
0!
#21916
b1011100 H
b10 J
b1011011 A
1!
#21958
0!
#21999
b1011101 H
b11 J
b1011100 A
1!
#22041
0!
#22083
b1011110 H
b100 J
b1011101 A
1!
#22124
0!
#22166
b1011111 H
b101 J
b1011110 A
1!
#22208
0!
#22249
b1100000 H
b110 J
b1011111 A
1!
#22291
0!
#22333
b1100001 H
b111 J
b1100000 A
1!
#22374
0!
#22379
1%
0F
1$
#22416
1E
1G
1!
1C
1,
b1100000 B
#22458
0!
#22499
b0 H
b0 J
0G
1D
1&
b0 I
b1001 '
#22541
b11 -
sFRAME/1 0
1!
b1001 /
#22583
0!
#22624
1.
12
sSYNC_BIT/3 0
1!
#22666
0!
#22708
1!
b100 -
#22749
0!
#22791
1!
b101 -
#22833
0!
#22874
1!
b110 -
#22916
0!
#22958
b111 5
02
1!
sUSER_DATA/4 0
b111 -
#22999
0!
#23041
1!
b1000 -
#23083
0!
#23124
1!
b1001 -
#23166
0!
#23193
0%
1F
0$
#23208
0,
0E
1!
b0 -
#23249
0!
#23291
b1 H
b1 J
1!
b1 -
#23333
0!
#23374
b10 H
b10 J
1!
b10 -
#23416
0!
#23458
b11 H
b11 J
1!
b11 -
#23499
0!
#23541
b100 H
b100 J
1!
b100 -
#23583
0!
#23624
b101 H
b0 5
b101 J
1!
16
b101 -
#23666
0!
#23708
b110 H
b110 J
1!
06
b110 -
#23749
0!
#23791
b111 H
b111 J
1!
b111 -
#23833
0!
#23874
b1000 H
b1000 J
1!
b1000 -
#23916
0!
#23958
b1001 H
b1001 J
1!
b1001 -
#23999
0!
#24041
b1010 H
b0 J
1!
1K
b1 I
b0 -
#24083
0!
#24124
b1011 H
b1 J
1!
0K
b1 -
#24166
0!
#24208
b1100 H
b10 J
1!
b10 -
#24249
0!
#24291
b1101 H
b11 J
1!
b11 -
#24333
0!
#24374
b1110 H
b100 J
1!
b100 -
#24416
0!
#24458
b1111 H
b1 5
b101 J
1!
16
b101 -
#24499
0!
#24541
b10000 H
b110 J
1!
06
b110 -
#24583
0!
#24624
b10001 H
b111 J
1!
b111 -
#24666
0!
#24708
b10010 H
b1000 J
1!
b1000 -
#24749
0!
#24791
b10011 H
b1001 J
1!
b1001 -
#24833
0!
#24874
b10100 H
b0 J
1!
1K
b10 I
b0 -
#24916
0!
#24958
b10101 H
b1 J
1!
0K
b1 -
#24999
0!
#25041
b10110 H
b10 J
1!
b10 -
#25083
0!
#25124
b10111 H
b11 J
1!
b11 -
#25166
0!
#25208
b11000 H
b100 J
1!
b100 -
#25249
0!
#25291
b11001 H
b10 5
b101 J
1!
16
b101 -
#25333
0!
#25374
b11010 H
b110 J
1!
06
b110 -
#25416
0!
#25458
b11011 H
b111 J
1!
b111 -
#25499
0!
#25541
b11100 H
b1000 J
1!
b1000 -
#25583
0!
#25624
b11101 H
b1001 J
1!
b1001 -
#25666
0!
#25708
b11110 H
b0 J
1!
1K
b11 I
b0 -
#25749
0!
#25791
b11111 H
b1 J
1!
0K
b1 -
#25833
0!
#25874
b100000 H
b10 J
1!
b10 -
#25916
0!
#25958
b100001 H
b11 J
1!
b11 -
#25999
0!
#26041
b100010 H
b100 J
1!
b100 -
#26083
0!
#26124
b100011 H
b11 5
b101 J
1!
16
b101 -
#26166
0!
#26208
b100100 H
b110 J
1!
06
b110 -
#26249
0!
#26291
b100101 H
b111 J
1!
b111 -
#26333
0!
#26374
b100110 H
b1000 J
1!
b1000 -
#26416
0!
#26448
1%
0F
1$
#26458
1E
1!
sSYNC_BIT/3 0
1,
b0 -
#26499
0!
#26541
b0 H
b0 J
1!
b0 I
b1 -
#26583
0!
#26624
1!
b10 -
#26666
0!
#26708
1!
b11 -
#26749
0!
#26791
1!
b100 -
#26833
0!
#26874
1!
b101 -
#26916
0!
#26958
1!
b110 -
#26999
0!
#27041
b111 5
sDATA_NIBBLE/5 0
1!
b111 -
#27083
0!
#27124
1!
b1000 -
#27166
0!
#27208
1!
b1001 -
#27249
0!
#27262
0%
1F
0$
#27291
0,
0E
1!
b0 -
#27333
0!
#27374
b1 H
b1 J
1!
b1 -
#27416
0!
#27458
b10 H
b10 J
1!
b10 -
#27499
0!
#27541
b11 H
b11 J
1!
b11 -
#27583
0!
#27624
b100 H
b100 J
1!
b100 -
#27666
0!
#27708
b101 H
b0 5
b101 J
1!
1>
b101 -
#27749
0!
#27791
b110 H
b110 J
1!
0>
b110 -
#27833
0!
#27874
b111 H
b111 J
1!
b111 -
#27916
0!
#27958
b1000 H
b1000 J
1!
b1000 -
#27999
0!
#28041
b1001 H
b1001 J
1!
b1001 -
#28083
0!
#28124
b1010 H
b0 J
1!
1K
b1 I
b0 -
#28166
0!
#28208
b1011 H
b1 J
1!
0K
b1 -
#28249
0!
#28291
b1100 H
b10 J
1!
b10 -
#28333
0!
#28374
b1101 H
b11 J
1!
b11 -
#28416
0!
#28458
b1110 H
b100 J
1!
b100 -
#28499
0!
#28541
b1111 H
b1 5
b101 J
1!
1>
b101 -
#28583
0!
#28624
b10000 H
b110 J
1!
0>
b110 -
#28666
0!
#28708
b10001 H
b111 J
1!
b111 -
#28749
0!
#28791
b10010 H
b1000 J
1!
b1000 -
#28833
0!
#28874
b10011 H
b1001 J
1!
b1001 -
#28916
0!
#28958
b10100 H
b0 J
1!
1K
b10 I
b0 -
#28999
0!
#29041
b10101 H
b1 J
1!
0K
b1 -
#29083
0!
#29124
b10110 H
b10 J
1!
b10 -
#29166
0!
#29208
b10111 H
b11 J
1!
b11 -
#29249
0!
#29291
b11000 H
b100 J
1!
b100 -
#29333
0!
#29374
b11001 H
b10 5
b101 J
1!
1>
b101 -
#29416
0!
#29458
b11010 H
b110 J
1!
0>
b110 -
#29499
0!
#29541
b11011 H
b111 J
1!
b111 -
#29583
0!
#29624
b11100 H
b1000 J
1!
b1000 -
#29666
0!
#29708
b11101 H
b1001 J
1!
b1001 -
#29749
0!
#29791
b11110 H
b0 J
1!
1K
b11 I
b0 -
#29833
0!
#29874
b11111 H
b1 J
1!
0K
b1 -
#29916
0!
#29958
b100000 H
b10 J
1!
b10 -
#29999
0!
#30041
b100001 H
b11 J
1!
b11 -
#30083
0!
#30124
b100010 H
b100 J
1!
b100 -
#30166
0!
#30208
b100011 H
b11 5
b101 J
1!
1>
b101 -
#30249
0!
#30291
b100100 H
b110 J
1!
0>
b110 -
#30333
0!
#30374
b100101 H
b111 J
1!
b111 -
#30416
0!
#30458
b100110 H
b1000 J
1!
b1000 -
#30499
0!
#30517
1%
0F
1$
#30541
1,
1E
1!
b0 -
#30583
0!
#30624
b0 H
b0 J
1!
b0 I
b1 -
#30666
0!
#30708
1!
b10 -
#30749
0!
#30791
1!
b11 -
#30833
0!
#30874
1!
b100 -
#30916
0!
#30958
b100 5
1=
1!
b101 -
#30999
0!
#31041
b1 :
sSYNC_BIT/3 0
1!
b110 -
#31083
0!
#31124
b111 5
sDATA_NIBBLE/5 0
1!
b111 -
#31166
0!
#31208
1!
b1000 -
#31249
0!
#31291
1!
b1001 -
#31331
0!
0$
0%
1F
#31333
0,
0E
1!
b0 -
#31374
0!
#31416
b1 H
b1 J
1!
b1 -
#31458
0!
#31499
b10 H
b10 J
1!
b10 -
#31541
0!
#31583
b11 H
b11 J
1!
b11 -
#31624
0!
#31666
b100 H
b100 J
1!
b100 -
#31708
0!
#31749
b101 H
b0 5
b101 J
0=
1!
1>
b101 -
#31791
0!
#31833
b110 H
b110 J
1!
0>
b110 -
#31874
0!
#31916
b111 H
b111 J
1!
b111 -
#31958
0!
#31999
b1000 H
b1000 J
1!
b1000 -
#32041
0!
#32083
b1001 H
b1001 J
1!
b1001 -
#32124
0!
#32166
b1010 H
b0 J
1!
1K
b1 I
b0 -
#32208
0!
#32249
b1011 H
b1 J
1!
0K
b1 -
#32291
0!
#32333
b1100 H
b10 J
1!
b10 -
#32374
0!
#32416
b1101 H
b11 J
1!
b11 -
#32458
0!
#32499
b1110 H
b100 J
1!
b100 -
#32541
0!
#32583
b1111 H
b1 5
b101 J
1!
1>
b101 -
#32624
0!
#32666
b10000 H
b110 J
1!
0>
b110 -
#32708
0!
#32749
b10001 H
b111 J
1!
b111 -
#32791
0!
#32833
b10010 H
b1000 J
1!
b1000 -
#32874
0!
#32916
b10011 H
b1001 J
1!
b1001 -
#32958
0!
#32999
b10100 H
b0 J
1!
1K
b10 I
b0 -
#33041
0!
#33083
b10101 H
b1 J
1!
0K
b1 -
#33124
0!
#33166
b10110 H
b10 J
1!
b10 -
#33208
0!
#33249
b10111 H
b11 J
1!
b11 -
#33291
0!
#33333
b11000 H
b100 J
1!
b100 -
#33374
0!
#33416
b11001 H
b10 5
b101 J
1!
1>
b101 -
#33458
0!
#33499
b11010 H
b110 J
1!
0>
b110 -
#33541
0!
#33583
b11011 H
b111 J
1!
b111 -
#33624
0!
#33666
b11100 H
b1000 J
1!
b1000 -
#33708
0!
#33749
b11101 H
b1001 J
1!
b1001 -
#33791
0!
#33833
b11110 H
b0 J
1!
1K
b11 I
b0 -
#33874
0!
#33916
b11111 H
b1 J
1!
0K
b1 -
#33958
0!
#33999
b100000 H
b10 J
1!
b10 -
#34041
0!
#34083
b100001 H
b11 J
1!
b11 -
#34124
0!
#34166
b100010 H
b100 J
1!
b100 -
#34208
0!
#34249
b100011 H
b11 5
b101 J
1!
1>
b101 -
#34291
0!
#34333
b100100 H
b110 J
1!
0>
b110 -
#34374
0!
#34416
b100101 H
b111 J
1!
b111 -
#34458
0!
#34499
b100110 H
b1000 J
1!
b1000 -
#34541
0!
#34583
b100111 H
b1001 J
1!
b1001 -
#34586
0!
1$
1%
0F
#34624
1,
1E
1!
b0 -
#34666
0!
#34708
b0 H
b0 J
1!
b0 I
b1 -
#34749
0!
#34791
1!
b10 -
#34833
0!
#34874
1!
b11 -
#34916
0!
#34958
1!
b100 -
#34999
0!
#35041
b100 5
1=
1!
b101 -
#35083
0!
#35124
b10 :
1!
sSYNC_BIT/3 0
b1 9
b110 -
#35166
0!
#35208
b111 5
sDATA_NIBBLE/5 0
1!
b111 -
#35249
0!
#35291
1!
b1000 -
#35333
0!
#35374
1!
b1001 -
#35400
0!
0$
0%
1F
#35416
0,
0E
1!
b0 -
#35458
0!
#35499
b1 H
b1 J
1!
b1 -
#35541
0!
#35583
b10 H
b10 J
1!
b10 -
#35624
0!
#35666
b11 H
b11 J
1!
b11 -
#35708
0!
#35749
b100 H
b100 J
1!
b100 -
#35791
0!
#35833
b101 H
b0 5
b101 J
0=
1!
1>
b101 -
#35874
0!
#35916
b110 H
b110 J
1!
0>
b110 -
#35958
0!
#35999
b111 H
b111 J
1!
b111 -
#36041
0!
#36083
b1000 H
b1000 J
1!
b1000 -
#36124
0!
#36166
b1001 H
b1001 J
1!
b1001 -
#36208
0!
#36249
b1010 H
b0 J
1!
1K
b1 I
b0 -
#36291
0!
#36333
b1011 H
b1 J
1!
0K
b1 -
#36374
0!
#36416
b1100 H
b10 J
1!
b10 -
#36458
0!
#36499
b1101 H
b11 J
1!
b11 -
#36541
0!
#36583
b1110 H
b100 J
1!
b100 -
#36624
0!
#36666
b1111 H
b1 5
b101 J
1!
1>
b101 -
#36708
0!
#36749
b10000 H
b110 J
1!
0>
b110 -
#36791
0!
#36833
b10001 H
b111 J
1!
b111 -
#36874
0!
#36916
b10010 H
b1000 J
1!
b1000 -
#36958
0!
#36999
b10011 H
b1001 J
1!
b1001 -
#37041
0!
#37083
b10100 H
b0 J
1!
1K
b10 I
b0 -
#37124
0!
#37166
b10101 H
b1 J
1!
0K
b1 -
#37208
0!
#37249
b10110 H
b10 J
1!
b10 -
#37291
0!
#37333
b10111 H
b11 J
1!
b11 -
#37374
0!
#37416
b11000 H
b100 J
1!
b100 -
#37458
0!
#37499
b11001 H
b10 5
b101 J
1!
1>
b101 -
#37541
0!
#37583
b11010 H
b110 J
1!
0>
b110 -
#37624
0!
#37666
b11011 H
b111 J
1!
b111 -
#37708
0!
#37749
b11100 H
b1000 J
1!
b1000 -
#37791
0!
#37833
b11101 H
b1001 J
1!
b1001 -
#37874
0!
#37916
b11110 H
b0 J
1!
1K
b11 I
b0 -
#37958
0!
#37999
b11111 H
b1 J
1!
0K
b1 -
#38041
0!
#38083
b100000 H
b10 J
1!
b10 -
#38124
0!
#38166
b100001 H
b11 J
1!
b11 -
#38208
0!
#38249
b100010 H
b100 J
1!
b100 -
#38291
0!
#38333
b100011 H
b11 5
b101 J
1!
1>
b101 -
#38374
0!
#38416
b100100 H
b110 J
1!
0>
b110 -
#38458
0!
#38499
b100101 H
b111 J
1!
b111 -
#38541
0!
#38583
b100110 H
b1000 J
1!
b1000 -
#38624
0!
