receiver-smoke-test-44100.vcd
$comment Generated by nMigen $end
$date 2021-01-23 09:52:00.891928 $end
$timescale 100 ps $end
$scope module top $end
$var wire 1 ! clk $end
$var wire 1 " rst $end
$var wire 1 # nrzi_in $end
$var wire 1 $ adat_in $end
$var wire 8 % bit_counter $end
$var wire 3 & nibble_counter $end
$var wire 3 ' active_channel $end
$var wire 1 ( edge_in $end
$var string 1 ) fsm_state $end
$var wire 4 * user_data_out $end
$var wire 8 + output_at $end
$var wire 3 , addr_out $end
$var wire 24 - sample_out $end
$var wire 1 . output_enable $end
$var wire 1 / bit_in $end
$var wire 1 0 enable_in $end
$var wire 1 1 clear_in $end
$var wire 1 2 running $end
$var wire 24 3 value_out $end
$var wire 1 4 data_out_en $end
$var wire 1 5 data_out $end
$var wire 1 6 pulse_out $end
$scope module framedata_shifter $end
$var wire 1 ! clk $end
$var wire 1 " rst $end
$var wire 1 / bit_in $end
$var wire 1 0 enable_in $end
$var wire 1 1 clear_in $end
$var wire 24 3 value_out $end
$upscope $end
$scope module nrzi_decoder $end
$var wire 1 ! clk $end
$var wire 1 " rst $end
$var wire 1 2 running $end
$var wire 1 4 data_out_en $end
$var wire 1 5 data_out $end
$var wire 1 7 nrzi_prev $end
$var wire 1 8 nrzi $end
$var wire 1 9 got_edge $end
$var wire 1 : reset_in $end
$var wire 1 ; active_in $end
$var string 1 < fsm_state $end
$var wire 7 = bit_counter $end
$var wire 1 > output $end
$var wire 8 ? dead_counter $end
$var wire 7 @ counter_out $end
$var wire 7 A divided_counter_out $end
$scope module cdc $end
$var wire 1 ! clk $end
$var wire 1 " rst $end
$var wire 1 # nrzi_in $end
$var wire 1 8 nrzi $end
$var wire 1 B stage0 $end
$var wire 1 C stage1 $end
$upscope $end
$scope module sync_counter $end
$var wire 1 ! clk $end
$var wire 1 " rst $end
$var wire 1 : reset_in $end
$var wire 1 ; active_in $end
$var wire 7 @ counter_out $end
$var wire 7 A divided_counter_out $end
$var wire 4 D dividing_cycle_counter $end
$var wire 1 E dividable_out $end
$upscope $end
$upscope $end
$scope module output_pulser $end
$var wire 1 ! clk $end
$var wire 1 " rst $end
$var wire 1 ( edge_in $end
$var wire 1 6 pulse_out $end
$var wire 1 F edge_last $end
$upscope $end
$upscope $end
$enddefinitions $end
#0
$dumpvars
0!
0"
0#
0$
b0 %
b0 &
b0 '
0(
sWAIT_SYNC/0 )
b0 *
b0 +
b0 ,
b0 -
0.
0/
00
01
02
b0 3
04
05
06
07
08
09
0:
0;
sSYNC/0 <
b0 =
1>
b0 ?
b0 @
b0 A
0B
0C
b0 D
0E
0F
$end
#50
1;
1!
#100
0!
#150
b1 @
1!
b1 D
#200
0!
#250
b10 @
1!
b10 D
#300
0!
#349
b11 @
1!
b11 D
#399
0!
#442
1#
1$
#449
b100 @
1!
1B
b100 D
#499
0!
#549
1!
b101 D
b101 @
19
18
1C
#600
0!
#650
1!
17
1:
b110 D
b110 @
09
#700
0!
#750
b0 @
1!
0:
b0 D
#800
0!
#850
b1 @
1!
b1 D
#900
0!
#950
b10 @
1!
b10 D
#1000
0!
#1050
b11 @
1!
b11 D
#1100
0!
#1150
b100 @
1!
b100 D
#1200
0!
#1250
b101 @
1!
b101 D
#1300
0!
#1328
0#
0$
#1350
b110 @
1!
0B
b110 D
#1400
0!
#1450
1!
b111 D
b111 @
19
08
0C
#1500
0!
#1550
1!
07
1:
b1000 D
b1000 @
09
#1600
0!
#1650
b0 @
1!
0:
b0 D
#1700
0!
#1750
b1 @
1!
b1 D
#1800
0!
#1850
b10 @
1!
b10 D
#1900
0!
#1950
b11 @
1!
b11 D
#2000
0!
#2050
b100 @
1!
b100 D
#2100
0!
#2150
b101 @
1!
b101 D
#2200
0!
#2250
b110 @
1!
b110 D
#2300
0!
#2350
b111 @
1!
b111 D
#2400
0!
#2450
b1000 @
1!
b1000 D
#2500
0!
#2550
b1001 @
1!
b1001 D
#2600
0!
#2650
b1010 @
1!
b1010 D
#2700
0!
#2750
b1011 @
1!
b1011 D
#2800
0!
#2850
1!
1E
b0 D
b1 A
b1100 @
#2900
0!
#2950
b1101 @
1!
0E
b1 D
#3000
0!
#3050
b1110 @
1!
b10 D
#3100
0!
#3150
b1111 @
1!
b11 D
#3200
0!
#3250
b10000 @
1!
b100 D
#3300
0!
#3350
b10001 @
1!
b101 D
#3400
0!
#3450
b10010 @
1!
b110 D
#3500
0!
#3550
b10011 @
1!
b111 D
#3600
0!
#3650
b10100 @
1!
b1000 D
#3700
0!
#3750
b10101 @
1!
b1001 D
#3800
0!
#3850
b10110 @
1!
b1010 D
#3900
0!
#3950
b10111 @
1!
b1011 D
#4000
0!
#4050
1!
1E
b0 D
b10 A
b11000 @
#4100
0!
#4150
b11001 @
1!
0E
b1 D
#4200
0!
#4250
b11010 @
1!
b10 D
#4300
0!
#4350
b11011 @
1!
b11 D
#4400
0!
#4450
b11100 @
1!
b100 D
#4500
0!
#4550
b11101 @
1!
b101 D
#4600
0!
#4650
b11110 @
1!
b110 D
#4700
0!
#4750
b11111 @
1!
b111 D
#4800
0!
#4850
b100000 @
1!
b1000 D
#4900
0!
#4950
b100001 @
1!
b1001 D
#5000
0!
#5050
b100010 @
1!
b1010 D
#5100
0!
#5150
b100011 @
1!
b1011 D
#5200
0!
#5249
1!
1E
b0 D
b11 A
b100100 @
#5299
0!
#5349
b100101 @
1!
0E
b1 D
#5399
0!
#5449
b100110 @
1!
b10 D
#5499
0!
#5549
b100111 @
1!
b11 D
#5599
0!
#5649
b101000 @
1!
b100 D
#5699
0!
#5749
b101001 @
1!
b101 D
#5799
0!
#5849
b101010 @
1!
b110 D
#5899
0!
#5949
b101011 @
1!
b111 D
#5999
0!
#6049
b101100 @
1!
b1000 D
#6099
0!
#6149
b101101 @
1!
b1001 D
#6199
0!
#6249
b101110 @
1!
b1010 D
#6299
0!
#6349
b101111 @
1!
b1011 D
#6399
0!
#6449
1!
1E
b0 D
b100 A
b110000 @
#6499
0!
#6549
b110001 @
1!
0E
b1 D
#6599
0!
#6649
b110010 @
1!
b10 D
#6699
0!
#6749
b110011 @
1!
b11 D
#6799
0!
#6849
b110100 @
1!
b100 D
#6899
0!
#6949
b110101 @
1!
b101 D
#6999
0!
#7049
b110110 @
1!
b110 D
#7099
0!
#7149
b110111 @
1!
b111 D
#7199
0!
#7249
b111000 @
1!
b1000 D
#7299
0!
#7349
b111001 @
1!
b1001 D
#7399
0!
#7449
b111010 @
1!
b1010 D
#7499
0!
#7549
b111011 @
1!
b1011 D
#7599
0!
#7649
1!
1E
b0 D
b101 A
b111100 @
#7699
0!
#7749
b111101 @
1!
0E
b1 D
#7799
0!
#7849
b111110 @
1!
b10 D
#7899
0!
#7949
b111111 @
1!
b11 D
#7999
0!
#8049
b1000000 @
1!
b100 D
#8099
0!
#8149
b1000001 @
1!
b101 D
#8199
0!
#8249
b1000010 @
1!
b110 D
#8299
0!
#8349
b1000011 @
1!
b111 D
#8399
0!
#8449
b1000100 @
1!
b1000 D
#8499
0!
#8549
b1000101 @
1!
b1001 D
#8599
0!
#8649
b1000110 @
1!
b1010 D
#8699
0!
#8749
b1000111 @
1!
b1011 D
#8799
0!
#8849
1!
1E
b0 D
b110 A
b1001000 @
#8899
0!
#8949
b1001001 @
1!
0E
b1 D
#8999
0!
#9049
b1001010 @
1!
b10 D
#9099
0!
#9149
b1001011 @
1!
b11 D
#9199
0!
#9249
b1001100 @
1!
b100 D
#9299
0!
#9349
b1001101 @
1!
b101 D
#9399
0!
#9449
b1001110 @
1!
b110 D
#9499
0!
#9549
b1001111 @
1!
b111 D
#9599
0!
#9649
b1010000 @
1!
b1000 D
#9699
0!
#9749
b1010001 @
1!
b1001 D
#9799
0!
#9849
b1010010 @
1!
b1010 D
#9899
0!
#9949
b1010011 @
1!
b1011 D
#9999
0!
#10049
1!
1E
b0 D
b111 A
b1010100 @
#10099
0!
#10149
b1010101 @
1!
0E
b1 D
#10199
0!
#10249
b1010110 @
1!
b10 D
#10299
0!
#10349
b1010111 @
1!
b11 D
#10399
0!
#10449
b1011000 @
1!
b100 D
#10499
0!
#10549
b1011001 @
1!
b101 D
#10599
0!
#10649
b1011010 @
1!
b110 D
#10699
0!
#10749
b1011011 @
1!
b111 D
#10799
0!
#10849
b1011100 @
1!
b1000 D
#10899
0!
#10949
b1011101 @
1!
b1001 D
#10999
0!
#11049
b1011110 @
1!
b1010 D
#11072
1#
1$
#11099
0!
#11149
b1011111 @
1!
1B
b1011 D
#11199
0!
#11249
1!
1E
b0 D
b1000 A
b1100000 @
19
18
1C
#11299
0!
#11349
1!
0E
17
b1 D
0;
b1100001 @
09
sDECODE/1 <
#11399
0!
#11449
b1 ?
b1 =
1!
12
#11499
0!
#11549
b10 ?
b10 =
1!
sREAD_FRAME/1 )
#11599
0!
#11649
b11 ?
b11 =
1!
#11699
0!
#11749
b100 ?
b100 =
1!
#11799
0!
#11849
0>
b101 ?
1/
b101 =
1!
14
15
#11899
0!
#11949
b110 ?
0/
b110 =
1!
04
b1 %
b1 &
#11999
0!
#12049
b111 ?
b111 =
1!
#12099
0!
#12149
b1000 ?
b1000 =
1!
#12199
0!
#12249
b1001 ?
b0 =
1!
#12299
0!
#12349
b1010 ?
b1 =
1!
#12399
0!
#12449
b1011 ?
b10 =
1!
#12499
0!
#12549
b1100 ?
b11 =
1!
#12599
0!
#12649
b1101 ?
b100 =
1!
#12699
0!
#12749
b1110 ?
b101 =
1!
14
10
05
#12799
0!
#12843
0#
0$
#12849
b1111 ?
b110 =
1!
04
0B
b10 %
b10 &
00
#12899
0!
#12949
b10000 ?
b111 =
1!
19
08
0C
#12999
0!
#13049
1>
b0 ?
b1 =
1!
07
09
#13099
0!
#13149
b1 ?
b10 =
1!
#13199
0!
#13249
b10 ?
b11 =
1!
#13299
0!
#13349
b11 ?
b100 =
1!
#13399
0!
#13449
0>
b100 ?
1/
b101 =
1!
14
10
15
#13499
0!
#13549
0/
b1 3
b110 =
1!
04
b11 &
00
b101 ?
b11 %
#13599
0!
#13649
b110 ?
b111 =
1!
#13699
0!
#13749
b111 ?
b1000 =
1!
#13799
0!
#13849
b1000 ?
b0 =
1!
#13899
0!
#13949
b1001 ?
b1 =
1!
#13999
0!
#14049
b1010 ?
b10 =
1!
#14099
0!
#14149
b1011 ?
b11 =
1!
#14199
0!
#14249
b1100 ?
b100 =
1!
#14299
0!
#14349
b1101 ?
b101 =
1!
14
10
05
#14399
0!
#14449
b1110 ?
b10 3
b110 =
1!
04
b100 %
b100 &
00
#14499
0!
#14549
b1111 ?
b111 =
1!
#14599
0!
#14615
1#
1$
#14649
b10000 ?
b1000 =
1!
1B
#14699
0!
#14749
b10001 ?
b0 =
1!
19
18
1C
#14799
0!
#14849
1>
b0 ?
b1 =
1!
17
09
#14899
0!
#14949
b1 ?
b10 =
1!
#14999
0!
#15049
b10 ?
b11 =
1!
#15099
0!
#15149
b11 ?
b100 =
1!
#15199
0!
#15249
0>
b100 ?
1/
b101 =
1!
14
10
15
#15299
0!
#15349
0/
b101 3
b110 =
1!
04
b0 &
00
b101 ?
b101 %
#15399
0!
#15449
b110 ?
b111 =
1!
b101 *
b100011 +
#15499
0!
#15500
0#
0$
#15549
b111 ?
b1000 =
1!
0B
#15599
0!
#15649
b1000 ?
b0 =
1!
19
08
0C
#15699
0!
#15749
1>
b0 ?
b1 =
1!
07
09
#15799
0!
#15849
b1 ?
b10 =
1!
#15899
0!
#15949
b10 ?
b11 =
1!
#15999
0!
#16049
b11 ?
b100 =
1!
#16099
0!
#16149
0>
b100 ?
1/
b101 =
1!
14
#16199
0!
#16249
b101 ?
0/
b110 =
1!
04
b110 %
b1 &
#16299
0!
#16349
b110 ?
b111 =
1!
#16399
0!
#16449
b111 ?
b1000 =
1!
#16499
0!
#16549
b1000 ?
b0 =
1!
#16599
0!
#16649
b1001 ?
b1 =
1!
#16699
0!
#16749
b1010 ?
b10 =
1!
#16799
0!
#16849
b1011 ?
b11 =
1!
#16899
0!
#16949
b1100 ?
b100 =
1!
#16999
0!
#17049
b1101 ?
b101 =
1!
14
10
05
#17099
0!
#17149
b1110 ?
b1010 3
b110 =
1!
04
b111 %
b10 &
00
#17199
0!
#17249
b1111 ?
b111 =
1!
#17299
0!
#17349
b10000 ?
b1000 =
1!
#17399
0!
#17449
b10001 ?
b0 =
1!
#17499
0!
#17549
b10010 ?
b1 =
1!
#17599
0!
#17649
b10011 ?
b10 =
1!
#17699
0!
#17749
b10100 ?
b11 =
1!
#17799
0!
#17849
b10101 ?
b100 =
1!
#17899
0!
#17949
b10110 ?
b101 =
1!
14
10
#17999
0!
#18049
b10111 ?
b10100 3
b110 =
1!
04
b1000 %
b11 &
00
#18099
0!
#18149
b11000 ?
b111 =
1!
#18199
0!
#18249
b11001 ?
b1000 =
1!
#18299
0!
#18349
b11010 ?
b0 =
1!
#18399
0!
#18449
b11011 ?
b1 =
1!
#18499
0!
#18549
b11100 ?
b10 =
1!
#18599
0!
#18649
b11101 ?
b11 =
1!
#18699
0!
#18749
b11110 ?
b100 =
1!
#18799
0!
#18849
b11111 ?
b101 =
1!
14
10
#18899
0!
#18949
b100000 ?
b101000 3
b110 =
1!
04
b1001 %
b100 &
00
#18999
0!
#19049
b100001 ?
b111 =
1!
#19099
0!
#19149
b100010 ?
b1000 =
1!
#19199
0!
#19249
b100011 ?
b0 =
1!
#19299
0!
#19349
b100100 ?
b1 =
1!
#19399
0!
#19449
b100101 ?
b10 =
1!
#19499
0!
#19549
b100110 ?
b11 =
1!
#19599
0!
#19649
b100111 ?
b100 =
1!
#19699
0!
#19749
b101000 ?
b101 =
1!
14
10
#19799
0!
#19849
b101001 ?
b1010000 3
b110 =
1!
04
b1010 %
b0 &
00
#19899
0!
#19929
1#
1$
#19949
b101010 ?
b111 =
1!
1B
#19999
0!
#20049
b101011 ?
b1000 =
1!
19
18
1C
#20099
0!
#20149
1>
b0 ?
b0 =
1!
17
09
#20199
0!
#20249
b1 ?
b1 =
1!
#20299
0!
#20349
b10 ?
b10 =
1!
#20399
0!
#20449
b11 ?
b11 =
1!
#20499
0!
#20549
b100 ?
b100 =
1!
#20599
0!
#20649
0>
b101 ?
1/
b101 =
1!
14
15
#20699
0!
#20749
b110 ?
0/
b110 =
1!
04
b1011 %
b1 &
#20799
0!
#20849
b111 ?
b111 =
1!
#20899
0!
#20949
b1000 ?
b1000 =
1!
#20999
0!
#21049
b1001 ?
b0 =
1!
#21099
0!
#21149
b1010 ?
b1 =
1!
#21199
0!
#21249
b1011 ?
b10 =
1!
#21299
0!
#21349
b1100 ?
b11 =
1!
#21399
0!
#21449
b1101 ?
b100 =
1!
#21499
0!
#21549
b1110 ?
b101 =
1!
14
10
05
#21599
0!
#21649
b1111 ?
b10100000 3
b110 =
1!
04
b1100 %
b10 &
00
#21699
0!
#21749
b10000 ?
b111 =
1!
#21799
0!
#21849
b10001 ?
b1000 =
1!
#21899
0!
#21949
b10010 ?
b0 =
1!
#21999
0!
#22049
b10011 ?
b1 =
1!
#22099
0!
#22149
b10100 ?
b10 =
1!
#22199
0!
#22249
b10101 ?
b11 =
1!
#22299
0!
#22349
b10110 ?
b100 =
1!
#22399
0!
#22449
b10111 ?
b101 =
1!
14
10
#22499
0!
#22549
b11000 ?
b101000000 3
b110 =
1!
04
b1101 %
b11 &
00
#22599
0!
#22649
b11001 ?
b111 =
1!
#22699
0!
#22749
b11010 ?
b1000 =
1!
#22799
0!
#22849
b11011 ?
b0 =
1!
#22899
0!
#22949
b11100 ?
b1 =
1!
#22999
0!
#23049
b11101 ?
b10 =
1!
#23099
0!
#23149
b11110 ?
b11 =
1!
#23199
0!
#23249
b11111 ?
b100 =
1!
#23299
0!
#23349
b100000 ?
b101 =
1!
14
10
#23399
0!
#23449
b100001 ?
b1010000000 3
b110 =
1!
04
b1110 %
b100 &
00
#23499
0!
#23549
b100010 ?
b111 =
1!
#23599
0!
#23649
b100011 ?
b1000 =
1!
#23699
0!
#23749
b100100 ?
b0 =
1!
#23799
0!
#23849
b100101 ?
b1 =
1!
#23899
0!
#23949
b100110 ?
b10 =
1!
#23999
0!
#24049
b100111 ?
b11 =
1!
#24099
0!
#24149
b101000 ?
b100 =
1!
#24199
0!
#24249
b101001 ?
b101 =
1!
14
10
#24299
0!
#24349
b101010 ?
b10100000000 3
b110 =
1!
04
b1111 %
b0 &
00
#24358
0#
0$
#24399
0!
#24449
b101011 ?
b111 =
1!
0B
#24499
0!
#24549
b101100 ?
b1000 =
1!
19
08
0C
#24599
0!
#24649
1>
b0 ?
b0 =
1!
07
09
#24699
0!
#24749
b1 ?
b1 =
1!
#24799
0!
#24849
b10 ?
b10 =
1!
#24899
0!
#24949
b11 ?
b11 =
1!
#24999
0!
#25049
b100 ?
b100 =
1!
#25099
0!
#25149
0>
b101 ?
1/
b101 =
1!
14
15
#25199
0!
#25249
b110 ?
0/
b110 =
1!
04
b10000 %
b1 &
#25299
0!
#25349
b111 ?
b111 =
1!
#25399
0!
#25449
b1000 ?
b1000 =
1!
#25499
0!
#25549
b1001 ?
b0 =
1!
#25599
0!
#25649
b1010 ?
b1 =
1!
#25699
0!
#25749
b1011 ?
b10 =
1!
#25799
0!
#25849
b1100 ?
b11 =
1!
#25899
0!
#25949
b1101 ?
b100 =
1!
#25999
0!
#26049
b1110 ?
b101 =
1!
14
10
05
#26099
0!
#26149
b1111 ?
b101000000000 3
b110 =
1!
04
b10001 %
b10 &
00
#26199
0!
#26249
b10000 ?
b111 =
1!
#26299
0!
#26349
b10001 ?
b1000 =
1!
#26399
0!
#26449
b10010 ?
b0 =
1!
#26499
0!
#26549
b10011 ?
b1 =
1!
#26599
0!
#26649
b10100 ?
b10 =
1!
#26699
0!
#26749
b10101 ?
b11 =
1!
#26799
0!
#26849
b10110 ?
b100 =
1!
#26899
0!
#26949
b10111 ?
b101 =
1!
14
10
#26999
0!
#27049
b11000 ?
b1010000000000 3
b110 =
1!
04
b10010 %
b11 &
00
#27099
0!
#27149
b11001 ?
b111 =
1!
#27199
0!
#27249
b11010 ?
b1000 =
1!
#27299
0!
#27349
b11011 ?
b0 =
1!
#27399
0!
#27449
b11100 ?
b1 =
1!
#27499
0!
#27549
b11101 ?
b10 =
1!
#27599
0!
#27649
b11110 ?
b11 =
1!
#27699
0!
#27749
b11111 ?
b100 =
1!
#27799
0!
#27849
b100000 ?
b101 =
1!
14
10
#27899
0!
#27949
b100001 ?
b10100000000000 3
b110 =
1!
04
b10011 %
b100 &
00
#27999
0!
#28049
b100010 ?
b111 =
1!
#28099
0!
#28149
b100011 ?
b1000 =
1!
#28199
0!
#28249
b100100 ?
b0 =
1!
#28299
0!
#28349
b100101 ?
b1 =
1!
#28399
0!
#28449
b100110 ?
b10 =
1!
#28499
0!
#28549
b100111 ?
b11 =
1!
#28599
0!
#28649
b101000 ?
b100 =
1!
#28699
0!
#28749
b101001 ?
b101 =
1!
14
10
#28787
1#
1$
#28799
0!
#28849
b101000000000000 3
b110 =
1!
04
1B
b0 &
00
b101010 ?
b10100 %
#28899
0!
#28949
b101011 ?
b111 =
1!
19
18
1C
#28999
0!
#29049
1>
b0 ?
b1 =
1!
17
09
#29099
0!
#29149
b1 ?
b10 =
1!
#29199
0!
#29249
b10 ?
b11 =
1!
#29299
0!
#29349
b11 ?
b100 =
1!
#29399
0!
#29449
0>
b100 ?
1/
b101 =
1!
14
15
#29499
0!
#29549
b101 ?
0/
b110 =
1!
04
b10101 %
b1 &
#29599
0!
#29649
b110 ?
b111 =
1!
#29699
0!
#29749
b111 ?
b1000 =
1!
#29799
0!
#29849
b1000 ?
b0 =
1!
#29899
0!
#29949
b1001 ?
b1 =
1!
#29999
0!
#30049
b1010 ?
b10 =
1!
#30099
0!
#30149
b1011 ?
b11 =
1!
#30199
0!
#30249
b1100 ?
b100 =
1!
#30299
0!
#30349
b1101 ?
b101 =
1!
14
10
05
#30399
0!
#30449
b1110 ?
b1010000000000000 3
b110 =
1!
04
b10110 %
b10 &
00
#30499
0!
#30549
b1111 ?
b111 =
1!
#30599
0!
#30649
b10000 ?
b1000 =
1!
#30699
0!
#30749
b10001 ?
b0 =
1!
#30799
0!
#30849
b10010 ?
b1 =
1!
#30899
0!
#30949
b10011 ?
b10 =
1!
#30999
0!
#31049
b10100 ?
b11 =
1!
#31099
0!
#31149
b10101 ?
b100 =
1!
#31199
0!
#31249
b10110 ?
b101 =
1!
14
10
#31299
0!
#31349
b10111 ?
b10100000000000000 3
b110 =
1!
04
b10111 %
b11 &
00
#31399
0!
#31449
b11000 ?
b111 =
1!
#31499
0!
#31549
b11001 ?
b1000 =
1!
#31599
0!
#31649
b11010 ?
b0 =
1!
#31699
0!
#31749
b11011 ?
b1 =
1!
#31799
0!
#31849
b11100 ?
b10 =
1!
#31899
0!
#31949
b11101 ?
b11 =
1!
#31999
0!
#32049
b11110 ?
b100 =
1!
#32099
0!
#32149
b11111 ?
b101 =
1!
14
10
#32199
0!
#32249
b100000 ?
b101000000000000000 3
b110 =
1!
04
b11000 %
b100 &
00
#32299
0!
#32349
b100001 ?
b111 =
1!
#32399
0!
#32449
b100010 ?
b1000 =
1!
#32499
0!
#32549
b100011 ?
b0 =
1!
#32599
0!
#32649
b100100 ?
b1 =
1!
#32699
0!
#32749
b100101 ?
b10 =
1!
#32799
0!
#32849
b100110 ?
b11 =
1!
#32899
0!
#32949
b100111 ?
b100 =
1!
#32999
0!
#33049
b101000 ?
b101 =
1!
14
10
#33099
0!
#33149
b101001 ?
b1010000000000000000 3
b110 =
1!
04
b11001 %
b0 &
00
#33199
0!
#33216
0#
0$
#33249
b101010 ?
b111 =
1!
0B
#33299
0!
#33349
b101011 ?
b1000 =
1!
19
08
0C
#33399
0!
#33449
1>
b0 ?
b0 =
1!
07
09
#33499
0!
#33549
b1 ?
b1 =
1!
#33599
0!
#33649
b10 ?
b10 =
1!
#33699
0!
#33749
b11 ?
b11 =
1!
#33799
0!
#33849
b100 ?
b100 =
1!
#33899
0!
#33949
0>
b101 ?
1/
b101 =
1!
14
15
#33999
0!
#34049
b110 ?
0/
b110 =
1!
04
b11010 %
b1 &
#34099
0!
#34149
b111 ?
b111 =
1!
#34199
0!
#34249
b1000 ?
b1000 =
1!
#34299
0!
#34349
b1001 ?
b0 =
1!
#34399
0!
#34449
b1010 ?
b1 =
1!
#34499
0!
#34549
b1011 ?
b10 =
1!
#34599
0!
#34649
b1100 ?
b11 =
1!
#34699
0!
#34749
b1101 ?
b100 =
1!
#34799
0!
#34849
b1110 ?
b101 =
1!
14
10
05
#34899
0!
#34949
b1111 ?
b10100000000000000000 3
b110 =
1!
04
b11011 %
b10 &
00
#34999
0!
#35049
b10000 ?
b111 =
1!
#35099
0!
#35149
b10001 ?
b1000 =
1!
#35199
0!
#35249
b10010 ?
b0 =
1!
#35299
0!
#35349
b10011 ?
b1 =
1!
#35399
0!
#35449
b10100 ?
b10 =
1!
#35499
0!
#35549
b10101 ?
b11 =
1!
#35599
0!
#35649
b10110 ?
b100 =
1!
#35699
0!
#35749
b10111 ?
b101 =
1!
14
10
#35799
0!
#35849
b11000 ?
b101000000000000000000 3
b110 =
1!
04
b11100 %
b11 &
00
#35899
0!
#35949
b11001 ?
b111 =
1!
#35999
0!
#36049
b11010 ?
b1000 =
1!
#36099
0!
#36149
b11011 ?
b0 =
1!
#36199
0!
#36249
b11100 ?
b1 =
1!
#36299
0!
#36349
b11101 ?
b10 =
1!
#36399
0!
#36449
b11110 ?
b11 =
1!
#36499
0!
#36549
b11111 ?
b100 =
1!
#36599
0!
#36649
b100000 ?
b101 =
1!
14
10
#36699
0!
#36749
b100001 ?
b1010000000000000000000 3
b110 =
1!
04
b11101 %
b100 &
00
#36799
0!
#36849
b100010 ?
b111 =
1!
#36899
0!
#36949
b100011 ?
b1000 =
1!
#36999
0!
#37049
b100100 ?
b0 =
1!
#37099
0!
#37149
b100101 ?
b1 =
1!
#37199
0!
#37249
b100110 ?
b10 =
1!
#37299
0!
#37349
b100111 ?
b11 =
1!
#37399
0!
#37449
b101000 ?
b100 =
1!
#37499
0!
#37549
b101001 ?
b101 =
1!
14
10
#37599
0!
#37645
1#
1$
#37649
b10100000000000000000000 3
b110 =
1!
04
1B
b0 &
00
b101010 ?
b11110 %
#37699
0!
#37749
b101011 ?
b111 =
1!
19
18
1C
#37799
0!
#37849
1>
b0 ?
b1 =
1!
17
09
#37899
0!
#37949
b1 ?
b10 =
1!
#37999
0!
#38049
b10 ?
b11 =
1!
#38099
0!
#38149
b11 ?
b100 =
1!
#38199
0!
#38249
0>
b100 ?
1/
b101 =
1!
14
15
#38299
0!
#38349
b101 ?
0/
b110 =
1!
04
b11111 %
b1 &
#38399
0!
#38449
b110 ?
b111 =
1!
#38499
0!
#38549
b111 ?
b1000 =
1!
#38599
0!
#38649
b1000 ?
b0 =
1!
#38699
0!
#38749
b1001 ?
b1 =
1!
#38799
0!
#38849
b1010 ?
b10 =
1!
#38899
0!
#38949
b1011 ?
b11 =
1!
#38999
0!
#39049
b1100 ?
b100 =
1!
#39099
0!
#39149
b1101 ?
b101 =
1!
14
10
05
#39199
0!
#39249
b1110 ?
b101000000000000000000000 3
b110 =
1!
04
b100000 %
b10 &
00
#39299
0!
#39349
b1111 ?
b111 =
1!
#39399
0!
#39449
b10000 ?
b1000 =
1!
#39499
0!
#39549
b10001 ?
b0 =
1!
#39599
0!
#39649
b10010 ?
b1 =
1!
#39699
0!
#39749
b10011 ?
b10 =
1!
#39799
0!
#39849
b10100 ?
b11 =
1!
#39899
0!
#39949
b10101 ?
b100 =
1!
#39999
0!
#40049
b10110 ?
b101 =
1!
14
10
#40099
0!
#40149
b10111 ?
b10000000000000000000000 3
b110 =
1!
04
b100001 %
b11 &
00
#40199
0!
#40249
b11000 ?
b111 =
1!
#40299
0!
#40349
b11001 ?
b1000 =
1!
#40399
0!
#40449
b11010 ?
b0 =
1!
#40499
0!
#40549
b11011 ?
b1 =
1!
#40599
0!
#40649
b11100 ?
b10 =
1!
#40699
0!
#40749
b11101 ?
b11 =
1!
#40799
0!
#40849
b11110 ?
b100 =
1!
#40899
0!
#40949
b11111 ?
b101 =
1!
14
10
#40999
0!
#41049
b100000 ?
b100000000000000000000000 3
b110 =
1!
04
b100010 %
b100 &
00
#41099
0!
#41149
b100001 ?
b111 =
1!
#41199
0!
#41249
b100010 ?
b1000 =
1!
#41299
0!
#41349
b100011 ?
b0 =
1!
#41399
0!
#41449
b100100 ?
b1 =
1!
#41499
0!
#41549
b100101 ?
b10 =
1!
#41599
0!
#41649
b100110 ?
b11 =
1!
#41699
0!
#41749
b100111 ?
b100 =
1!
#41799
0!
#41849
b101000 ?
b101 =
1!
14
10
#41899
0!
#41949
b101001 ?
b0 3
b110 =
1!
04
b100011 %
b0 &
00
#41999
0!
#42049
b101010 ?
b111 =
1!
b1 '
1.
b1000001 +
#42074
0#
0$
#42099
0!
#42149
b101011 ?
b1000 =
1!
0.
0B
#42199
0!
#42249
b101100 ?
b0 =
1!
19
08
0C
#42299
0!
#42349
1>
b0 ?
b1 =
1!
07
09
#42399
0!
#42449
b1 ?
b10 =
1!
#42499
0!
#42549
b10 ?
b11 =
1!
#42599
0!
#42649
b11 ?
b100 =
1!
#42699
0!
#42749
0>
b100 ?
1/
b101 =
1!
14
15
#42799
0!
#42849
b101 ?
0/
b110 =
1!
04
b100100 %
b1 &
#42899
0!
#42949
b110 ?
b111 =
1!
#42999
0!
#43049
b111 ?
b1000 =
1!
#43099
0!
#43149
b1000 ?
b0 =
1!
#43199
0!
#43249
b1001 ?
b1 =
1!
#43299
0!
#43349
b1010 ?
b10 =
1!
#43399
0!
#43449
b1011 ?
b11 =
1!
#43499
0!
#43549
b1100 ?
b100 =
1!
#43599
0!
#43649
b1101 ?
b101 =
1!
14
10
05
#43699
0!
#43749
b1110 ?
b110 =
1!
04
b100101 %
b10 &
00
#43799
0!
#43849
b1111 ?
b111 =
1!
#43899
0!
#43949
b10000 ?
b1000 =
1!
#43999
0!
#44049
b10001 ?
b0 =
1!
#44099
0!
#44149
b10010 ?
b1 =
1!
#44199
0!
#44249
b10011 ?
b10 =
1!
#44299
0!
#44349
b10100 ?
b11 =
1!
#44399
0!
#44449
b10101 ?
b100 =
1!
#44499
0!
#44549
b10110 ?
b101 =
1!
14
10
#44599
0!
#44649
b10111 ?
b110 =
1!
04
b100110 %
b11 &
00
#44699
0!
#44749
b11000 ?
b111 =
1!
#44799
0!
#44849
b11001 ?
b1000 =
1!
#44899
0!
#44949
b11010 ?
b0 =
1!
#44999
0!
#45049
b11011 ?
b1 =
1!
#45099
0!
#45149
b11100 ?
b10 =
1!
#45199
0!
#45249
b11101 ?
b11 =
1!
#45299
0!
#45349
b11110 ?
b100 =
1!
#45399
0!
#45449
b11111 ?
b101 =
1!
14
10
#45499
0!
#45549
b100000 ?
b110 =
1!
04
b100111 %
b100 &
00
#45599
0!
#45649
b100001 ?
b111 =
1!
#45699
0!
#45749
b100010 ?
b1000 =
1!
#45799
0!
#45849
b100011 ?
b0 =
1!
#45899
0!
#45949
b100100 ?
b1 =
1!
#45999
0!
#46049
b100101 ?
b10 =
1!
#46099
0!
#46149
b100110 ?
b11 =
1!
#46199
0!
#46249
b100111 ?
b100 =
1!
#46299
0!
#46349
b101000 ?
b101 =
1!
14
10
#46399
0!
#46449
b101001 ?
b110 =
1!
04
b101000 %
b0 &
00
#46499
0!
#46502
1#
1$
#46549
b101010 ?
b111 =
1!
1B
#46599
0!
#46649
b101011 ?
b1000 =
1!
19
18
1C
#46699
0!
#46749
1>
b0 ?
b0 =
1!
17
09
#46799
0!
#46849
b1 ?
b1 =
1!
#46899
0!
#46949
b10 ?
b10 =
1!
#46999
0!
#47049
b11 ?
b11 =
1!
