receiver-smoke-test-44100.vcd
$comment Generated by nMigen $end
$date 2021-04-08 09:40:49.395920 $end
$timescale 100 ps $end
$scope module top $end
$var wire 1 ! clk $end
$var wire 1 " rst $end
$var wire 1 # nrzi_in $end
$var wire 1 $ adat_in $end
$var wire 1 % invalid_frame_in $end
$var wire 8 & bit_counter $end
$var wire 3 ' nibble_counter $end
$var wire 3 ( active_channel $end
$var wire 1 ) edge_in $end
$var wire 4 * sync_bit_counter $end
$var string 1 + fsm_state $end
$var wire 4 , user_data_out $end
$var wire 8 - output_at $end
$var wire 1 . output_enable $end
$var wire 3 / addr_out $end
$var wire 24 0 sample_out $end
$var wire 1 1 bit_in $end
$var wire 1 2 enable_in $end
$var wire 1 3 clear_in $end
$var wire 1 4 running $end
$var wire 1 5 data_out_en $end
$var wire 1 6 data_out $end
$var wire 24 7 value_out $end
$var wire 1 8 pulse_out $end
$scope module framedata_shifter $end
$var wire 1 ! clk $end
$var wire 1 " rst $end
$var wire 1 1 bit_in $end
$var wire 1 2 enable_in $end
$var wire 1 3 clear_in $end
$var wire 24 7 value_out $end
$upscope $end
$scope module nrzi_decoder $end
$var wire 1 ! clk $end
$var wire 1 " rst $end
$var wire 1 % invalid_frame_in $end
$var wire 1 4 running $end
$var wire 1 5 data_out_en $end
$var wire 1 6 data_out $end
$var wire 1 9 nrzi_prev $end
$var wire 1 : nrzi $end
$var wire 1 ; got_edge $end
$var wire 1 < reset_in $end
$var wire 1 = active_in $end
$var string 1 > fsm_state $end
$var wire 7 ? bit_counter $end
$var wire 8 @ dead_counter $end
$var wire 1 A output $end
$var wire 7 B counter_out $end
$var wire 7 C divided_counter_out $end
$scope module cdc $end
$var wire 1 ! clk $end
$var wire 1 " rst $end
$var wire 1 # nrzi_in $end
$var wire 1 : nrzi $end
$var wire 1 D stage0 $end
$var wire 1 E stage1 $end
$upscope $end
$scope module sync_counter $end
$var wire 1 ! clk $end
$var wire 1 " rst $end
$var wire 1 < reset_in $end
$var wire 1 = active_in $end
$var wire 7 B counter_out $end
$var wire 7 C divided_counter_out $end
$var wire 4 F dividing_cycle_counter $end
$var wire 1 G dividable_out $end
$upscope $end
$upscope $end
$scope module output_pulser $end
$var wire 1 ! clk $end
$var wire 1 " rst $end
$var wire 1 ) edge_in $end
$var wire 1 8 pulse_out $end
$var wire 1 H edge_last $end
$upscope $end
$upscope $end
$enddefinitions $end
#0
$dumpvars
0!
0"
0#
0$
0%
b0 &
b0 '
b0 (
0)
b0 *
sWAIT_SYNC/0 +
b0 ,
b0 -
0.
b0 /
b0 0
01
02
03
04
05
06
b0 7
08
09
0:
0;
0<
0=
sSYNC/0 >
b0 ?
b0 @
1A
b0 B
b0 C
0D
0E
b0 F
0G
0H
$end
#50
1=
1!
#100
0!
#150
b1 B
b1 F
1!
#200
0!
#250
b10 B
b10 F
1!
#300
0!
#349
b11 B
b11 F
1!
#399
0!
#442
1$
1#
#449
1D
b100 B
b100 F
1!
#499
0!
#549
1!
1E
b101 B
1:
1;
b101 F
#600
0!
#650
19
b110 B
b110 F
0;
1<
1!
#700
0!
#750
b0 F
b0 B
0<
1!
#800
0!
#850
b1 B
b1 F
1!
#900
0!
#950
b10 B
b10 F
1!
#1000
0!
#1050
b11 B
b11 F
1!
#1100
0!
#1150
b100 B
b100 F
1!
#1200
0!
#1250
b101 B
b101 F
1!
#1300
0!
#1328
0$
0#
#1350
0D
b110 B
b110 F
1!
#1400
0!
#1450
1!
0E
b111 B
0:
1;
b111 F
#1500
0!
#1550
09
b1000 B
b1000 F
0;
1<
1!
#1600
0!
#1650
b0 F
b0 B
0<
1!
#1700
0!
#1750
b1 B
b1 F
1!
#1800
0!
#1850
b10 B
b10 F
1!
#1900
0!
#1950
b11 B
b11 F
1!
#2000
0!
#2050
b100 B
b100 F
1!
#2100
0!
#2150
b101 B
b101 F
1!
#2200
0!
#2250
b110 B
b110 F
1!
#2300
0!
#2350
b111 B
b111 F
1!
#2400
0!
#2450
b1000 B
b1000 F
1!
#2500
0!
#2550
b1001 B
b1001 F
1!
#2600
0!
#2650
b1010 B
b1010 F
1!
#2700
0!
#2750
b1011 B
b1011 F
1!
#2800
0!
#2850
b1 C
1G
b1100 B
b0 F
1!
#2900
0!
#2950
b1101 B
0G
b1 F
1!
#3000
0!
#3050
b1110 B
b10 F
1!
#3100
0!
#3150
b1111 B
b11 F
1!
#3200
0!
#3250
b10000 B
b100 F
1!
#3300
0!
#3350
b10001 B
b101 F
1!
#3400
0!
#3450
b10010 B
b110 F
1!
#3500
0!
#3550
b10011 B
b111 F
1!
#3600
0!
#3650
b10100 B
b1000 F
1!
#3700
0!
#3750
b10101 B
b1001 F
1!
#3800
0!
#3850
b10110 B
b1010 F
1!
#3900
0!
#3950
b10111 B
b1011 F
1!
#4000
0!
#4050
b10 C
1G
b11000 B
b0 F
1!
#4100
0!
#4150
b11001 B
0G
b1 F
1!
#4200
0!
#4250
b11010 B
b10 F
1!
#4300
0!
#4350
b11011 B
b11 F
1!
#4400
0!
#4450
b11100 B
b100 F
1!
#4500
0!
#4550
b11101 B
b101 F
1!
#4600
0!
#4650
b11110 B
b110 F
1!
#4700
0!
#4750
b11111 B
b111 F
1!
#4800
0!
#4850
b100000 B
b1000 F
1!
#4900
0!
#4950
b100001 B
b1001 F
1!
#5000
0!
#5050
b100010 B
b1010 F
1!
#5100
0!
#5150
b100011 B
b1011 F
1!
#5200
0!
#5249
b11 C
1G
b100100 B
b0 F
1!
#5299
0!
#5349
b100101 B
0G
b1 F
1!
#5399
0!
#5449
b100110 B
b10 F
1!
#5499
0!
#5549
b100111 B
b11 F
1!
#5599
0!
#5649
b101000 B
b100 F
1!
#5699
0!
#5749
b101001 B
b101 F
1!
#5799
0!
#5849
b101010 B
b110 F
1!
#5899
0!
#5949
b101011 B
b111 F
1!
#5999
0!
#6049
b101100 B
b1000 F
1!
#6099
0!
#6149
b101101 B
b1001 F
1!
#6199
0!
#6249
b101110 B
b1010 F
1!
#6299
0!
#6349
b101111 B
b1011 F
1!
#6399
0!
#6449
b100 C
1G
b110000 B
b0 F
1!
#6499
0!
#6549
b110001 B
0G
b1 F
1!
#6599
0!
#6649
b110010 B
b10 F
1!
#6699
0!
#6749
b110011 B
b11 F
1!
#6799
0!
#6849
b110100 B
b100 F
1!
#6899
0!
#6949
b110101 B
b101 F
1!
#6999
0!
#7049
b110110 B
b110 F
1!
#7099
0!
#7149
b110111 B
b111 F
1!
#7199
0!
#7249
b111000 B
b1000 F
1!
#7299
0!
#7349
b111001 B
b1001 F
1!
#7399
0!
#7449
b111010 B
b1010 F
1!
#7499
0!
#7549
b111011 B
b1011 F
1!
#7599
0!
#7649
b101 C
1G
b111100 B
b0 F
1!
#7699
0!
#7749
b111101 B
0G
b1 F
1!
#7799
0!
#7849
b111110 B
b10 F
1!
#7899
0!
#7949
b111111 B
b11 F
1!
#7999
0!
#8049
b1000000 B
b100 F
1!
#8099
0!
#8149
b1000001 B
b101 F
1!
#8199
0!
#8249
b1000010 B
b110 F
1!
#8299
0!
#8349
b1000011 B
b111 F
1!
#8399
0!
#8449
b1000100 B
b1000 F
1!
#8499
0!
#8549
b1000101 B
b1001 F
1!
#8599
0!
#8649
b1000110 B
b1010 F
1!
#8699
0!
#8749
b1000111 B
b1011 F
1!
#8799
0!
#8849
b110 C
1G
b1001000 B
b0 F
1!
#8899
0!
#8949
b1001001 B
0G
b1 F
1!
#8999
0!
#9049
b1001010 B
b10 F
1!
#9099
0!
#9149
b1001011 B
b11 F
1!
#9199
0!
#9249
b1001100 B
b100 F
1!
#9299
0!
#9349
b1001101 B
b101 F
1!
#9399
0!
#9449
b1001110 B
b110 F
1!
#9499
0!
#9549
b1001111 B
b111 F
1!
#9599
0!
#9649
b1010000 B
b1000 F
1!
#9699
0!
#9749
b1010001 B
b1001 F
1!
#9799
0!
#9849
b1010010 B
b1010 F
1!
#9899
0!
#9949
b1010011 B
b1011 F
1!
#9999
0!
#10049
b111 C
1G
b1010100 B
b0 F
1!
#10099
0!
#10149
b1010101 B
0G
b1 F
1!
#10199
0!
#10249
b1010110 B
b10 F
1!
#10299
0!
#10349
b1010111 B
b11 F
1!
#10399
0!
#10449
b1011000 B
b100 F
1!
#10499
0!
#10549
b1011001 B
b101 F
1!
#10599
0!
#10649
b1011010 B
b110 F
1!
#10699
0!
#10749
b1011011 B
b111 F
1!
#10799
0!
#10849
b1011100 B
b1000 F
1!
#10899
0!
#10949
b1011101 B
b1001 F
1!
#10999
0!
#11049
b1011110 B
b1010 F
1!
#11072
1$
1#
#11099
0!
#11149
1D
b1011111 B
b1011 F
1!
#11199
0!
#11249
1E
b1000 C
1G
b1100000 B
1:
1;
b0 F
1!
#11299
0!
#11349
19
0=
0G
b1100001 B
b1 F
sDECODE/1 >
14
0;
1!
#11399
0!
#11449
b1 ?
b1 @
1!
#11499
0!
#11549
b10 ?
b10 @
1!
#11599
0!
#11649
b11 ?
b11 @
1!
#11699
0!
#11749
b100 ?
b100 @
1!
#11799
0!
#11849
15
16
b101 @
b101 ?
0A
1!
#11899
0!
#11949
05
b110 ?
b110 @
1!
#11999
0!
#12049
b111 ?
b111 @
1!
#12099
0!
#12149
b1000 ?
b1000 @
1!
#12199
0!
#12249
b0 ?
b1001 @
1!
#12299
0!
#12349
b1 ?
b1010 @
1!
#12399
0!
#12449
b10 ?
b1011 @
1!
#12499
0!
#12549
b11 ?
b1100 @
1!
#12599
0!
#12649
b100 ?
b1101 @
1!
#12699
0!
#12749
15
06
b1110 @
b101 ?
1!
#12799
0!
#12843
0$
0#
#12849
05
b1111 @
b1 *
0D
b110 ?
1!
#12899
0!
#12949
0E
b10000 @
0:
b111 ?
1;
1!
#12999
0!
#13049
09
b0 @
b1 ?
0;
1A
1!
#13099
0!
#13149
b10 ?
b1 @
1!
#13199
0!
#13249
b11 ?
b10 @
1!
#13299
0!
#13349
b100 ?
b11 @
1!
#13399
0!
#13449
15
16
b100 @
b101 ?
0A
1!
#13499
0!
#13549
05
b101 @
b0 *
b110 ?
1!
#13599
0!
#13649
b111 ?
b110 @
1!
#13699
0!
#13749
b1000 ?
b111 @
1!
#13799
0!
#13849
b0 ?
b1000 @
1!
#13899
0!
#13949
b1 ?
b1001 @
1!
#13999
0!
#14049
b10 ?
b1010 @
1!
#14099
0!
#14149
b11 ?
b1011 @
1!
#14199
0!
#14249
b100 ?
b1100 @
1!
#14299
0!
#14349
15
06
b1101 @
b101 ?
1!
#14399
0!
#14449
05
b1110 @
b1 *
b110 ?
1!
#14499
0!
#14549
b111 ?
b1111 @
1!
#14599
0!
#14615
1$
1#
#14649
1D
b1000 ?
b10000 @
1!
#14699
0!
#14749
1E
b10001 @
1:
b0 ?
1;
1!
#14799
0!
#14849
19
b0 @
b1 ?
0;
1A
1!
#14899
0!
#14949
b10 ?
b1 @
1!
#14999
0!
#15049
b11 ?
b10 @
1!
#15099
0!
#15149
b100 ?
b11 @
1!
#15199
0!
#15249
15
16
b100 @
b101 ?
0A
1!
#15299
0!
#15349
05
b101 @
b0 *
b110 ?
1!
#15399
0!
#15449
b111 ?
b110 @
1!
#15499
0!
#15500
0$
0#
#15549
0D
b1000 ?
b111 @
1!
#15599
0!
#15649
0E
b1000 @
0:
b0 ?
1;
1!
#15699
0!
#15749
09
b0 @
b1 ?
0;
1A
1!
#15799
0!
#15849
b10 ?
b1 @
1!
#15899
0!
#15949
b11 ?
b10 @
1!
#15999
0!
#16049
b100 ?
b11 @
1!
#16099
0!
#16149
15
b100 @
b101 ?
0A
1!
#16199
0!
#16249
05
b110 ?
b101 @
1!
#16299
0!
#16349
b111 ?
b110 @
1!
#16399
0!
#16449
b1000 ?
b111 @
1!
#16499
0!
#16549
b0 ?
b1000 @
1!
#16599
0!
#16649
b1 ?
b1001 @
1!
#16699
0!
#16749
b10 ?
b1010 @
1!
#16799
0!
#16849
b11 ?
b1011 @
1!
#16899
0!
#16949
b100 ?
b1100 @
1!
#16999
0!
#17049
15
06
b1101 @
b101 ?
1!
#17099
0!
#17149
05
b1110 @
b1 *
b110 ?
1!
#17199
0!
#17249
b111 ?
b1111 @
1!
#17299
0!
#17349
b1000 ?
b10000 @
1!
#17399
0!
#17449
b0 ?
b10001 @
1!
#17499
0!
#17549
b1 ?
b10010 @
1!
#17599
0!
#17649
b10 ?
b10011 @
1!
#17699
0!
#17749
b11 ?
b10100 @
1!
#17799
0!
#17849
b100 ?
b10101 @
1!
#17899
0!
#17949
15
b101 ?
b10110 @
1!
#17999
0!
#18049
05
b10111 @
b10 *
b110 ?
1!
#18099
0!
#18149
b111 ?
b11000 @
1!
#18199
0!
#18249
b1000 ?
b11001 @
1!
#18299
0!
#18349
b0 ?
b11010 @
1!
#18399
0!
#18449
b1 ?
b11011 @
1!
#18499
0!
#18549
b10 ?
b11100 @
1!
#18599
0!
#18649
b11 ?
b11101 @
1!
#18699
0!
#18749
b100 ?
b11110 @
1!
#18799
0!
#18849
15
b101 ?
b11111 @
1!
#18899
0!
#18949
05
b100000 @
b11 *
b110 ?
1!
#18999
0!
#19049
b111 ?
b100001 @
1!
#19099
0!
#19149
b1000 ?
b100010 @
1!
#19199
0!
#19249
b0 ?
b100011 @
1!
#19299
0!
#19349
b1 ?
b100100 @
1!
#19399
0!
#19449
b10 ?
b100101 @
1!
#19499
0!
#19549
b11 ?
b100110 @
1!
#19599
0!
#19649
b100 ?
b100111 @
1!
#19699
0!
#19749
15
b101 ?
b101000 @
1!
#19799
0!
#19849
05
b101001 @
b100 *
b110 ?
1!
#19899
0!
#19929
1$
1#
#19949
1D
b111 ?
b101010 @
1!
#19999
0!
#20049
1E
b101011 @
1:
b1000 ?
1;
1!
#20099
0!
#20149
19
b0 @
b0 ?
0;
1A
1!
#20199
0!
#20249
b1 ?
b1 @
1!
#20299
0!
#20349
b10 ?
b10 @
1!
#20399
0!
#20449
b11 ?
b11 @
1!
#20499
0!
#20549
b100 ?
b100 @
1!
#20599
0!
#20649
15
16
b101 @
b101 ?
0A
1!
#20699
0!
#20749
05
b110 @
b0 *
b110 ?
1!
#20799
0!
#20849
b111 ?
b111 @
1!
#20899
0!
#20949
b1000 ?
b1000 @
1!
#20999
0!
#21049
b0 ?
b1001 @
1!
#21099
0!
#21149
b1 ?
b1010 @
1!
#21199
0!
#21249
b10 ?
b1011 @
1!
#21299
0!
#21349
b11 ?
b1100 @
1!
#21399
0!
#21449
b100 ?
b1101 @
1!
#21499
0!
#21549
15
06
b1110 @
b101 ?
1!
#21599
0!
#21649
05
b1111 @
b1 *
b110 ?
1!
#21699
0!
#21749
b111 ?
b10000 @
1!
#21799
0!
#21849
b1000 ?
b10001 @
1!
#21899
0!
#21949
b0 ?
b10010 @
1!
#21999
0!
#22049
b1 ?
b10011 @
1!
#22099
0!
#22149
b10 ?
b10100 @
1!
#22199
0!
#22249
b11 ?
b10101 @
1!
#22299
0!
#22349
b100 ?
b10110 @
1!
#22399
0!
#22449
15
b101 ?
b10111 @
1!
#22499
0!
#22549
05
b11000 @
b10 *
b110 ?
1!
#22599
0!
#22649
b111 ?
b11001 @
1!
#22699
0!
#22749
b1000 ?
b11010 @
1!
#22799
0!
#22849
b0 ?
b11011 @
1!
#22899
0!
#22949
b1 ?
b11100 @
1!
#22999
0!
#23049
b10 ?
b11101 @
1!
#23099
0!
#23149
b11 ?
b11110 @
1!
#23199
0!
#23249
b100 ?
b11111 @
1!
#23299
0!
#23349
15
b101 ?
b100000 @
1!
#23399
0!
#23449
05
b100001 @
b11 *
b110 ?
1!
#23499
0!
#23549
b111 ?
b100010 @
1!
#23599
0!
#23649
b1000 ?
b100011 @
1!
#23699
0!
#23749
b0 ?
b100100 @
1!
#23799
0!
#23849
b1 ?
b100101 @
1!
#23899
0!
#23949
b10 ?
b100110 @
1!
#23999
0!
#24049
b11 ?
b100111 @
1!
#24099
0!
#24149
b100 ?
b101000 @
1!
#24199
0!
#24249
15
b101 ?
b101001 @
1!
#24299
0!
#24349
05
b101010 @
b100 *
b110 ?
1!
#24358
0$
0#
#24399
0!
#24449
0D
b111 ?
b101011 @
1!
#24499
0!
#24549
0E
b101100 @
0:
b1000 ?
1;
1!
#24599
0!
#24649
09
b0 @
b0 ?
0;
1A
1!
#24699
0!
#24749
b1 ?
b1 @
1!
#24799
0!
#24849
b10 ?
b10 @
1!
#24899
0!
#24949
b11 ?
b11 @
1!
#24999
0!
#25049
b100 ?
b100 @
1!
#25099
0!
#25149
15
16
b101 @
b101 ?
0A
1!
#25199
0!
#25249
05
b110 @
b0 *
b110 ?
1!
#25299
0!
#25349
b111 ?
b111 @
1!
#25399
0!
#25449
b1000 ?
b1000 @
1!
#25499
0!
#25549
b0 ?
b1001 @
1!
#25599
0!
#25649
b1 ?
b1010 @
1!
#25699
0!
#25749
b10 ?
b1011 @
1!
#25799
0!
#25849
b11 ?
b1100 @
1!
#25899
0!
#25949
b100 ?
b1101 @
1!
#25999
0!
#26049
15
06
b1110 @
b101 ?
1!
#26099
0!
#26149
05
b1111 @
b1 *
b110 ?
1!
#26199
0!
#26249
b111 ?
b10000 @
1!
#26299
0!
#26349
b1000 ?
b10001 @
1!
#26399
0!
#26449
b0 ?
b10010 @
1!
#26499
0!
#26549
b1 ?
b10011 @
1!
#26599
0!
#26649
b10 ?
b10100 @
1!
#26699
0!
#26749
b11 ?
b10101 @
1!
#26799
0!
#26849
b100 ?
b10110 @
1!
#26899
0!
#26949
15
b101 ?
b10111 @
1!
#26999
0!
#27049
05
b11000 @
b10 *
b110 ?
1!
#27099
0!
#27149
b111 ?
b11001 @
1!
#27199
0!
#27249
b1000 ?
b11010 @
1!
#27299
0!
#27349
b0 ?
b11011 @
1!
#27399
0!
#27449
b1 ?
b11100 @
1!
#27499
0!
#27549
b10 ?
b11101 @
1!
#27599
0!
#27649
b11 ?
b11110 @
1!
#27699
0!
#27749
b100 ?
b11111 @
1!
#27799
0!
#27849
15
b101 ?
b100000 @
1!
#27899
0!
#27949
05
b100001 @
b11 *
b110 ?
1!
#27999
0!
#28049
b111 ?
b100010 @
1!
#28099
0!
#28149
b1000 ?
b100011 @
1!
#28199
0!
#28249
b0 ?
b100100 @
1!
#28299
0!
#28349
b1 ?
b100101 @
1!
#28399
0!
#28449
b10 ?
b100110 @
1!
#28499
0!
#28549
b11 ?
b100111 @
1!
#28599
0!
#28649
b100 ?
b101000 @
1!
#28699
0!
#28749
15
b101 ?
b101001 @
1!
#28787
1$
1#
#28799
0!
#28849
05
b101010 @
b100 *
1D
b110 ?
1!
#28899
0!
#28949
1E
b101011 @
1:
b111 ?
1;
1!
#28999
0!
#29049
19
b0 @
b1 ?
0;
1A
1!
#29099
0!
#29149
b10 ?
b1 @
1!
#29199
0!
#29249
b11 ?
b10 @
1!
#29299
0!
#29349
b100 ?
b11 @
1!
#29399
0!
#29449
15
16
b100 @
b101 ?
0A
1!
#29499
0!
#29549
05
b101 @
b0 *
b110 ?
1!
#29599
0!
#29649
b111 ?
b110 @
1!
#29699
0!
#29749
b1000 ?
b111 @
1!
#29799
0!
#29849
b0 ?
b1000 @
1!
#29899
0!
#29949
b1 ?
b1001 @
1!
#29999
0!
#30049
b10 ?
b1010 @
1!
#30099
0!
#30149
b11 ?
b1011 @
1!
#30199
0!
#30249
b100 ?
b1100 @
1!
#30299
0!
#30349
15
06
b1101 @
b101 ?
1!
#30399
0!
#30449
05
b1110 @
b1 *
b110 ?
1!
#30499
0!
#30549
b111 ?
b1111 @
1!
#30599
0!
#30649
b1000 ?
b10000 @
1!
#30699
0!
#30749
b0 ?
b10001 @
1!
#30799
0!
#30849
b1 ?
b10010 @
1!
#30899
0!
#30949
b10 ?
b10011 @
1!
#30999
0!
#31049
b11 ?
b10100 @
1!
#31099
0!
#31149
b100 ?
b10101 @
1!
#31199
0!
#31249
15
b101 ?
b10110 @
1!
#31299
0!
#31349
05
b10111 @
b10 *
b110 ?
1!
#31399
0!
#31449
b111 ?
b11000 @
1!
#31499
0!
#31549
b1000 ?
b11001 @
1!
#31599
0!
#31649
b0 ?
b11010 @
1!
#31699
0!
#31749
b1 ?
b11011 @
1!
#31799
0!
#31849
b10 ?
b11100 @
1!
#31899
0!
#31949
b11 ?
b11101 @
1!
#31999
0!
#32049
b100 ?
b11110 @
1!
#32099
0!
#32149
15
b101 ?
b11111 @
1!
#32199
0!
#32249
05
b100000 @
b11 *
b110 ?
1!
#32299
0!
#32349
b111 ?
b100001 @
1!
#32399
0!
#32449
b1000 ?
b100010 @
1!
#32499
0!
#32549
b0 ?
b100011 @
1!
#32599
0!
#32649
b1 ?
b100100 @
1!
#32699
0!
#32749
b10 ?
b100101 @
1!
#32799
0!
#32849
b11 ?
b100110 @
1!
#32899
0!
#32949
b100 ?
b100111 @
1!
#32999
0!
#33049
15
b101 ?
b101000 @
1!
#33099
0!
#33149
05
b101001 @
b100 *
b110 ?
1!
#33199
0!
#33216
0$
0#
#33249
0D
b111 ?
b101010 @
1!
#33299
0!
#33349
0E
b101011 @
0:
b1000 ?
1;
1!
#33399
0!
#33449
09
b0 @
b0 ?
0;
1A
1!
#33499
0!
#33549
b1 ?
b1 @
1!
#33599
0!
#33649
b10 ?
b10 @
1!
#33699
0!
#33749
b11 ?
b11 @
1!
#33799
0!
#33849
b100 ?
b100 @
1!
#33899
0!
#33949
15
16
b101 @
b101 ?
0A
1!
#33999
0!
#34049
05
b110 @
b0 *
b110 ?
1!
#34099
0!
#34149
b111 ?
b111 @
1!
#34199
0!
#34249
b1000 ?
b1000 @
1!
#34299
0!
#34349
b0 ?
b1001 @
1!
#34399
0!
#34449
b1 ?
b1010 @
1!
#34499
0!
#34549
b10 ?
b1011 @
1!
#34599
0!
#34649
b11 ?
b1100 @
1!
#34699
0!
#34749
b100 ?
b1101 @
1!
#34799
0!
#34849
15
06
b1110 @
b101 ?
1!
#34899
0!
#34949
05
b1111 @
b1 *
b110 ?
1!
#34999
0!
#35049
b111 ?
b10000 @
1!
#35099
0!
#35149
b1000 ?
b10001 @
1!
#35199
0!
#35249
b0 ?
b10010 @
1!
#35299
0!
#35349
b1 ?
b10011 @
1!
#35399
0!
#35449
b10 ?
b10100 @
1!
#35499
0!
#35549
b11 ?
b10101 @
1!
#35599
0!
#35649
b100 ?
b10110 @
1!
#35699
0!
#35749
15
b101 ?
b10111 @
1!
#35799
0!
#35849
05
b11000 @
b10 *
b110 ?
1!
#35899
0!
#35949
b111 ?
b11001 @
1!
#35999
0!
#36049
b1000 ?
b11010 @
1!
#36099
0!
#36149
b0 ?
b11011 @
1!
#36199
0!
#36249
b1 ?
b11100 @
1!
#36299
0!
#36349
b10 ?
b11101 @
1!
#36399
0!
#36449
b11 ?
b11110 @
1!
#36499
0!
#36549
b100 ?
b11111 @
1!
#36599
0!
#36649
15
b101 ?
b100000 @
1!
#36699
0!
#36749
05
b100001 @
b11 *
b110 ?
1!
#36799
0!
#36849
b111 ?
b100010 @
1!
#36899
0!
#36949
b1000 ?
b100011 @
1!
#36999
0!
#37049
b0 ?
b100100 @
1!
#37099
0!
#37149
b1 ?
b100101 @
1!
#37199
0!
#37249
b10 ?
b100110 @
1!
#37299
0!
#37349
b11 ?
b100111 @
1!
#37399
0!
#37449
b100 ?
b101000 @
1!
#37499
0!
#37549
15
b101 ?
b101001 @
1!
#37599
0!
#37645
1$
1#
#37649
05
b101010 @
b100 *
1D
b110 ?
1!
#37699
0!
#37749
1E
b101011 @
1:
b111 ?
1;
1!
#37799
0!
#37849
19
b0 @
b1 ?
0;
1A
1!
#37899
0!
#37949
b10 ?
b1 @
1!
#37999
0!
#38049
b11 ?
b10 @
1!
#38099
0!
#38149
b100 ?
b11 @
1!
#38199
0!
#38249
15
16
b100 @
b101 ?
0A
1!
#38299
0!
#38349
05
b101 @
b0 *
b110 ?
1!
#38399
0!
#38449
b111 ?
b110 @
1!
#38499
0!
#38549
b1000 ?
b111 @
1!
#38599
0!
#38649
b0 ?
b1000 @
1!
#38699
0!
#38749
b1 ?
b1001 @
1!
#38799
0!
#38849
b10 ?
b1010 @
1!
#38899
0!
#38949
b11 ?
b1011 @
1!
#38999
0!
#39049
b100 ?
b1100 @
1!
#39099
0!
#39149
15
06
b1101 @
b101 ?
1!
#39199
0!
#39249
05
b1110 @
b1 *
b110 ?
1!
#39299
0!
#39349
b111 ?
b1111 @
1!
#39399
0!
#39449
b1000 ?
b10000 @
1!
#39499
0!
#39549
b0 ?
b10001 @
1!
#39599
0!
#39649
b1 ?
b10010 @
1!
#39699
0!
#39749
b10 ?
b10011 @
1!
#39799
0!
#39849
b11 ?
b10100 @
1!
#39899
0!
#39949
b100 ?
b10101 @
1!
#39999
0!
#40049
15
b101 ?
b10110 @
1!
#40099
0!
#40149
05
b10111 @
b10 *
b110 ?
1!
#40199
0!
#40249
b111 ?
b11000 @
1!
#40299
0!
#40349
b1000 ?
b11001 @
1!
#40399
0!
#40449
b0 ?
b11010 @
1!
#40499
0!
#40549
b1 ?
b11011 @
1!
#40599
0!
#40649
b10 ?
b11100 @
1!
#40699
0!
#40749
b11 ?
b11101 @
1!
#40799
0!
#40849
b100 ?
b11110 @
1!
#40899
0!
#40949
15
b101 ?
b11111 @
1!
#40999
0!
#41049
05
b100000 @
b11 *
b110 ?
1!
#41099
0!
#41149
b111 ?
b100001 @
1!
#41199
0!
#41249
b1000 ?
b100010 @
1!
#41299
0!
#41349
b0 ?
b100011 @
1!
#41399
0!
#41449
b1 ?
b100100 @
1!
#41499
0!
#41549
b10 ?
b100101 @
1!
#41599
0!
#41649
b11 ?
b100110 @
1!
#41699
0!
#41749
b100 ?
b100111 @
1!
#41799
0!
#41849
15
b101 ?
b101000 @
1!
#41899
0!
#41949
05
b101001 @
b100 *
b110 ?
1!
#41999
0!
#42049
b111 ?
b101010 @
1!
#42074
0$
0#
#42099
0!
#42149
0D
b1000 ?
b101011 @
1!
#42199
0!
#42249
0E
b101100 @
0:
b0 ?
1;
1!
#42299
0!
#42349
09
b0 @
b1 ?
0;
1A
1!
#42399
0!
#42449
b10 ?
b1 @
1!
#42499
0!
#42549
b11 ?
b10 @
1!
#42599
0!
#42649
b100 ?
b11 @
1!
#42699
0!
#42749
15
16
b100 @
b101 ?
0A
1!
#42799
0!
#42849
05
b101 @
b0 *
b110 ?
1!
#42899
0!
#42949
b111 ?
b110 @
1!
#42999
0!
#43049
b1000 ?
b111 @
1!
#43099
0!
#43149
b0 ?
b1000 @
1!
#43199
0!
#43249
b1 ?
b1001 @
1!
#43299
0!
#43349
b10 ?
b1010 @
1!
#43399
0!
#43449
b11 ?
b1011 @
1!
#43499
0!
#43549
b100 ?
b1100 @
1!
#43599
0!
#43649
15
06
b1101 @
b101 ?
1!
#43699
0!
#43749
05
b1110 @
b1 *
b110 ?
1!
#43799
0!
#43849
b111 ?
b1111 @
1!
#43899
0!
#43949
b1000 ?
b10000 @
1!
#43999
0!
#44049
b0 ?
b10001 @
1!
#44099
0!
#44149
b1 ?
b10010 @
1!
#44199
0!
#44249
b10 ?
b10011 @
1!
#44299
0!
#44349
b11 ?
b10100 @
1!
#44399
0!
#44449
b100 ?
b10101 @
1!
#44499
0!
#44549
15
b101 ?
b10110 @
1!
#44599
0!
#44649
05
b10111 @
b10 *
b110 ?
1!
#44699
0!
#44749
b111 ?
b11000 @
1!
#44799
0!
#44849
b1000 ?
b11001 @
1!
#44899
0!
#44949
b0 ?
b11010 @
1!
#44999
0!
#45049
b1 ?
b11011 @
1!
#45099
0!
#45149
b10 ?
b11100 @
1!
#45199
0!
#45249
b11 ?
b11101 @
1!
#45299
0!
#45349
b100 ?
b11110 @
1!
#45399
0!
#45449
15
b101 ?
b11111 @
1!
#45499
0!
#45549
05
b100000 @
b11 *
b110 ?
1!
#45599
0!
#45649
b111 ?
b100001 @
1!
#45699
0!
#45749
b1000 ?
b100010 @
1!
#45799
0!
#45849
b0 ?
b100011 @
1!
#45899
0!
#45949
b1 ?
b100100 @
1!
#45999
0!
#46049
b10 ?
b100101 @
1!
#46099
0!
#46149
b11 ?
b100110 @
1!
#46199
0!
#46249
b100 ?
b100111 @
1!
#46299
0!
#46349
15
b101 ?
b101000 @
1!
#46399
0!
#46449
05
b101001 @
b100 *
b110 ?
1!
#46499
0!
#46502
1$
1#
#46549
1D
b111 ?
b101010 @
1!
#46599
0!
#46649
1E
b101011 @
1:
b1000 ?
1;
1!
#46699
0!
#46749
19
b0 @
b0 ?
0;
1A
1!
#46799
0!
#46849
b1 ?
b1 @
1!
#46899
0!
#46949
b10 ?
b10 @
1!
#46999
0!
#47049
b11 ?
b11 @
1!
#47099
0!
#47149
b100 ?
b100 @
1!
#47199
0!
#47249
15
16
b101 @
b101 ?
0A
1!
#47299
0!
#47349
05
b110 @
b0 *
b110 ?
1!
#47399
0!
#47449
b111 ?
b111 @
1!
#47499
0!
#47549
b1000 ?
b1000 @
1!
#47599
0!
#47649
b0 ?
b1001 @
1!
#47699
0!
#47749
b1 ?
b1010 @
1!
#47799
0!
#47849
b10 ?
b1011 @
1!
#47899
0!
#47949
b11 ?
b1100 @
1!
#47999
0!
#48049
b100 ?
b1101 @
1!
#48099
0!
#48149
15
06
b1110 @
b101 ?
1!
#48199
0!
#48249
05
b1111 @
b1 *
b110 ?
1!
#48299
0!
#48349
b111 ?
b10000 @
1!
#48399
0!
#48449
b1000 ?
b10001 @
1!
#48499
0!
#48549
b0 ?
b10010 @
1!
#48599
0!
#48649
b1 ?
b10011 @
1!
#48699
0!
#48749
b10 ?
b10100 @
1!
#48799
0!
#48849
b11 ?
b10101 @
1!
#48899
0!
#48949
b100 ?
b10110 @
1!
#48999
0!
#49049
15
b101 ?
b10111 @
1!
#49099
0!
#49149
05
b11000 @
b10 *
b110 ?
1!
#49199
0!
#49249
b111 ?
b11001 @
1!
