receiver-smoke-test-48000.vcd
$comment Generated by nMigen $end
$date 2021-04-08 09:40:44.055015 $end
$timescale 100 ps $end
$scope module top $end
$var wire 1 ! clk $end
$var wire 1 " rst $end
$var wire 1 # nrzi_in $end
$var wire 1 $ adat_in $end
$var wire 1 % invalid_frame_in $end
$var wire 8 & bit_counter $end
$var wire 3 ' nibble_counter $end
$var wire 3 ( active_channel $end
$var wire 1 ) edge_in $end
$var wire 4 * sync_bit_counter $end
$var string 1 + fsm_state $end
$var wire 4 , user_data_out $end
$var wire 8 - output_at $end
$var wire 1 . output_enable $end
$var wire 3 / addr_out $end
$var wire 24 0 sample_out $end
$var wire 1 1 bit_in $end
$var wire 1 2 enable_in $end
$var wire 1 3 clear_in $end
$var wire 1 4 running $end
$var wire 1 5 data_out_en $end
$var wire 1 6 data_out $end
$var wire 24 7 value_out $end
$var wire 1 8 pulse_out $end
$scope module framedata_shifter $end
$var wire 1 ! clk $end
$var wire 1 " rst $end
$var wire 1 1 bit_in $end
$var wire 1 2 enable_in $end
$var wire 1 3 clear_in $end
$var wire 24 7 value_out $end
$upscope $end
$scope module nrzi_decoder $end
$var wire 1 ! clk $end
$var wire 1 " rst $end
$var wire 1 % invalid_frame_in $end
$var wire 1 4 running $end
$var wire 1 5 data_out_en $end
$var wire 1 6 data_out $end
$var wire 1 9 nrzi_prev $end
$var wire 1 : nrzi $end
$var wire 1 ; got_edge $end
$var wire 1 < reset_in $end
$var wire 1 = active_in $end
$var string 1 > fsm_state $end
$var wire 7 ? bit_counter $end
$var wire 8 @ dead_counter $end
$var wire 1 A output $end
$var wire 7 B counter_out $end
$var wire 7 C divided_counter_out $end
$scope module cdc $end
$var wire 1 ! clk $end
$var wire 1 " rst $end
$var wire 1 # nrzi_in $end
$var wire 1 : nrzi $end
$var wire 1 D stage0 $end
$var wire 1 E stage1 $end
$upscope $end
$scope module sync_counter $end
$var wire 1 ! clk $end
$var wire 1 " rst $end
$var wire 1 < reset_in $end
$var wire 1 = active_in $end
$var wire 7 B counter_out $end
$var wire 7 C divided_counter_out $end
$var wire 4 F dividing_cycle_counter $end
$var wire 1 G dividable_out $end
$upscope $end
$upscope $end
$scope module output_pulser $end
$var wire 1 ! clk $end
$var wire 1 " rst $end
$var wire 1 ) edge_in $end
$var wire 1 8 pulse_out $end
$var wire 1 H edge_last $end
$upscope $end
$upscope $end
$enddefinitions $end
#0
$dumpvars
0!
0"
0#
0$
0%
b0 &
b0 '
b0 (
0)
b0 *
sWAIT_SYNC/0 +
b0 ,
b0 -
0.
b0 /
b0 0
01
02
03
04
05
06
b0 7
08
09
0:
0;
0<
0=
sSYNC/0 >
b0 ?
b0 @
1A
b0 B
b0 C
0D
0E
b0 F
0G
0H
$end
#50
1!
1=
#100
0!
#150
b1 F
b1 B
1!
#200
0!
#250
b10 F
b10 B
1!
#300
0!
#349
b11 F
b11 B
1!
#399
0!
#406
1#
1$
#449
b100 F
b100 B
1!
1D
#499
0!
#549
b101 B
1!
b101 F
1:
1E
1;
#600
0!
#650
1!
b110 B
19
b110 F
1<
0;
#700
0!
#750
0<
b0 F
b0 B
1!
#800
0!
#850
b1 F
b1 B
1!
#900
0!
#950
b10 F
b10 B
1!
#1000
0!
#1050
b11 F
b11 B
1!
#1100
0!
#1150
b100 F
b100 B
1!
#1200
0!
#1220
0#
0$
#1250
b101 F
b101 B
1!
0D
#1300
0!
#1350
b110 B
1!
b110 F
0:
0E
1;
#1400
0!
#1450
1!
b111 B
09
b111 F
1<
0;
#1500
0!
#1550
0<
b0 F
b0 B
1!
#1600
0!
#1650
b1 F
b1 B
1!
#1700
0!
#1750
b10 F
b10 B
1!
#1800
0!
#1850
b11 F
b11 B
1!
#1900
0!
#1950
b100 F
b100 B
1!
#2000
0!
#2050
b101 F
b101 B
1!
#2100
0!
#2150
b110 F
b110 B
1!
#2200
0!
#2250
b111 F
b111 B
1!
#2300
0!
#2350
b1000 F
b1000 B
1!
#2400
0!
#2450
b1001 F
b1001 B
1!
#2500
0!
#2550
b1010 F
b1010 B
1!
#2600
0!
#2650
b1011 F
b1011 B
1!
#2700
0!
#2750
1!
b1100 B
b1 C
b0 F
1G
#2800
0!
#2850
b1101 B
b1 F
0G
1!
#2900
0!
#2950
b10 F
b1110 B
1!
#3000
0!
#3050
b11 F
b1111 B
1!
#3100
0!
#3150
b100 F
b10000 B
1!
#3200
0!
#3250
b101 F
b10001 B
1!
#3300
0!
#3350
b110 F
b10010 B
1!
#3400
0!
#3450
b111 F
b10011 B
1!
#3500
0!
#3550
b1000 F
b10100 B
1!
#3600
0!
#3650
b1001 F
b10101 B
1!
#3700
0!
#3750
b1010 F
b10110 B
1!
#3800
0!
#3850
b1011 F
b10111 B
1!
#3900
0!
#3950
1!
b11000 B
b10 C
b0 F
1G
#4000
0!
#4050
b11001 B
b1 F
0G
1!
#4100
0!
#4150
b10 F
b11010 B
1!
#4200
0!
#4250
b11 F
b11011 B
1!
#4300
0!
#4350
b100 F
b11100 B
1!
#4400
0!
#4450
b101 F
b11101 B
1!
#4500
0!
#4550
b110 F
b11110 B
1!
#4600
0!
#4650
b111 F
b11111 B
1!
#4700
0!
#4750
b1000 F
b100000 B
1!
#4800
0!
#4850
b1001 F
b100001 B
1!
#4900
0!
#4950
b1010 F
b100010 B
1!
#5000
0!
#5050
b1011 F
b100011 B
1!
#5100
0!
#5150
1!
b100100 B
b11 C
b0 F
1G
#5200
0!
#5249
b100101 B
b1 F
0G
1!
#5299
0!
#5349
b10 F
b100110 B
1!
#5399
0!
#5449
b11 F
b100111 B
1!
#5499
0!
#5549
b100 F
b101000 B
1!
#5599
0!
#5649
b101 F
b101001 B
1!
#5699
0!
#5749
b110 F
b101010 B
1!
#5799
0!
#5849
b111 F
b101011 B
1!
#5899
0!
#5949
b1000 F
b101100 B
1!
#5999
0!
#6049
b1001 F
b101101 B
1!
#6099
0!
#6149
b1010 F
b101110 B
1!
#6199
0!
#6249
b1011 F
b101111 B
1!
#6299
0!
#6349
1!
b110000 B
b100 C
b0 F
1G
#6399
0!
#6449
b110001 B
b1 F
0G
1!
#6499
0!
#6549
b10 F
b110010 B
1!
#6599
0!
#6649
b11 F
b110011 B
1!
#6699
0!
#6749
b100 F
b110100 B
1!
#6799
0!
#6849
b101 F
b110101 B
1!
#6899
0!
#6949
b110 F
b110110 B
1!
#6999
0!
#7049
b111 F
b110111 B
1!
#7099
0!
#7149
b1000 F
b111000 B
1!
#7199
0!
#7249
b1001 F
b111001 B
1!
#7299
0!
#7349
b1010 F
b111010 B
1!
#7399
0!
#7449
b1011 F
b111011 B
1!
#7499
0!
#7549
1!
b111100 B
b101 C
b0 F
1G
#7599
0!
#7649
b111101 B
b1 F
0G
1!
#7699
0!
#7749
b10 F
b111110 B
1!
#7799
0!
#7849
b11 F
b111111 B
1!
#7899
0!
#7949
b100 F
b1000000 B
1!
#7999
0!
#8049
b101 F
b1000001 B
1!
#8099
0!
#8149
b110 F
b1000010 B
1!
#8199
0!
#8249
b111 F
b1000011 B
1!
#8299
0!
#8349
b1000 F
b1000100 B
1!
#8399
0!
#8449
b1001 F
b1000101 B
1!
#8499
0!
#8549
b1010 F
b1000110 B
1!
#8599
0!
#8649
b1011 F
b1000111 B
1!
#8699
0!
#8749
1!
b1001000 B
b110 C
b0 F
1G
#8799
0!
#8849
b1001001 B
b1 F
0G
1!
#8899
0!
#8949
b10 F
b1001010 B
1!
#8999
0!
#9049
b11 F
b1001011 B
1!
#9099
0!
#9149
b100 F
b1001100 B
1!
#9199
0!
#9249
b101 F
b1001101 B
1!
#9299
0!
#9349
b110 F
b1001110 B
1!
#9399
0!
#9449
b111 F
b1001111 B
1!
#9499
0!
#9549
b1000 F
b1010000 B
1!
#9599
0!
#9649
b1001 F
b1010001 B
1!
#9699
0!
#9749
b1010 F
b1010010 B
1!
#9799
0!
#9849
b1011 F
b1010011 B
1!
#9899
0!
#9949
1!
b1010100 B
b111 C
b0 F
1G
#9999
0!
#10049
b1010101 B
b1 F
0G
1!
#10099
0!
#10149
b10 F
b1010110 B
1!
#10172
1#
1$
#10199
0!
#10249
b11 F
b1010111 B
1!
1D
#10299
0!
#10349
b1011000 B
1!
b100 F
1:
1E
1;
#10399
0!
#10449
sDECODE/1 >
1!
b1011001 B
0=
19
14
b101 F
0;
#10499
0!
#10549
b1 ?
1!
b1 @
#10599
0!
#10649
b10 ?
1!
b10 @
#10699
0!
#10749
b11 ?
1!
b11 @
#10799
0!
#10849
b100 ?
0A
1!
16
15
b100 @
#10899
0!
#10949
b101 ?
05
1!
b101 @
#10999
0!
#11049
b110 ?
1!
b110 @
#11099
0!
#11149
b111 ?
1!
b111 @
#11199
0!
#11249
b0 ?
1!
b1000 @
#11299
0!
#11349
b1 ?
1!
b1001 @
#11399
0!
#11449
b10 ?
1!
b1010 @
#11499
0!
#11549
b11 ?
1!
b1011 @
#11599
0!
#11649
b100 ?
1!
06
15
b1100 @
#11699
0!
#11749
b101 ?
1!
b1 *
05
b1101 @
#11799
0!
#11800
0#
0$
#11849
b110 ?
0D
1!
b1110 @
#11899
0!
#11949
b111 ?
1!
1;
0:
0E
b1111 @
#11999
0!
#12049
b0 ?
1A
1!
09
b0 @
0;
#12099
0!
#12149
b1 ?
1!
b1 @
#12199
0!
#12249
b10 ?
1!
b10 @
#12299
0!
#12349
b11 ?
1!
b11 @
#12399
0!
#12449
b100 ?
0A
1!
16
15
b100 @
#12499
0!
#12549
b101 ?
1!
b0 *
05
b101 @
#12599
0!
#12649
b110 ?
1!
b110 @
#12699
0!
#12749
b111 ?
1!
b111 @
#12799
0!
#12849
b0 ?
1!
b1000 @
#12899
0!
#12949
b1 ?
1!
b1001 @
#12999
0!
#13049
b10 ?
1!
b1010 @
#13099
0!
#13149
b11 ?
1!
b1011 @
#13199
0!
#13249
b100 ?
1!
06
15
b1100 @
#13299
0!
#13349
b101 ?
1!
b1 *
05
b1101 @
#13399
0!
#13427
1#
1$
#13449
b110 ?
1D
1!
b1110 @
#13499
0!
#13549
b111 ?
1!
1;
1:
1E
b1111 @
#13599
0!
#13649
b0 ?
1A
1!
19
b0 @
0;
#13699
0!
#13749
b1 ?
1!
b1 @
#13799
0!
#13849
b10 ?
1!
b10 @
#13899
0!
#13949
b11 ?
1!
b11 @
#13999
0!
#14049
b100 ?
0A
1!
16
15
b100 @
#14099
0!
#14149
b101 ?
1!
b0 *
05
b101 @
#14199
0!
#14241
0#
0$
#14249
b110 ?
0D
1!
b110 @
#14299
0!
#14349
b111 ?
1!
1;
0:
0E
b111 @
#14399
0!
#14449
b0 ?
1A
1!
09
b0 @
0;
#14499
0!
#14549
b1 ?
1!
b1 @
#14599
0!
#14649
b10 ?
1!
b10 @
#14699
0!
#14749
b11 ?
1!
b11 @
#14799
0!
#14849
b100 ?
0A
1!
15
b100 @
#14899
0!
#14949
b101 ?
05
1!
b101 @
#14999
0!
#15049
b110 ?
1!
b110 @
#15099
0!
#15149
b111 ?
1!
b111 @
#15199
0!
#15249
b0 ?
1!
b1000 @
#15299
0!
#15349
b1 ?
1!
b1001 @
#15399
0!
#15449
b10 ?
1!
b1010 @
#15499
0!
#15549
b11 ?
1!
b1011 @
#15599
0!
#15649
b100 ?
1!
06
15
b1100 @
#15699
0!
#15749
b101 ?
1!
b1 *
05
b1101 @
#15799
0!
#15849
b110 ?
1!
b1110 @
#15899
0!
#15949
b111 ?
1!
b1111 @
#15999
0!
#16049
b0 ?
1!
b10000 @
#16099
0!
#16149
b1 ?
1!
b10001 @
#16199
0!
#16249
b10 ?
1!
b10010 @
#16299
0!
#16349
b11 ?
1!
b10011 @
#16399
0!
#16449
b100 ?
15
1!
b10100 @
#16499
0!
#16549
b101 ?
1!
b10 *
05
b10101 @
#16599
0!
#16649
b110 ?
1!
b10110 @
#16699
0!
#16749
b111 ?
1!
b10111 @
#16799
0!
#16849
b0 ?
1!
b11000 @
#16899
0!
#16949
b1 ?
1!
b11001 @
#16999
0!
#17049
b10 ?
1!
b11010 @
#17099
0!
#17149
b11 ?
1!
b11011 @
#17199
0!
#17249
b100 ?
15
1!
b11100 @
#17299
0!
#17349
b101 ?
1!
b11 *
05
b11101 @
#17399
0!
#17449
b110 ?
1!
b11110 @
#17499
0!
#17549
b111 ?
1!
b11111 @
#17599
0!
#17649
b0 ?
1!
b100000 @
#17699
0!
#17749
b1 ?
1!
b100001 @
#17799
0!
#17849
b10 ?
1!
b100010 @
#17899
0!
#17949
b11 ?
1!
b100011 @
#17999
0!
#18049
b100 ?
15
1!
b100100 @
#18099
0!
#18149
b101 ?
1!
b100 *
05
b100101 @
#18199
0!
#18249
b110 ?
1!
b100110 @
#18299
0!
#18310
1#
1$
#18349
b111 ?
1D
1!
b100111 @
#18399
0!
#18449
b0 ?
1!
1;
1:
1E
b101000 @
#18499
0!
#18549
b1 ?
1A
1!
19
b0 @
0;
#18599
0!
#18649
b10 ?
1!
b1 @
#18699
0!
#18749
b11 ?
1!
b10 @
#18799
0!
#18849
b100 ?
0A
1!
16
15
b11 @
#18899
0!
#18949
b101 ?
1!
b0 *
05
b100 @
#18999
0!
#19049
b110 ?
1!
b101 @
#19099
0!
#19149
b111 ?
1!
b110 @
#19199
0!
#19249
b0 ?
1!
b111 @
#19299
0!
#19349
b1 ?
1!
b1000 @
#19399
0!
#19449
b10 ?
1!
b1001 @
#19499
0!
#19549
b11 ?
1!
b1010 @
#19599
0!
#19649
b100 ?
1!
06
15
b1011 @
#19699
0!
#19749
b101 ?
1!
b1 *
05
b1100 @
#19799
0!
#19849
b110 ?
1!
b1101 @
#19899
0!
#19949
b111 ?
1!
b1110 @
#19999
0!
#20049
b0 ?
1!
b1111 @
#20099
0!
#20149
b1 ?
1!
b10000 @
#20199
0!
#20249
b10 ?
1!
b10001 @
#20299
0!
#20349
b11 ?
1!
b10010 @
#20399
0!
#20449
b100 ?
15
1!
b10011 @
#20499
0!
#20549
b101 ?
1!
b10 *
05
b10100 @
#20599
0!
#20649
b110 ?
1!
b10101 @
#20699
0!
#20749
b111 ?
1!
b10110 @
#20799
0!
#20849
b0 ?
1!
b10111 @
#20899
0!
#20949
b1 ?
1!
b11000 @
#20999
0!
#21049
b10 ?
1!
b11001 @
#21099
0!
#21149
b11 ?
1!
b11010 @
#21199
0!
#21249
b100 ?
15
1!
b11011 @
#21299
0!
#21349
b101 ?
1!
b11 *
05
b11100 @
#21399
0!
#21449
b110 ?
1!
b11101 @
#21499
0!
#21549
b111 ?
1!
b11110 @
#21599
0!
#21649
b0 ?
1!
b11111 @
#21699
0!
#21749
b1 ?
1!
b100000 @
#21799
0!
#21849
b10 ?
1!
b100001 @
#21899
0!
#21949
b11 ?
1!
b100010 @
#21999
0!
#22049
b100 ?
15
1!
b100011 @
#22099
0!
#22149
b101 ?
1!
b100 *
05
b100100 @
#22199
0!
#22249
b110 ?
1!
b100101 @
#22299
0!
#22349
b111 ?
1!
b100110 @
#22379
0#
0$
#22399
0!
#22449
b0 ?
0D
1!
b100111 @
#22499
0!
#22549
b1 ?
1!
1;
0:
0E
b101000 @
#22599
0!
#22649
1A
1!
09
b0 @
0;
#22699
0!
#22749
b10 ?
1!
b1 @
#22799
0!
#22849
b11 ?
1!
b10 @
#22899
0!
#22949
b100 ?
0A
1!
16
15
b11 @
#22999
0!
#23049
b101 ?
1!
b0 *
05
b100 @
#23099
0!
#23149
b110 ?
1!
b101 @
#23199
0!
#23249
b111 ?
1!
b110 @
#23299
0!
#23349
b0 ?
1!
b111 @
#23399
0!
#23449
b1 ?
1!
b1000 @
#23499
0!
#23549
b10 ?
1!
b1001 @
#23599
0!
#23649
b11 ?
1!
b1010 @
#23699
0!
#23749
b100 ?
1!
06
15
b1011 @
#23799
0!
#23849
b101 ?
1!
b1 *
05
b1100 @
#23899
0!
#23949
b110 ?
1!
b1101 @
#23999
0!
#24049
b111 ?
1!
b1110 @
#24099
0!
#24149
b0 ?
1!
b1111 @
#24199
0!
#24249
b1 ?
1!
b10000 @
#24299
0!
#24349
b10 ?
1!
b10001 @
#24399
0!
#24449
b11 ?
1!
b10010 @
#24499
0!
#24549
b100 ?
15
1!
b10011 @
#24599
0!
#24649
b101 ?
1!
b10 *
05
b10100 @
#24699
0!
#24749
b110 ?
1!
b10101 @
#24799
0!
#24849
b111 ?
1!
b10110 @
#24899
0!
#24949
b0 ?
1!
b10111 @
#24999
0!
#25049
b1 ?
1!
b11000 @
#25099
0!
#25149
b10 ?
1!
b11001 @
#25199
0!
#25249
b11 ?
1!
b11010 @
#25299
0!
#25349
b100 ?
15
1!
b11011 @
#25399
0!
#25449
b101 ?
1!
b11 *
05
b11100 @
#25499
0!
#25549
b110 ?
1!
b11101 @
#25599
0!
#25649
b111 ?
1!
b11110 @
#25699
0!
#25749
b0 ?
1!
b11111 @
#25799
0!
#25849
b1 ?
1!
b100000 @
#25899
0!
#25949
b10 ?
1!
b100001 @
#25999
0!
#26049
b11 ?
1!
b100010 @
#26099
0!
#26149
b100 ?
15
1!
b100011 @
#26199
0!
#26249
b101 ?
1!
b100 *
05
b100100 @
#26299
0!
#26349
b110 ?
1!
b100101 @
#26399
0!
#26448
1#
1$
#26449
b111 ?
1D
1!
b100110 @
#26499
0!
#26549
b0 ?
1!
1;
1:
1E
b100111 @
#26599
0!
#26649
b1 ?
1A
1!
19
b0 @
0;
#26699
0!
#26749
b10 ?
1!
b1 @
#26799
0!
#26849
b11 ?
1!
b10 @
#26899
0!
#26949
b100 ?
0A
1!
16
15
b11 @
#26999
0!
#27049
b101 ?
1!
b0 *
05
b100 @
#27099
0!
#27149
b110 ?
1!
b101 @
#27199
0!
#27249
b111 ?
1!
b110 @
#27299
0!
#27349
b0 ?
1!
b111 @
#27399
0!
#27449
b1 ?
1!
b1000 @
#27499
0!
#27549
b10 ?
1!
b1001 @
#27599
0!
#27649
b11 ?
1!
b1010 @
#27699
0!
#27749
b100 ?
1!
06
15
b1011 @
#27799
0!
#27849
b101 ?
1!
b1 *
05
b1100 @
#27899
0!
#27949
b110 ?
1!
b1101 @
#27999
0!
#28049
b111 ?
1!
b1110 @
#28099
0!
#28149
b0 ?
1!
b1111 @
#28199
0!
#28249
b1 ?
1!
b10000 @
#28299
0!
#28349
b10 ?
1!
b10001 @
#28399
0!
#28449
b11 ?
1!
b10010 @
#28499
0!
#28549
b100 ?
15
1!
b10011 @
#28599
0!
#28649
b101 ?
1!
b10 *
05
b10100 @
#28699
0!
#28749
b110 ?
1!
b10101 @
#28799
0!
#28849
b111 ?
1!
b10110 @
#28899
0!
#28949
b0 ?
1!
b10111 @
#28999
0!
#29049
b1 ?
1!
b11000 @
#29099
0!
#29149
b10 ?
1!
b11001 @
#29199
0!
#29249
b11 ?
1!
b11010 @
#29299
0!
#29349
b100 ?
15
1!
b11011 @
#29399
0!
#29449
b101 ?
1!
b11 *
05
b11100 @
#29499
0!
#29549
b110 ?
1!
b11101 @
#29599
0!
#29649
b111 ?
1!
b11110 @
#29699
0!
#29749
b0 ?
1!
b11111 @
#29799
0!
#29849
b1 ?
1!
b100000 @
#29899
0!
#29949
b10 ?
1!
b100001 @
#29999
0!
#30049
b11 ?
1!
b100010 @
#30099
0!
#30149
b100 ?
15
1!
b100011 @
#30199
0!
#30249
b101 ?
1!
b100 *
05
b100100 @
#30299
0!
#30349
b110 ?
1!
b100101 @
#30399
0!
#30449
b111 ?
1!
b100110 @
#30499
0!
#30517
0#
0$
#30549
b0 ?
0D
1!
b100111 @
#30599
0!
#30649
b1 ?
1!
1;
0:
0E
b101000 @
#30699
0!
#30749
1A
1!
09
b0 @
0;
#30799
0!
#30849
b10 ?
1!
b1 @
#30899
0!
#30949
b11 ?
1!
b10 @
#30999
0!
#31049
b100 ?
0A
1!
16
15
b11 @
#31099
0!
#31149
b101 ?
1!
b0 *
05
b100 @
#31199
0!
#31249
b110 ?
1!
b101 @
#31299
0!
#31349
b111 ?
1!
b110 @
#31399
0!
#31449
b0 ?
1!
b111 @
#31499
0!
#31549
b1 ?
1!
b1000 @
#31599
0!
#31649
b10 ?
1!
b1001 @
#31699
0!
#31749
b11 ?
1!
b1010 @
#31799
0!
#31849
b100 ?
1!
06
15
b1011 @
#31899
0!
#31949
b101 ?
1!
b1 *
05
b1100 @
#31999
0!
#32049
b110 ?
1!
b1101 @
#32099
0!
#32149
b111 ?
1!
b1110 @
#32199
0!
#32249
b0 ?
1!
b1111 @
#32299
0!
#32349
b1 ?
1!
b10000 @
#32399
0!
#32449
b10 ?
1!
b10001 @
#32499
0!
#32549
b11 ?
1!
b10010 @
#32599
0!
#32649
b100 ?
15
1!
b10011 @
#32699
0!
#32749
b101 ?
1!
b10 *
05
b10100 @
#32799
0!
#32849
b110 ?
1!
b10101 @
#32899
0!
#32949
b111 ?
1!
b10110 @
#32999
0!
#33049
b0 ?
1!
b10111 @
#33099
0!
#33149
b1 ?
1!
b11000 @
#33199
0!
#33249
b10 ?
1!
b11001 @
#33299
0!
#33349
b11 ?
1!
b11010 @
#33399
0!
#33449
b100 ?
15
1!
b11011 @
#33499
0!
#33549
b101 ?
1!
b11 *
05
b11100 @
#33599
0!
#33649
b110 ?
1!
b11101 @
#33699
0!
#33749
b111 ?
1!
b11110 @
#33799
0!
#33849
b0 ?
1!
b11111 @
#33899
0!
#33949
b1 ?
1!
b100000 @
#33999
0!
#34049
b10 ?
1!
b100001 @
#34099
0!
#34149
b11 ?
1!
b100010 @
#34199
0!
#34249
b100 ?
15
1!
b100011 @
#34299
0!
#34349
b101 ?
1!
b100 *
05
b100100 @
#34399
0!
#34449
b110 ?
1!
b100101 @
#34499
0!
#34549
b111 ?
1!
b100110 @
#34586
1#
1$
#34599
0!
#34649
b0 ?
1D
1!
b100111 @
#34699
0!
#34749
b1 ?
1!
1;
1:
1E
b101000 @
#34799
0!
#34849
1A
1!
19
b0 @
0;
#34899
0!
#34949
b10 ?
1!
b1 @
#34999
0!
#35049
b11 ?
1!
b10 @
#35099
0!
#35149
b100 ?
0A
1!
16
15
b11 @
#35199
0!
#35249
b101 ?
1!
b0 *
05
b100 @
#35299
0!
#35349
b110 ?
1!
b101 @
#35399
0!
#35449
b111 ?
1!
b110 @
#35499
0!
#35549
b0 ?
1!
b111 @
#35599
0!
#35649
b1 ?
1!
b1000 @
#35699
0!
#35749
b10 ?
1!
b1001 @
#35799
0!
#35849
b11 ?
1!
b1010 @
#35899
0!
#35949
b100 ?
1!
06
15
b1011 @
#35999
0!
#36049
b101 ?
1!
b1 *
05
b1100 @
#36099
0!
#36149
b110 ?
1!
b1101 @
#36199
0!
#36249
b111 ?
1!
b1110 @
#36299
0!
#36349
b0 ?
1!
b1111 @
#36399
0!
#36449
b1 ?
1!
b10000 @
#36499
0!
#36549
b10 ?
1!
b10001 @
#36599
0!
#36649
b11 ?
1!
b10010 @
#36699
0!
#36749
b100 ?
15
1!
b10011 @
#36799
0!
#36849
b101 ?
1!
b10 *
05
b10100 @
#36899
0!
#36949
b110 ?
1!
b10101 @
#36999
0!
#37049
b111 ?
1!
b10110 @
#37099
0!
#37149
b0 ?
1!
b10111 @
#37199
0!
#37249
b1 ?
1!
b11000 @
#37299
0!
#37349
b10 ?
1!
b11001 @
#37399
0!
#37449
b11 ?
1!
b11010 @
#37499
0!
#37549
b100 ?
15
1!
b11011 @
#37599
0!
#37649
b101 ?
1!
b11 *
05
b11100 @
#37699
0!
#37749
b110 ?
1!
b11101 @
#37799
0!
#37849
b111 ?
1!
b11110 @
#37899
0!
#37949
b0 ?
1!
b11111 @
#37999
0!
#38049
b1 ?
1!
b100000 @
#38099
0!
#38149
b10 ?
1!
b100001 @
#38199
0!
#38249
b11 ?
1!
b100010 @
#38299
0!
#38349
b100 ?
15
1!
b100011 @
#38399
0!
#38449
b101 ?
1!
b100 *
05
b100100 @
#38499
0!
#38549
b110 ?
1!
b100101 @
#38599
0!
#38649
b111 ?
1!
b100110 @
#38655
0#
0$
#38699
0!
#38749
b0 ?
0D
1!
b100111 @
#38799
0!
#38849
b1 ?
1!
1;
0:
0E
b101000 @
#38899
0!
#38949
1A
1!
09
b0 @
0;
#38999
0!
#39049
b10 ?
1!
b1 @
#39099
0!
#39149
b11 ?
1!
b10 @
#39199
0!
#39249
b100 ?
0A
1!
16
15
b11 @
#39299
0!
#39349
b101 ?
1!
b0 *
05
b100 @
#39399
0!
#39449
b110 ?
1!
b101 @
#39499
0!
#39549
b111 ?
1!
b110 @
#39599
0!
#39649
b0 ?
1!
b111 @
#39699
0!
#39749
b1 ?
1!
b1000 @
#39799
0!
#39849
b10 ?
1!
b1001 @
#39899
0!
#39949
b11 ?
1!
b1010 @
#39999
0!
#40049
b100 ?
1!
06
15
b1011 @
#40099
0!
#40149
b101 ?
1!
b1 *
05
b1100 @
#40199
0!
#40249
b110 ?
1!
b1101 @
#40299
0!
#40349
b111 ?
1!
b1110 @
#40399
0!
#40449
b0 ?
1!
b1111 @
#40499
0!
#40549
b1 ?
1!
b10000 @
#40599
0!
#40649
b10 ?
1!
b10001 @
#40699
0!
#40749
b11 ?
1!
b10010 @
#40799
0!
#40849
b100 ?
15
1!
b10011 @
#40899
0!
#40949
b101 ?
1!
b10 *
05
b10100 @
#40999
0!
#41049
b110 ?
1!
b10101 @
#41099
0!
#41149
b111 ?
1!
b10110 @
#41199
0!
#41249
b0 ?
1!
b10111 @
#41299
0!
#41349
b1 ?
1!
b11000 @
#41399
0!
#41449
b10 ?
1!
b11001 @
#41499
0!
#41549
b11 ?
1!
b11010 @
#41599
0!
#41649
b100 ?
15
1!
b11011 @
#41699
0!
#41749
b101 ?
1!
b11 *
05
b11100 @
#41799
0!
#41849
b110 ?
1!
b11101 @
#41899
0!
#41949
b111 ?
1!
b11110 @
#41999
0!
#42049
b0 ?
1!
b11111 @
#42099
0!
#42149
b1 ?
1!
b100000 @
#42199
0!
#42249
b10 ?
1!
b100001 @
#42299
0!
#42349
b11 ?
1!
b100010 @
#42399
0!
#42449
b100 ?
15
1!
b100011 @
#42499
0!
#42549
b101 ?
1!
b100 *
05
b100100 @
#42599
0!
#42649
b110 ?
1!
b100101 @
#42699
0!
#42724
1#
1$
#42749
b111 ?
1D
1!
b100110 @
#42799
0!
#42849
b0 ?
1!
1;
1:
1E
b100111 @
#42899
0!
#42949
b1 ?
1A
1!
19
b0 @
0;
#42999
0!
#43049
b10 ?
1!
b1 @
#43099
0!
#43149
b11 ?
1!
b10 @
#43199
0!
#43249
b100 ?
0A
1!
16
15
b11 @
#43299
0!
#43349
b101 ?
1!
b0 *
05
b100 @
#43399
0!
#43449
b110 ?
1!
b101 @
#43499
0!
#43549
b111 ?
1!
b110 @
#43599
0!
#43649
b0 ?
1!
b111 @
#43699
0!
#43749
b1 ?
1!
b1000 @
#43799
0!
#43849
b10 ?
1!
b1001 @
#43899
0!
#43949
b11 ?
1!
b1010 @
#43999
0!
#44049
b100 ?
1!
06
15
b1011 @
#44099
0!
#44149
b101 ?
1!
b1 *
05
b1100 @
#44199
0!
#44249
b110 ?
1!
b1101 @
#44299
0!
#44349
b111 ?
1!
b1110 @
#44399
0!
#44449
b0 ?
1!
b1111 @
#44499
0!
#44549
b1 ?
1!
b10000 @
#44599
0!
#44649
b10 ?
1!
b10001 @
#44699
0!
#44749
b11 ?
1!
b10010 @
#44799
0!
#44849
b100 ?
15
1!
b10011 @
#44899
0!
#44949
b101 ?
1!
b10 *
05
b10100 @
#44999
0!
#45049
b110 ?
1!
b10101 @
#45099
0!
#45149
b111 ?
1!
b10110 @
#45199
0!
#45249
b0 ?
1!
b10111 @
#45299
0!
#45349
b1 ?
1!
b11000 @
#45399
0!
#45449
b10 ?
1!
b11001 @
#45499
0!
#45549
b11 ?
1!
b11010 @
#45599
0!
#45649
b100 ?
15
1!
b11011 @
#45699
0!
#45749
b101 ?
1!
b11 *
05
b11100 @
#45799
0!
#45849
b110 ?
1!
b11101 @
#45899
0!
#45949
b111 ?
1!
b11110 @
#45999
0!
#46049
b0 ?
1!
b11111 @
#46099
0!
#46149
b1 ?
1!
b100000 @
#46199
0!
#46249
b10 ?
1!
b100001 @
#46299
0!
#46349
b11 ?
1!
b100010 @
#46399
0!
#46449
b100 ?
15
1!
b100011 @
#46499
0!
#46549
b101 ?
1!
b100 *
05
b100100 @
#46599
0!
#46649
b110 ?
1!
b100101 @
#46699
0!
#46749
b111 ?
1!
b100110 @
#46793
0#
0$
#46799
0!
#46849
b0 ?
0D
1!
b100111 @
#46899
0!
#46949
b1 ?
1!
1;
0:
0E
b101000 @
#46999
0!
#47049
1A
1!
09
b0 @
0;
#47099
0!
#47149
b10 ?
1!
b1 @
#47199
0!
#47249
b11 ?
1!
b10 @
#47299
0!
#47349
b100 ?
0A
1!
16
15
b11 @
#47399
0!
#47449
b101 ?
1!
b0 *
05
b100 @
#47499
0!
#47549
b110 ?
1!
b101 @
#47599
0!
#47649
b111 ?
1!
b110 @
#47699
0!
#47749
b0 ?
1!
b111 @
#47799
0!
#47849
b1 ?
1!
b1000 @
#47899
0!
#47949
b10 ?
1!
b1001 @
#47999
0!
#48049
b11 ?
1!
b1010 @
#48099
0!
#48149
b100 ?
1!
06
15
b1011 @
#48199
0!
#48249
b101 ?
1!
b1 *
05
b1100 @
#48299
0!
#48349
b110 ?
1!
b1101 @
#48399
0!
#48449
b111 ?
1!
b1110 @
#48499
0!
#48549
b0 ?
1!
b1111 @
#48599
0!
#48649
b1 ?
1!
b10000 @
#48699
0!
#48749
b10 ?
1!
b10001 @
#48799
0!
#48849
b11 ?
1!
b10010 @
#48899
0!
#48949
b100 ?
15
1!
b10011 @
#48999
0!
#49049
b101 ?
1!
b10 *
05
b10100 @
#49099
0!
#49149
b110 ?
1!
b10101 @
#49199
0!
#49249
b111 ?
1!
b10110 @
#49299
0!
