shift-register-in.vcd
$comment Generated by nMigen $end
$date 2021-04-02 10:04:43.629327 $end
$timescale 100 ps $end
$scope module top $end
$var wire 1 ! clk $end
$var wire 1 " rst $end
$var wire 8 # value_out $end
$var wire 1 $ clear_in $end
$var wire 1 % enable_in $end
$var wire 1 & bit_in $end
$upscope $end
$enddefinitions $end
#0
$dumpvars
0!
0"
b0 #
0$
0%
0&
$end
#5000
1!
#10000
0!
#15000
1&
1!
#20000
0!
#24999
0&
1!
#29999
0!
#34999
1&
1!
#40000
0!
#45000
1!
#50000
0!
#55000
0&
1!
#60000
0!
#65000
1&
1!
1%
#70000
0!
#75000
b1 #
1!
0%
#80000
0!
#85000
1!
1%
#90000
0!
#95000
0&
b11 #
1!
#100000
0!
#105000
1&
b110 #
1!
#110000
0!
#115000
b1101 #
1!
#120000
0!
#125000
0&
b11011 #
1!
#130000
0!
#135000
1&
b110110 #
1!
#140000
0!
#145000
b1101101 #
1!
0%
#150000
0!
#155000
1!
#160000
0!
#165000
1!
#170000
0!
#174999
1!
1%
#179999
0!
#184999
0&
b11011011 #
1!
#189999
0!
#194999
1&
b10110110 #
1!
#199999
0!
#204999
0&
b1101101 #
1!
#209999
0!
#214999
1&
b11011010 #
1!
#219999
0!
#224999
0&
b10110101 #
1!
#229999
0!
#234999
1&
b1101010 #
1!
#239999
0!
#244999
0&
b11010101 #
1!
#249999
0!
#254999
1&
b10101010 #
1!
#259999
0!
#264999
0&
b1010101 #
1!
#269999
0!
#274999
1&
b10101010 #
1!
#279999
0!
#284999
0&
b1010101 #
1!
#289999
0!
#294999
1&
b10101010 #
1!
#299999
0!
#304999
0&
b1010101 #
1!
#309999
0!
#314999
1&
b10101010 #
1!
#319999
0!
#324999
0&
b1010101 #
1!
#329999
0!
#334999
1&
b10101010 #
1!
#339999
0!
#344999
0&
b1010101 #
1!
#349999
0!
#354999
1&
b10101010 #
1!
#359999
0!
#364999
0&
b1010101 #
1!
#369999
0!
#374999
1&
b10101010 #
1!
#379999
0!
#384999
0&
b1010101 #
1!
#389999
0!
#394999
1&
b10101010 #
1!
#399999
0!
#404999
0&
b1010101 #
1!
#409999
0!
#414999
1&
b10101010 #
1!
#419999
0!
#424999
0&
b1010101 #
1!
#429999
0!
#434999
1&
b10101010 #
1!
#439999
0!
#444999
0&
b1010101 #
1!
#449999
0!
#454999
1&
b10101010 #
1!
#459999
0!
#464999
0&
b1010101 #
1!
#469999
0!
#474999
1&
b10101010 #
1!
#479999
0!
#484999
0&
b1010101 #
1!
#489999
0!
#494999
1&
b10101010 #
1!
#499999
0!
#504999
0&
b1010101 #
1!
#509999
0!
#514999
1&
b10101010 #
1!
#519999
0!
#524999
0&
b1010101 #
1!
#529999
0!
#534999
1&
b10101010 #
1!
#539999
0!
#544999
0&
b1010101 #
1!
#549999
0!
#554999
1&
b10101010 #
1!
#559999
0!
#564999
0&
b1010101 #
1!
#569999
0!
#574999
1&
b10101010 #
1!
#579999
0!
#584999
0&
b1010101 #
1!
#589999
0!
#594999
1&
b10101010 #
1!
#599999
0!
#604999
0&
b1010101 #
1!
#609999
0!
#614999
1&
b10101010 #
1!
#619999
0!
#624999
0&
b1010101 #
1!
#629999
0!
#634999
1&
b10101010 #
1!
#639999
0!
#644999
0&
b1010101 #
1!
#649999
0!
#654999
1&
b10101010 #
1!
#659999
0!
#664999
0&
b1010101 #
1!
#669999
0!
#674999
1&
b10101010 #
1!
#679999
0!
#684999
0&
b1010101 #
1!
#689999
0!
#694999
b10101010 #
1!
