transmitter-smoke-test-48000.vcd
$comment Generated by nMigen $end
$date 2021-04-01 12:03:30.674050 $end
$timescale 100 ps $end
$scope module top $end
$var wire 1 ! clk $end
$var wire 1 " rst $end
$var wire 1 # adat_clk $end
$var wire 256 $ assembled_frame $end
$var wire 24 % channel0 $end
$var wire 24 & channel1 $end
$var wire 24 ' channel2 $end
$var wire 24 ( channel3 $end
$var wire 24 ) channel4 $end
$var wire 24 * channel5 $end
$var wire 24 + channel6 $end
$var wire 24 , channel7 $end
$var wire 4 - user_bits $end
$var wire 1 . ready_out $end
$var wire 1 / w_rdy $end
$var wire 1 0 frame_complete $end
$var wire 256 1 w_data $end
$var wire 1 2 w_en $end
$var wire 1 3 valid_in $end
$var wire 3 4 addr_in $end
$var wire 24 5 sample_in $end
$var wire 1 6 last_in $end
$var wire 4 7 user_data_in $end
$var wire 1 8 adat_out $end
$var wire 1 9 nrzi_out $end
$var wire 1 : data_in $end
$var wire 8 ; transmit_counter $end
$var wire 1 < frame_bit0 $end
$var wire 1 = frame_bit1 $end
$var wire 1 > frame_bit2 $end
$var wire 1 ? frame_bit3 $end
$var wire 1 @ frame_bit4 $end
$var wire 1 A frame_bit5 $end
$var wire 1 B frame_bit6 $end
$var wire 1 C frame_bit7 $end
$var wire 1 D frame_bit8 $end
$var wire 1 E frame_bit9 $end
$var wire 1 F frame_bit10 $end
$var wire 1 G frame_bit11 $end
$var wire 1 H frame_bit12 $end
$var wire 1 I frame_bit13 $end
$var wire 1 J frame_bit14 $end
$var wire 1 K frame_bit15 $end
$var wire 1 L frame_bit16 $end
$var wire 1 M frame_bit17 $end
$var wire 1 N frame_bit18 $end
$var wire 1 O frame_bit19 $end
$var wire 1 P frame_bit20 $end
$var wire 1 Q frame_bit21 $end
$var wire 1 R frame_bit22 $end
$var wire 1 S frame_bit23 $end
$var wire 1 T frame_bit24 $end
$var wire 1 U frame_bit25 $end
$var wire 1 V frame_bit26 $end
$var wire 1 W frame_bit27 $end
$var wire 1 X frame_bit28 $end
$var wire 1 Y frame_bit29 $end
$var wire 1 Z frame_bit30 $end
$var wire 1 [ frame_bit31 $end
$var wire 1 \ frame_bit32 $end
$var wire 1 ] frame_bit33 $end
$var wire 1 ^ frame_bit34 $end
$var wire 1 _ frame_bit35 $end
$var wire 1 ` frame_bit36 $end
$var wire 1 a frame_bit37 $end
$var wire 1 b frame_bit38 $end
$var wire 1 c frame_bit39 $end
$var wire 1 d frame_bit40 $end
$var wire 1 e frame_bit41 $end
$var wire 1 f frame_bit42 $end
$var wire 1 g frame_bit43 $end
$var wire 1 h frame_bit44 $end
$var wire 1 i frame_bit45 $end
$var wire 1 j frame_bit46 $end
$var wire 1 k frame_bit47 $end
$var wire 1 l frame_bit48 $end
$var wire 1 m frame_bit49 $end
$var wire 1 n frame_bit50 $end
$var wire 1 o frame_bit51 $end
$var wire 1 p frame_bit52 $end
$var wire 1 q frame_bit53 $end
$var wire 1 r frame_bit54 $end
$var wire 1 s frame_bit55 $end
$var wire 1 t frame_bit56 $end
$var wire 1 u frame_bit57 $end
$var wire 1 v frame_bit58 $end
$var wire 1 w frame_bit59 $end
$var wire 1 x frame_bit60 $end
$var wire 1 y frame_bit61 $end
$var wire 1 z frame_bit62 $end
$var wire 1 { frame_bit63 $end
$var wire 1 | frame_bit64 $end
$var wire 1 } frame_bit65 $end
$var wire 1 ~ frame_bit66 $end
$var wire 1 !! frame_bit67 $end
$var wire 1 "! frame_bit68 $end
$var wire 1 #! frame_bit69 $end
$var wire 1 $! frame_bit70 $end
$var wire 1 %! frame_bit71 $end
$var wire 1 &! frame_bit72 $end
$var wire 1 '! frame_bit73 $end
$var wire 1 (! frame_bit74 $end
$var wire 1 )! frame_bit75 $end
$var wire 1 *! frame_bit76 $end
$var wire 1 +! frame_bit77 $end
$var wire 1 ,! frame_bit78 $end
$var wire 1 -! frame_bit79 $end
$var wire 1 .! frame_bit80 $end
$var wire 1 /! frame_bit81 $end
$var wire 1 0! frame_bit82 $end
$var wire 1 1! frame_bit83 $end
$var wire 1 2! frame_bit84 $end
$var wire 1 3! frame_bit85 $end
$var wire 1 4! frame_bit86 $end
$var wire 1 5! frame_bit87 $end
$var wire 1 6! frame_bit88 $end
$var wire 1 7! frame_bit89 $end
$var wire 1 8! frame_bit90 $end
$var wire 1 9! frame_bit91 $end
$var wire 1 :! frame_bit92 $end
$var wire 1 ;! frame_bit93 $end
$var wire 1 <! frame_bit94 $end
$var wire 1 =! frame_bit95 $end
$var wire 1 >! frame_bit96 $end
$var wire 1 ?! frame_bit97 $end
$var wire 1 @! frame_bit98 $end
$var wire 1 A! frame_bit99 $end
$var wire 1 B! frame_bit100 $end
$var wire 1 C! frame_bit101 $end
$var wire 1 D! frame_bit102 $end
$var wire 1 E! frame_bit103 $end
$var wire 1 F! frame_bit104 $end
$var wire 1 G! frame_bit105 $end
$var wire 1 H! frame_bit106 $end
$var wire 1 I! frame_bit107 $end
$var wire 1 J! frame_bit108 $end
$var wire 1 K! frame_bit109 $end
$var wire 1 L! frame_bit110 $end
$var wire 1 M! frame_bit111 $end
$var wire 1 N! frame_bit112 $end
$var wire 1 O! frame_bit113 $end
$var wire 1 P! frame_bit114 $end
$var wire 1 Q! frame_bit115 $end
$var wire 1 R! frame_bit116 $end
$var wire 1 S! frame_bit117 $end
$var wire 1 T! frame_bit118 $end
$var wire 1 U! frame_bit119 $end
$var wire 1 V! frame_bit120 $end
$var wire 1 W! frame_bit121 $end
$var wire 1 X! frame_bit122 $end
$var wire 1 Y! frame_bit123 $end
$var wire 1 Z! frame_bit124 $end
$var wire 1 [! frame_bit125 $end
$var wire 1 \! frame_bit126 $end
$var wire 1 ]! frame_bit127 $end
$var wire 1 ^! frame_bit128 $end
$var wire 1 _! frame_bit129 $end
$var wire 1 `! frame_bit130 $end
$var wire 1 a! frame_bit131 $end
$var wire 1 b! frame_bit132 $end
$var wire 1 c! frame_bit133 $end
$var wire 1 d! frame_bit134 $end
$var wire 1 e! frame_bit135 $end
$var wire 1 f! frame_bit136 $end
$var wire 1 g! frame_bit137 $end
$var wire 1 h! frame_bit138 $end
$var wire 1 i! frame_bit139 $end
$var wire 1 j! frame_bit140 $end
$var wire 1 k! frame_bit141 $end
$var wire 1 l! frame_bit142 $end
$var wire 1 m! frame_bit143 $end
$var wire 1 n! frame_bit144 $end
$var wire 1 o! frame_bit145 $end
$var wire 1 p! frame_bit146 $end
$var wire 1 q! frame_bit147 $end
$var wire 1 r! frame_bit148 $end
$var wire 1 s! frame_bit149 $end
$var wire 1 t! frame_bit150 $end
$var wire 1 u! frame_bit151 $end
$var wire 1 v! frame_bit152 $end
$var wire 1 w! frame_bit153 $end
$var wire 1 x! frame_bit154 $end
$var wire 1 y! frame_bit155 $end
$var wire 1 z! frame_bit156 $end
$var wire 1 {! frame_bit157 $end
$var wire 1 |! frame_bit158 $end
$var wire 1 }! frame_bit159 $end
$var wire 1 ~! frame_bit160 $end
$var wire 1 !" frame_bit161 $end
$var wire 1 "" frame_bit162 $end
$var wire 1 #" frame_bit163 $end
$var wire 1 $" frame_bit164 $end
$var wire 1 %" frame_bit165 $end
$var wire 1 &" frame_bit166 $end
$var wire 1 '" frame_bit167 $end
$var wire 1 (" frame_bit168 $end
$var wire 1 )" frame_bit169 $end
$var wire 1 *" frame_bit170 $end
$var wire 1 +" frame_bit171 $end
$var wire 1 ," frame_bit172 $end
$var wire 1 -" frame_bit173 $end
$var wire 1 ." frame_bit174 $end
$var wire 1 /" frame_bit175 $end
$var wire 1 0" frame_bit176 $end
$var wire 1 1" frame_bit177 $end
$var wire 1 2" frame_bit178 $end
$var wire 1 3" frame_bit179 $end
$var wire 1 4" frame_bit180 $end
$var wire 1 5" frame_bit181 $end
$var wire 1 6" frame_bit182 $end
$var wire 1 7" frame_bit183 $end
$var wire 1 8" frame_bit184 $end
$var wire 1 9" frame_bit185 $end
$var wire 1 :" frame_bit186 $end
$var wire 1 ;" frame_bit187 $end
$var wire 1 <" frame_bit188 $end
$var wire 1 =" frame_bit189 $end
$var wire 1 >" frame_bit190 $end
$var wire 1 ?" frame_bit191 $end
$var wire 1 @" frame_bit192 $end
$var wire 1 A" frame_bit193 $end
$var wire 1 B" frame_bit194 $end
$var wire 1 C" frame_bit195 $end
$var wire 1 D" frame_bit196 $end
$var wire 1 E" frame_bit197 $end
$var wire 1 F" frame_bit198 $end
$var wire 1 G" frame_bit199 $end
$var wire 1 H" frame_bit200 $end
$var wire 1 I" frame_bit201 $end
$var wire 1 J" frame_bit202 $end
$var wire 1 K" frame_bit203 $end
$var wire 1 L" frame_bit204 $end
$var wire 1 M" frame_bit205 $end
$var wire 1 N" frame_bit206 $end
$var wire 1 O" frame_bit207 $end
$var wire 1 P" frame_bit208 $end
$var wire 1 Q" frame_bit209 $end
$var wire 1 R" frame_bit210 $end
$var wire 1 S" frame_bit211 $end
$var wire 1 T" frame_bit212 $end
$var wire 1 U" frame_bit213 $end
$var wire 1 V" frame_bit214 $end
$var wire 1 W" frame_bit215 $end
$var wire 1 X" frame_bit216 $end
$var wire 1 Y" frame_bit217 $end
$var wire 1 Z" frame_bit218 $end
$var wire 1 [" frame_bit219 $end
$var wire 1 \" frame_bit220 $end
$var wire 1 ]" frame_bit221 $end
$var wire 1 ^" frame_bit222 $end
$var wire 1 _" frame_bit223 $end
$var wire 1 `" frame_bit224 $end
$var wire 1 a" frame_bit225 $end
$var wire 1 b" frame_bit226 $end
$var wire 1 c" frame_bit227 $end
$var wire 1 d" frame_bit228 $end
$var wire 1 e" frame_bit229 $end
$var wire 1 f" frame_bit230 $end
$var wire 1 g" frame_bit231 $end
$var wire 1 h" frame_bit232 $end
$var wire 1 i" frame_bit233 $end
$var wire 1 j" frame_bit234 $end
$var wire 1 k" frame_bit235 $end
$var wire 1 l" frame_bit236 $end
$var wire 1 m" frame_bit237 $end
$var wire 1 n" frame_bit238 $end
$var wire 1 o" frame_bit239 $end
$var wire 1 p" frame_bit240 $end
$var wire 1 q" frame_bit241 $end
$var wire 1 r" frame_bit242 $end
$var wire 1 s" frame_bit243 $end
$var wire 1 t" frame_bit244 $end
$var wire 1 u" frame_bit245 $end
$var wire 1 v" frame_bit246 $end
$var wire 1 w" frame_bit247 $end
$var wire 1 x" frame_bit248 $end
$var wire 1 y" frame_bit249 $end
$var wire 1 z" frame_bit250 $end
$var wire 1 {" frame_bit251 $end
$var wire 1 |" frame_bit252 $end
$var wire 1 }" frame_bit253 $end
$var wire 1 ~" frame_bit254 $end
$var wire 1 !# frame_bit255 $end
$var wire 1 "# r_en $end
$var wire 1 ## r_rdy $end
$var wire 256 $# r_data $end
$scope module nrzi_encoder $end
$var wire 1 # adat_clk $end
$var wire 1 9 nrzi_out $end
$var wire 1 : data_in $end
$upscope $end
$scope module transmit_fifo $end
$var wire 1 ! clk $end
$var wire 1 " rst $end
$var wire 1 # adat_clk $end
$var wire 1 / w_rdy $end
$var wire 256 1 w_data $end
$var wire 1 2 w_en $end
$var wire 1 "# r_en $end
$var wire 1 ## r_rdy $end
$var wire 256 $# r_data $end
$var wire 3 %# produce_w_nxt $end
$var wire 3 &# produce_w_bin $end
$var wire 3 '# consume_r_nxt $end
$var wire 3 (# consume_r_bin $end
$var wire 3 )# i $end
$var wire 3 *# produce_w_gry $end
$var wire 3 +# o $end
$var wire 3 ,# i$1 $end
$var wire 3 -# consume_r_gry $end
$var wire 3 .# o$1 $end
$var wire 3 /# i$2 $end
$var wire 3 0# consume_w_gry $end
$var wire 3 1# consume_w_bin $end
$var wire 3 2# o$2 $end
$var wire 3 3# i$3 $end
$var wire 3 4# produce_r_gry $end
$var wire 3 5# produce_r_bin $end
$var wire 3 6# o$3 $end
$var wire 1 7# w_full $end
$var wire 1 8# r_empty $end
$var wire 3 9# w_level $end
$var wire 3 :# r_level $end
$var wire 2 ;# storage_w_addr $end
$var wire 256 <# storage_w_data $end
$var wire 1 =# storage_w_en $end
$var wire 2 ># storage_r_addr $end
$var wire 256 ?# storage_r_data $end
$var wire 1 @# storage_r_en $end
$var wire 3 A# i$4 $end
$var wire 1 B# r_rst $end
$var wire 1 C# r_rst$1 $end
$var wire 3 D# o$4 $end
$scope module consume_cdc $end
$var wire 1 ! clk $end
$var wire 1 " rst $end
$var wire 3 -# consume_r_gry $end
$var wire 3 0# consume_w_gry $end
$var wire 3 G# stage0 $end
$var wire 3 H# stage1 $end
$upscope $end
$scope module consume_dec $end
$var wire 3 /# i $end
$var wire 3 2# o $end
$upscope $end
$scope module consume_enc $end
$var wire 3 ,# i $end
$var wire 3 .# o $end
$upscope $end
$scope module produce_cdc $end
$var wire 1 # adat_clk $end
$var wire 3 *# produce_w_gry $end
$var wire 3 4# produce_r_gry $end
$var wire 3 E# stage0 $end
$var wire 3 F# stage1 $end
$upscope $end
$scope module produce_dec $end
$var wire 3 3# i $end
$var wire 3 6# o $end
$upscope $end
$scope module produce_enc $end
$var wire 3 )# i $end
$var wire 3 +# o $end
$upscope $end
$scope module r_port $end
$var wire 1 # adat_clk $end
$var wire 2 ># storage_r_addr $end
$var wire 256 ?# storage_r_data $end
$var wire 1 @# storage_r_en $end
$var wire 256 I# memory(0) $end
$var wire 256 J# memory(1) $end
$var wire 256 K# memory(2) $end
$var wire 256 L# memory(3) $end
$upscope $end
$scope module rst_cdc $end
$var wire 1 " rst $end
$var wire 1 # adat_clk $end
$var wire 1 C# r_rst $end
$var wire 1 M# async_ff_clk $end
$var wire 1 N# async_ff_rst $end
$var wire 1 O# stage0 $end
$var wire 1 P# stage1 $end
$upscope $end
$scope module rst_dec $end
$var wire 3 A# i $end
$var wire 3 D# o $end
$upscope $end
$scope module w_port $end
$var wire 1 ! clk $end
$var wire 1 " rst $end
$var wire 2 ;# storage_w_addr $end
$var wire 256 <# storage_w_data $end
$var wire 1 =# storage_w_en $end
$var wire 256 I# memory(0) $end
$var wire 256 J# memory(1) $end
$var wire 256 K# memory(2) $end
$var wire 256 L# memory(3) $end
$upscope $end
$upscope $end
$upscope $end
$enddefinitions $end
#0
$dumpvars
0!
0"
0#
b100000000001000010000100001000010000100001000010000100001000010000100001000010000100001000010000100001000010000100001000010000100001000010000100001000010000100001000010000100001000010000100001000010000100001000010000100001000010000100001000010000100001 $
b0 %
b0 &
b0 '
b0 (
b0 )
b0 *
b0 +
b0 ,
b0 -
1.
1/
00
b0 1
02
03
b0 4
b0 5
06
b0 7
08
09
0:
b0 ;
0<
0=
0>
0?
0@
0A
0B
0C
0D
0E
0F
0G
0H
0I
0J
0K
0L
0M
0N
0O
0P
0Q
0R
0S
0T
0U
0V
0W
0X
0Y
0Z
0[
0\
0]
0^
0_
0`
0a
0b
0c
0d
0e
0f
0g
0h
0i
0j
0k
0l
0m
0n
0o
0p
0q
0r
0s
0t
0u
0v
0w
0x
0y
0z
0{
0|
0}
0~
0!!
0"!
0#!
0$!
0%!
0&!
0'!
0(!
0)!
0*!
0+!
0,!
0-!
0.!
0/!
00!
01!
02!
03!
04!
05!
06!
07!
08!
09!
0:!
0;!
0<!
0=!
0>!
0?!
0@!
0A!
0B!
0C!
0D!
0E!
0F!
0G!
0H!
0I!
0J!
0K!
0L!
0M!
0N!
0O!
0P!
0Q!
0R!
0S!
0T!
0U!
0V!
0W!
0X!
0Y!
0Z!
0[!
0\!
0]!
0^!
0_!
0`!
0a!
0b!
0c!
0d!
0e!
0f!
0g!
0h!
0i!
0j!
0k!
0l!
0m!
0n!
0o!
0p!
0q!
0r!
0s!
0t!
0u!
0v!
0w!
0x!
0y!
0z!
0{!
0|!
0}!
0~!
0!"
0""
0#"
0$"
0%"
0&"
0'"
0("
0)"
0*"
0+"
0,"
0-"
0."
0/"
00"
01"
02"
03"
04"
05"
06"
07"
08"
09"
0:"
0;"
0<"
0="
0>"
0?"
0@"
0A"
0B"
0C"
0D"
0E"
0F"
0G"
0H"
0I"
0J"
0K"
0L"
0M"
0N"
0O"
0P"
0Q"
0R"
0S"
0T"
0U"
0V"
0W"
0X"
0Y"
0Z"
0["
0\"
0]"
0^"
0_"
0`"
0a"
0b"
0c"
0d"
0e"
0f"
0g"
0h"
0i"
0j"
0k"
0l"
0m"
0n"
0o"
0p"
0q"
0r"
0s"
0t"
0u"
0v"
0w"
0x"
0y"
0z"
0{"
0|"
0}"
0~"
0!#
0"#
0##
b0 $#
b0 %#
b0 &#
b0 '#
b0 (#
b0 )#
b0 *#
b0 +#
b0 ,#
b0 -#
b0 .#
b0 /#
b0 0#
b0 1#
b0 2#
b0 3#
b0 4#
b0 5#
b0 6#
07#
18#
b0 9#
b0 :#
b0 ;#
b0 <#
0=#
b0 >#
b0 ?#
1@#
b0 A#
0B#
1C#
b0 D#
b0 E#
b0 F#
b0 G#
b0 H#
b0 I#
b0 J#
b0 K#
b0 L#
0M#
0N#
1O#
1P#
$end
#50
1!
#100
0!
#150
1!
#200
0!
#250
13
1!
b101 7
#300
0!
#349
b1 5
b1 4
1!
#399
0!
#406
0O#
1#
b1 ;
1M#
1B#
#449
1!
b100000000001000010000100001000010000100001000010000100001000010000100001000010000100001000010000100001000010000100001000010000100001000010000100001000010000100001000010000100001000010000100001000010000100001000010000100011000010000100001000010000100001 $
b10 5
b1 &
b10 4
#499
0!
#549
1!
b100000000001000010000100001000010000100001000010000100001000010000100001000010000100001000010000100001000010000100001000010000100001000010000100001000010000100001000010000100001000010000100101000010000100001000010000100011000010000100001000010000100001 $
b11 5
b11 4
b10 '
#600
0!
#650
b11 (
1!
b100000000001000010000100001000010000100001000010000100001000010000100001000010000100001000010000100001000010000100001000010000100001000010000100001000010000100111000010000100001000010000100101000010000100001000010000100011000010000100001000010000100001 $
b1100 5
b100 4
#700
0!
#750
1!
b100000000001000010000100001000010000100001000010000100001000010000100001000010000100001000010000100001000010000100001000010000111001000010000100001000010000100111000010000100001000010000100101000010000100001000010000100011000010000100001000010000100001 $
b1101 5
b1100 )
b101 4
#800
0!
#813
0M#
0#
#850
1!
b100000000001000010000100001000010000100001000010000100001000010000100001000010000100001000010000111011000010000100001000010000111001000010000100001000010000100111000010000100001000010000100101000010000100001000010000100011000010000100001000010000100001 $
b1110 5
b110 4
b1101 *
#900
0!
#950
b1110 +
1!
b100000000001000010000100001000010000100001000010000100001000010000111101000010000100001000010000111011000010000100001000010000111001000010000100001000010000100111000010000100001000010000100101000010000100001000010000100011000010000100001000010000100001 $
b1111 5
16
b111 4
#1000
0!
#1050
10
1!
b101100000000001000010000100001000010000111111000010000100001000010000111101000010000100001000010000111011000010000100001000010000111001000010000100001000010000100111000010000100001000010000100101000010000100001000010000100011000010000100001000010000100001 $
b1111 ,
03
06
b101 -
#1100
0!
#1150
00
b1 +#
12
b1 %#
1!
b101100000000001000010000100001000010000111111000010000100001000010000111101000010000100001000010000111011000010000100001000010000111001000010000100001000010000100111000010000100001000010000100101000010000100001000010000100011000010000100001000010000100001 <#
b1 )#
b101100000000001000010000100001000010000111111000010000100001000010000111101000010000100001000010000111011000010000100001000010000111001000010000100001000010000100111000010000100001000010000100101000010000100001000010000100011000010000100001000010000100001 1
1=#
#1200
0!
#1220
1#
0C#
b10 ;
0P#
1M#
#1250
b101100000000001000010000100001000010000111111000010000100001000010000111101000010000100001000010000111011000010000100001000010000111001000010000100001000010000100111000010000100001000010000100101000010000100001000010000100011000010000100001000010000100001 I#
b1 &#
02
0=#
1!
b1 ;#
b1 *#
#1300
0!
#1350
b1 9#
1!
#1400
0!
#1450
1!
#1500
0!
#1550
1!
#1600
0!
#1627
0M#
0#
#1650
1!
#1700
0!
#1750
1!
#1800
0!
#1850
1!
#1900
0!
#1950
1!
#2000
0!
#2034
b1 E#
1#
b11 ;
b101100000000001000010000100001000010000111111000010000100001000010000111101000010000100001000010000111011000010000100001000010000111001000010000100001000010000100111000010000100001000010000100101000010000100001000010000100011000010000100001000010000100001 ?#
1M#
b101100000000001000010000100001000010000111111000010000100001000010000111101000010000100001000010000111011000010000100001000010000111001000010000100001000010000100111000010000100001000010000100101000010000100001000010000100011000010000100001000010000100001 $#
0B#
#2050
1!
#2100
0!
#2150
1!
#2200
0!
#2250
1!
#2300
0!
#2350
1!
#2400
0!
#2441
0M#
0#
#2450
1!
#2500
0!
#2550
1!
#2600
0!
#2650
1!
#2700
0!
#2750
1!
#2800
0!
#2848
b1 6#
b1 :#
1M#
1##
b1 3#
1#
08#
b1 4#
b100 ;
b1 F#
b1 D#
b1 5#
b1 A#
#2850
1!
#2900
0!
#2950
1!
#3000
0!
#3050
1!
#3100
0!
#3150
1!
#3200
0!
#3250
1!
#3255
0M#
0#
#3300
0!
#3350
1!
#3400
0!
#3450
1!
#3500
0!
#3550
1!
#3600
0!
#3650
1!
#3662
1M#
1#
b101 ;
#3700
0!
#3750
1!
#3800
0!
#3850
1!
#3900
0!
#3950
1!
#4000
0!
#4050
1!
#4069
0M#
0#
#4100
0!
#4150
1!
#4200
0!
#4250
1!
#4300
0!
#4350
1!
#4400
0!
#4450
1!
#4475
1M#
1#
b110 ;
#4500
0!
#4550
1!
#4600
0!
#4650
1!
#4700
0!
#4750
1!
#4800
0!
#4850
1!
#4882
0M#
0#
#4900
0!
#4950
1!
#5000
0!
#5050
1!
#5100
0!
#5150
1!
#5200
0!
#5249
1!
#5289
1M#
1#
b111 ;
#5299
0!
#5349
1!
#5399
0!
#5449
1!
#5499
0!
#5549
1!
#5599
0!
#5649
1!
#5696
0M#
0#
#5699
0!
#5749
1!
#5799
0!
#5849
1!
#5899
0!
#5949
1!
#5999
0!
#6049
1!
#6099
0!
#6103
1M#
1#
b1000 ;
#6149
1!
#6199
0!
#6249
1!
#6299
0!
#6349
1!
#6399
0!
#6449
1!
#6499
0!
#6510
0M#
0#
#6549
1!
#6599
0!
#6649
1!
#6699
0!
#6749
1!
#6799
0!
#6849
1!
#6899
0!
#6917
1M#
1#
b1001 ;
#6949
1!
#6999
0!
#7049
1!
#7099
0!
#7149
1!
#7199
0!
#7249
1!
#7299
0!
#7324
0M#
0#
#7349
1!
#7399
0!
#7449
1!
#7499
0!
#7549
1!
#7599
0!
#7649
1!
#7699
0!
#7731
1M#
1#
b1010 ;
#7749
1!
#7799
0!
#7849
1!
#7899
0!
#7949
1!
#7999
0!
#8049
1!
#8099
0!
#8138
0M#
0#
#8149
1!
#8199
0!
#8249
1!
#8299
0!
#8349
1!
#8399
0!
#8449
1!
#8499
0!
#8544
1M#
1#
b1011 ;
#8549
1!
#8599
0!
#8649
1!
#8699
0!
#8749
1!
#8799
0!
#8849
1!
#8899
0!
#8949
1!
#8951
0M#
0#
#8999
0!
#9049
1!
#9099
0!
#9149
1!
#9199
0!
#9249
1!
#9299
0!
#9349
1!
#9358
1M#
1#
b1100 ;
#9399
0!
#9449
1!
#9499
0!
#9549
1!
#9599
0!
#9649
1!
#9699
0!
#9749
1!
#9765
0M#
0#
#9799
0!
#9849
1!
#9899
0!
#9949
1!
#9999
0!
#10049
1!
#10099
0!
#10149
1!
#10172
1M#
1#
b1101 ;
#10199
0!
#10249
1!
#10299
0!
#10349
1!
#10399
0!
#10449
1!
#10499
0!
#10549
1!
#10579
0M#
0#
#10599
0!
#10649
1!
#10699
0!
#10749
1!
#10799
0!
#10849
1!
#10899
0!
#10949
1!
#10986
1M#
1#
b1110 ;
#10999
0!
#11049
1!
#11099
0!
#11149
1!
#11199
0!
#11249
1!
#11299
0!
#11349
1!
#11393
0M#
0#
#11399
0!
#11449
1!
#11499
0!
#11549
1!
#11599
0!
#11649
1!
#11699
0!
#11749
1!
#11799
0!
#11800
1M#
1#
b1111 ;
#11849
1!
#11899
0!
#11949
1!
#11999
0!
#12049
1!
#12099
0!
#12149
1!
#12199
0!
#12207
0M#
0#
#12249
1!
#12299
0!
#12349
1!
#12399
0!
#12449
1!
#12499
0!
#12549
1!
#12599
0!
#12613
1M#
1#
b10000 ;
#12649
1!
#12699
0!
#12749
1!
#12799
0!
#12849
1!
#12899
0!
#12949
1!
#12999
0!
#13020
0M#
0#
#13049
1!
#13099
0!
#13149
1!
#13199
0!
#13249
1!
#13299
0!
#13349
1!
#13399
0!
#13427
1M#
1#
b10001 ;
#13449
1!
#13499
0!
#13549
1!
#13599
0!
#13649
1!
#13699
0!
#13749
1!
#13799
0!
#13834
0M#
0#
#13849
1!
#13899
0!
#13949
1!
#13999
0!
#14049
1!
#14099
0!
#14149
1!
#14199
0!
#14241
1M#
1#
b10010 ;
#14249
1!
#14299
0!
#14349
1!
#14399
0!
#14449
1!
#14499
0!
#14549
1!
#14599
0!
#14648
0M#
0#
#14649
1!
#14699
0!
#14749
1!
#14799
0!
#14849
1!
#14899
0!
#14949
1!
#14999
0!
#15049
1!
#15055
1M#
1#
b10011 ;
#15099
0!
#15149
1!
#15199
0!
#15249
1!
#15299
0!
#15349
1!
#15399
0!
#15449
1!
#15462
0M#
0#
#15499
0!
#15549
1!
#15599
0!
#15649
1!
#15699
0!
#15749
1!
#15799
0!
#15849
1!
#15869
1M#
1#
b10100 ;
#15899
0!
#15949
1!
#15999
0!
#16049
1!
#16099
0!
#16149
1!
#16199
0!
#16249
1!
#16276
0M#
0#
#16299
0!
#16349
1!
#16399
0!
#16449
1!
#16499
0!
#16549
1!
#16599
0!
#16649
1!
#16682
1M#
1#
b10101 ;
#16699
0!
#16749
1!
#16799
0!
#16849
1!
#16899
0!
#16949
1!
#16999
0!
#17049
1!
#17089
0M#
0#
#17099
0!
#17149
1!
#17199
0!
#17249
1!
#17299
0!
#17349
1!
#17399
0!
#17449
1!
#17496
1M#
1#
b10110 ;
#17499
0!
#17549
1!
#17599
0!
#17649
1!
#17699
0!
#17749
1!
#17799
0!
#17849
1!
#17899
0!
#17903
0M#
0#
#17949
1!
#17999
0!
#18049
1!
#18099
0!
#18149
1!
#18199
0!
#18249
1!
#18299
0!
#18310
1M#
1#
b10111 ;
#18349
1!
#18399
0!
#18449
1!
#18499
0!
#18549
1!
#18599
0!
#18649
1!
#18699
0!
#18717
0M#
0#
#18749
1!
#18799
0!
#18849
1!
#18899
0!
#18949
1!
#18999
0!
#19049
1!
#19099
0!
#19124
1M#
1#
b11000 ;
#19149
1!
#19199
0!
#19249
1!
#19299
0!
#19349
1!
#19399
0!
#19449
1!
#19499
0!
#19531
0M#
0#
#19549
1!
#19599
0!
#19649
1!
#19699
0!
#19749
1!
#19799
0!
#19849
1!
#19899
0!
#19938
1M#
1#
b11001 ;
#19949
1!
#19999
0!
#20049
1!
#20099
0!
#20149
1!
#20199
0!
#20249
1!
#20299
0!
#20345
0M#
0#
#20349
1!
#20399
0!
#20449
1!
#20499
0!
#20549
1!
#20599
0!
#20649
1!
#20699
0!
#20749
1!
#20751
1M#
1#
b11010 ;
#20799
0!
#20849
1!
#20899
0!
#20949
1!
#20999
0!
#21049
1!
#21099
0!
#21149
1!
#21158
0M#
0#
#21199
0!
#21249
1!
#21299
0!
#21349
1!
#21399
0!
#21449
1!
#21499
0!
#21549
1!
#21565
1M#
1#
b11011 ;
#21599
0!
#21649
1!
#21699
0!
#21749
1!
#21799
0!
#21849
1!
#21899
0!
#21949
1!
#21972
0M#
0#
#21999
0!
#22049
1!
#22099
0!
#22149
1!
#22199
0!
#22249
1!
#22299
0!
#22349
1!
#22379
1M#
1#
b11100 ;
#22399
0!
#22449
1!
#22499
0!
#22549
1!
#22599
0!
#22649
1!
#22699
0!
#22749
1!
#22786
0M#
0#
#22799
0!
#22849
1!
#22899
0!
#22949
1!
#22999
0!
#23049
1!
#23099
0!
#23149
1!
#23193
1M#
1#
b11101 ;
#23199
0!
#23249
1!
#23299
0!
#23349
1!
#23399
0!
#23449
1!
#23499
0!
#23549
1!
#23599
0!
#23600
0M#
0#
#23649
1!
#23699
0!
#23749
1!
#23799
0!
#23849
1!
#23899
0!
#23949
1!
#23999
0!
#24007
1M#
1#
b11110 ;
#24049
1!
#24099
0!
#24149
1!
#24199
0!
#24249
1!
#24299
0!
#24349
1!
#24399
0!
#24414
0M#
0#
#24449
1!
#24499
0!
#24549
1!
#24599
0!
#24649
1!
#24699
0!
#24749
1!
#24799
0!
#24820
1M#
1#
b11111 ;
#24849
1!
#24899
0!
#24949
1!
#24999
0!
#25049
1!
#25099
0!
#25149
1!
#25199
0!
#25227
0M#
0#
#25249
1!
#25299
0!
#25349
1!
#25399
0!
#25449
1!
#25499
0!
#25549
1!
#25599
0!
#25634
1M#
1#
b100000 ;
#25649
1!
#25699
0!
#25749
1!
#25799
0!
#25849
1!
#25899
0!
#25949
1!
#25999
0!
#26041
0M#
0#
#26049
1!
#26099
0!
#26149
1!
#26199
0!
#26249
1!
#26299
0!
#26349
1!
#26399
0!
#26448
1M#
1#
b100001 ;
#26449
1!
#26499
0!
#26549
1!
#26599
0!
#26649
1!
#26699
0!
#26749
1!
#26799
0!
#26849
1!
#26855
0M#
0#
#26899
0!
#26949
1!
#26999
0!
#27049
1!
#27099
0!
#27149
1!
#27199
0!
#27249
1!
#27262
1M#
1#
b100010 ;
#27299
0!
#27349
1!
#27399
0!
#27449
1!
#27499
0!
#27549
1!
#27599
0!
#27649
1!
#27669
0M#
0#
#27699
0!
#27749
1!
#27799
0!
#27849
1!
#27899
0!
#27949
1!
#27999
0!
#28049
1!
#28076
1M#
1#
b100011 ;
#28099
0!
#28149
1!
#28199
0!
#28249
1!
#28299
0!
#28349
1!
#28399
0!
#28449
1!
#28483
0M#
0#
#28499
0!
#28549
1!
#28599
0!
#28649
1!
#28699
0!
#28749
1!
#28799
0!
#28849
1!
#28889
1M#
1#
b100100 ;
#28899
0!
#28949
1!
#28999
0!
#29049
1!
#29099
0!
#29149
1!
#29199
0!
#29249
1!
#29296
0M#
0#
#29299
0!
#29349
1!
#29399
0!
#29449
1!
#29499
0!
#29549
1!
#29599
0!
#29649
1!
#29699
0!
